40 00 80 00 29 6d 80 21 28 00 48 00 10 10 10 10
40 00 80 00 29 6d c0 21 2a 00 48 00 00 11 00 11
40 00 60 00 3d 75 00 21 80 01 8d 00 20 40 00 00
40 00 60 00 3d 75 20 21 c0 01 8d 00 24 40 00 00
40 10 60 00 3d 75 40 21 90 01 8d 00 20 40 00 00
40 10 60 00 3d 75 60 21 d0 01 8d 00 24 40 00 00
5a 20 80 00 bd 77 80 21 70 00 00 00 00 01 8d 00
31 20 80 02 bd 0f c0 21 80 01 8d 00 01 00 11 01
5a 20 80 00 bd 77 80 21 c0 00 00 00 00 01 8d 00
41 20 80 00 bd 77 00 22 80 01 8d 00 c0 01 8d 00
5a 20 80 00 bd 77 80 21 d0 00 00 00 00 01 8d 00
41 20 80 00 bd 77 40 22 80 01 8d 00 c0 01 8d 00
5a 20 80 00 bd 77 80 21 f0 00 00 00 00 01 8d 00
41 20 80 00 bd 77 c0 20 80 01 8d 00 c0 01 8d 00
31 20 80 02 bd 0f 80 21 c0 00 8d 00 01 00 11 01
41 20 80 00 be 77 40 20 00 02 8d 00 80 01 8d 00
41 20 80 00 be 77 80 20 40 02 8d 00 80 01 8d 00
31 00 80 01 29 0d 00 22 00 00 8d 00 01 00 58 02
5a 20 80 00 bd 77 c0 20 80 00 00 00 00 01 8d 00
41 20 80 00 bd 77 80 21 c0 00 8d 00 c0 01 8d 00
5a 20 80 00 bd 77 c0 20 90 00 00 00 00 01 8d 00
41 20 80 00 bd 77 00 23 c0 00 8d 00 c0 01 8d 00
5a 20 80 00 bd 77 c0 20 a0 00 00 00 00 01 8d 00
41 20 80 00 bd 77 40 23 c0 00 8d 00 c0 01 8d 00
5a 20 80 00 bd 77 c0 20 b0 00 00 00 00 01 8d 00
41 20 80 00 bd 77 80 20 c0 00 8d 00 c0 01 8d 00
41 20 80 00 be 77 60 30 00 02 8d 00 80 01 8d 00
41 20 80 00 be 77 80 30 40 02 8d 00 00 03 8d 00
41 20 80 00 be 77 a0 30 80 02 8d 00 40 03 8d 00
41 20 80 00 be 77 c0 30 c0 02 8d 00 80 00 8d 00
01 02 60 00 22 00 40 20 20 00 8d 00 00 00 00 00
31 00 80 01 28 0d 00 20 00 00 8d 00 00 48 a0 85
54 01 60 00 bd 77 e1 20 64 00 6e 00 24 00 0e 00
01 01 60 00 61 00 47 21 00 00 00 00 00 00 00 00
01 01 60 80 be 03 af 20 84 00 6e 00 00 00 00 00
01 01 60 00 be 03 cf 20 a4 00 6e 00 00 00 00 00
54 01 60 00 bd 77 e2 20 64 00 6e 00 34 00 0e 00
54 01 60 00 bd 77 e4 20 64 00 6e 00 44 00 0e 00
54 01 60 00 bd 77 e8 20 64 00 6e 00 54 00 0e 00
31 01 60 01 bd 0f 28 21 ef 00 6f 00 01 00 11 01
01 01 60 00 be 03 8f 20 e4 00 6e 00 00 00 00 00
41 01 60 00 bd 77 27 21 e4 00 6a 00 2f 01 6f 00
41 01 60 00 a1 7f 48 21 0f 01 6f 00 00 00 00 45
01 01 60 00 be 03 6f 20 24 01 6e 00 00 00 00 00
05 01 60 00 21 1c 48 21 4f 01 6f 00 00 ff 07 00
01 01 60 00 22 00 4f 20 44 01 6e 00 00 00 00 00
31 01 60 01 bc 0f 0f 20 04 00 6e 00 00 c4 60 86
