40 00 80 00 29 6d 80 20 28 00 48 00 10 10 10 10
01 20 80 00 a6 00 c0 20 2c 01 00 00 00 00 00 00
01 20 80 00 e2 10 00 21 00 00 00 00 00 00 00 00
40 00 80 00 29 6d 00 21 2a 00 48 00 00 11 00 11
01 20 80 00 3d 01 40 21 80 00 8d 00 00 00 00 00
01 20 80 00 3d 01 80 21 00 01 8d 00 00 00 00 00
01 20 80 00 a5 03 80 20 40 01 8d 00 00 00 00 00
01 20 80 00 a5 03 00 21 80 01 8d 00 00 00 00 00
01 20 80 00 bd 00 40 21 80 00 8d 00 00 00 00 00
01 20 80 00 bd 00 80 20 00 01 8d 00 00 00 00 00
41 20 80 00 bd 77 00 21 40 01 8d 00 cc 00 00 00
41 20 80 00 bd 77 40 21 80 00 8d 00 ec 00 00 00
40 20 80 00 bd 77 80 20 00 01 8d 00 dc 00 00 00
40 20 80 00 bd 77 00 21 40 01 8d 00 fc 00 00 00
01 20 80 00 a6 03 40 20 80 00 8d 00 00 00 00 00
01 20 80 00 a6 03 80 20 00 01 8d 00 00 00 00 00
31 00 80 01 29 0d 80 20 00 00 8d 00 01 30 98 02
01 20 80 00 be 03 60 30 80 00 8d 00 00 00 00 00
01 20 80 00 be 03 80 30 c0 00 8d 00 00 00 00 00
01 20 80 00 be 03 a0 30 00 01 8d 00 00 00 00 00
01 20 80 00 be 03 c0 30 40 01 8d 00 00 00 00 00
01 02 60 00 22 00 40 20 20 00 8d 00 00 00 00 00
31 00 80 01 28 0d 00 20 00 00 8d 00 00 48 a0 85
