01 20 80 00 fe 73 60 30 00 00 00 00 00 00 00 00
01 20 80 00 fe 73 80 30 00 00 00 00 00 00 80 3f
01 20 80 00 fe 73 a0 30 00 00 00 00 00 00 00 00
01 20 80 00 fe 73 c0 30 00 00 00 00 00 00 80 3f
01 02 60 00 22 00 40 20 20 00 8d 00 00 00 00 00
31 00 80 01 28 0d 00 20 00 00 8d 00 00 48 a0 85
01 01 60 00 fd 52 83 20 00 00 00 00 00 30 00 00
01 05 60 00 a5 00 63 20 44 00 65 00 00 00 00 00
01 01 60 00 62 00 4f 20 00 00 00 00 00 00 00 00
01 09 60 00 a5 00 6c 20 80 00 64 00 00 00 00 00
01 01 60 00 be 03 8f 20 64 00 6e 00 00 00 00 00
31 01 60 01 bd 0f 88 20 85 00 65 00 01 00 11 01
41 01 60 00 bd 77 87 20 64 00 6a 00 8f 00 6f 00
01 01 60 00 be 03 6f 20 84 00 6e 00 00 00 00 00
31 01 60 01 bc 0f 0f 20 04 00 6e 00 00 c4 40 86
01 20 80 00 fe 73 60 30 00 00 00 00 00 00 00 00
01 20 80 00 fe 73 80 30 00 00 00 00 00 00 80 3f
01 20 80 00 fe 73 a0 30 00 00 00 00 00 00 00 00
01 20 80 00 fe 73 c0 30 00 00 00 00 00 00 80 3f
01 02 60 00 22 00 40 20 20 00 8d 00 00 00 00 00
31 00 80 01 28 0d 00 20 00 00 8d 00 00 48 a0 85
