01 20 80 00 e5 10 c0 20 00 00 00 00 00 00 00 00
01 20 80 00 e5 10 80 20 00 00 00 00 00 00 00 00
26 00 80 00 9c 73 00 20 00 00 8d 00 00 00 8d 00
10 20 80 04 a4 14 00 20 c0 00 8d 00 40 00 00 00
28 00 81 00 00 1c 00 34 00 14 60 00 0d 00 00 00
40 20 80 00 a5 14 00 21 80 00 8d 00 c0 00 8d 00
10 20 80 04 a4 14 00 20 00 01 8d 00 40 00 00 00
23 80 81 00 00 1c 00 34 00 14 60 00 03 00 00 00
40 20 80 00 a5 14 00 21 00 01 8d 00 40 40 00 00
25 80 80 00 84 1c 00 20 00 00 8d 00 00 00 01 00
40 20 80 00 a5 14 80 20 00 01 8d 00 c0 00 8d 00
10 20 80 04 a4 14 00 20 80 00 8d 00 40 00 00 00
23 80 81 00 00 1c 00 34 00 14 60 00 03 00 00 00
40 20 80 00 a5 14 80 20 80 00 8d 00 40 40 00 00
25 80 80 00 84 1c 00 20 00 00 8d 00 00 00 01 00
40 20 80 00 a5 1c c0 20 c0 00 8d 00 01 00 00 00
27 00 80 00 00 1c 00 34 00 14 60 00 f3 ff 00 00
01 20 80 00 bd 00 c0 20 80 00 8d 00 00 00 00 00
01 20 80 00 fe 73 80 30 00 00 00 00 00 00 80 3f
01 20 80 00 fe 73 a0 30 00 00 00 00 00 00 00 00
01 20 80 00 fe 73 c0 30 00 00 00 00 00 00 00 00
01 20 80 00 bd 00 80 20 40 00 00 00 00 00 00 00
31 20 80 02 bd 0f 00 21 80 00 8d 00 01 00 11 01
41 20 80 00 be 77 60 30 c0 00 8d 00 00 01 8d 00
01 02 60 00 22 00 40 20 20 00 8d 00 00 00 00 00
31 00 80 01 28 0d 00 20 00 00 8d 00 00 48 a0 85
31 01 60 01 bd 0f 68 20 4f 00 6f 00 01 00 11 01
01 01 60 00 62 00 4f 20 00 00 00 00 00 00 00 00
01 01 60 00 be 03 8f 20 44 00 6e 00 00 00 00 00
41 01 60 00 bd 77 67 20 44 00 6a 00 6f 00 6f 00
01 01 60 00 be 03 6f 20 64 00 6e 00 00 00 00 00
31 01 60 01 bc 0f 0f 20 04 00 6e 00 00 c4 40 86
