40 00 80 00 29 6d 40 21 28 00 48 00 10 10 10 10
40 00 80 00 29 6d 80 21 2a 00 48 00 00 11 00 11
40 00 60 00 3d 75 c0 20 40 01 8d 00 20 40 00 00
40 00 60 00 3d 75 e0 20 80 01 8d 00 24 40 00 00
40 10 60 00 3d 75 00 21 50 01 8d 00 20 40 00 00
40 10 60 00 3d 75 20 21 90 01 8d 00 24 40 00 00
5a 20 80 00 bd 77 40 21 70 00 00 00 c0 00 8d 00
31 20 80 02 bd 0f 80 21 40 01 8d 00 01 00 11 01
5a 20 80 00 bd 77 40 21 80 00 00 00 c0 00 8d 00
41 20 80 00 be 77 60 30 40 01 8d 00 80 01 8d 00
5a 20 80 00 bd 77 40 21 90 00 00 00 c0 00 8d 00
41 20 80 00 be 77 80 30 40 01 8d 00 80 01 8d 00
5a 20 80 00 bd 77 40 21 a0 00 00 00 c0 00 8d 00
41 20 80 00 be 77 a0 30 40 01 8d 00 80 01 8d 00
5a 20 80 00 bd 77 40 21 b0 00 00 00 c0 00 8d 00
41 20 80 00 be 77 c0 30 40 01 8d 00 80 01 8d 00
01 02 60 00 22 00 40 20 20 00 8d 00 00 00 00 00
31 00 80 01 28 0d 00 20 00 00 8d 00 00 48 a0 85
54 01 60 00 bd 77 c1 20 64 00 6e 00 24 00 0e 00
01 01 60 00 61 00 27 21 00 00 00 00 00 00 00 00
01 01 60 80 be 03 af 20 84 00 6e 00 00 00 00 00
54 01 60 00 bd 77 c2 20 64 00 6e 00 34 00 0e 00
54 01 60 00 bd 77 c4 20 64 00 6e 00 44 00 0e 00
54 01 60 00 bd 77 c8 20 64 00 6e 00 54 00 0e 00
31 01 60 01 bd 0f 08 21 cf 00 6f 00 01 00 11 01
01 01 60 00 be 03 8f 20 c4 00 6e 00 00 00 00 00
41 01 60 00 bd 77 07 21 c4 00 6a 00 0f 01 6f 00
41 01 60 00 a1 7f 28 21 ef 00 6f 00 00 00 00 45
01 01 60 00 be 03 6f 20 04 01 6e 00 00 00 00 00
05 01 60 00 21 1c 28 21 2f 01 6f 00 00 ff 07 00
01 01 60 00 22 00 4f 20 24 01 6e 00 00 00 00 00
31 01 60 01 bc 0f 0f 20 04 00 6e 00 00 c4 50 86
01 20 80 00 be 03 60 30 8c 00 00 00 00 00 00 00
01 20 80 00 be 03 80 30 9c 00 00 00 00 00 00 00
01 20 80 00 be 03 a0 30 ac 00 00 00 00 00 00 00
01 20 80 00 be 03 c0 30 bc 00 00 00 00 00 00 00
01 02 60 00 22 00 40 20 20 00 8d 00 00 00 00 00
31 00 80 01 28 0d 00 20 00 00 8d 00 00 48 a0 85
01 20 80 00 be 03 60 30 40 00 00 00 00 00 00 00
01 20 80 00 be 03 80 30 44 00 00 00 00 00 00 00
01 20 80 00 be 03 a0 30 48 00 00 00 00 00 00 00
01 20 80 00 be 03 c0 30 4c 00 00 00 00 00 00 00
01 02 60 00 22 00 40 20 20 00 8d 00 00 00 00 00
31 00 80 01 28 0d 00 20 00 00 8d 00 00 48 a0 85
54 01 60 00 bd 77 81 20 64 00 6e 00 24 00 0e 00
01 01 60 00 62 00 4f 20 00 00 00 00 00 00 00 00
54 01 60 00 bd 77 82 20 64 00 6e 00 34 00 0e 00
54 01 60 00 bd 77 84 20 64 00 6e 00 44 00 0e 00
54 01 60 00 bd 77 88 20 64 00 6e 00 54 00 0e 00
31 01 60 01 bd 0f a8 20 8f 00 6f 00 01 00 11 01
01 01 60 00 be 03 8f 20 84 00 6e 00 00 00 00 00
41 01 60 00 bd 77 a7 20 84 00 6a 00 af 00 6f 00
01 01 60 00 be 03 6f 20 a4 00 6e 00 00 00 00 00
31 01 60 01 bc 0f 0f 20 04 00 6e 00 00 c4 40 86
01 20 80 00 be 03 60 30 40 00 00 00 00 00 00 00
01 20 80 00 be 03 80 30 44 00 00 00 00 00 00 00
01 20 80 00 be 03 a0 30 48 00 00 00 00 00 00 00
01 20 80 00 be 03 c0 30 4c 00 00 00 00 00 00 00
01 02 60 00 22 00 40 20 20 00 8d 00 00 00 00 00
31 00 80 01 28 0d 00 20 00 00 8d 00 00 48 a0 85
40 00 80 00 29 6d 80 20 28 00 48 00 10 10 10 10
01 20 80 00 a6 00 c0 20 2c 01 00 00 00 00 00 00
01 20 80 00 e2 10 00 21 00 00 00 00 00 00 00 00
40 00 80 00 29 6d 00 21 2a 00 48 00 00 11 00 11
01 20 80 00 3d 01 40 21 80 00 8d 00 00 00 00 00
01 20 80 00 3d 01 80 21 00 01 8d 00 00 00 00 00
01 20 80 00 a5 03 80 20 40 01 8d 00 00 00 00 00
01 20 80 00 a5 03 00 21 80 01 8d 00 00 00 00 00
01 20 80 00 bd 00 40 21 80 00 8d 00 00 00 00 00
01 20 80 00 bd 00 80 20 00 01 8d 00 00 00 00 00
41 20 80 00 bd 77 00 21 40 01 8d 00 cc 00 00 00
41 20 80 00 bd 77 40 21 80 00 8d 00 ec 00 00 00
40 20 80 00 bd 77 80 20 00 01 8d 00 dc 00 00 00
40 20 80 00 bd 77 00 21 40 01 8d 00 fc 00 00 00
01 20 80 00 a6 03 40 20 80 00 8d 00 00 00 00 00
01 20 80 00 a6 03 80 20 00 01 8d 00 00 00 00 00
31 00 80 01 29 0d 80 20 00 00 8d 00 01 30 98 02
01 20 80 00 be 03 60 30 80 00 8d 00 00 00 00 00
01 20 80 00 be 03 80 30 c0 00 8d 00 00 00 00 00
01 20 80 00 be 03 a0 30 00 01 8d 00 00 00 00 00
01 20 80 00 be 03 c0 30 40 01 8d 00 00 00 00 00
01 02 60 00 22 00 40 20 20 00 8d 00 00 00 00 00
31 00 80 01 28 0d 00 20 00 00 8d 00 00 48 a0 85
40 00 80 00 29 6d 40 21 28 00 48 00 10 10 10 10
40 00 80 00 29 6d 80 21 2a 00 48 00 00 11 00 11
40 00 60 00 3d 75 c0 20 40 01 8d 00 20 40 00 00
40 00 60 00 3d 75 e0 20 80 01 8d 00 24 40 00 00
40 10 60 00 3d 75 00 21 50 01 8d 00 20 40 00 00
40 10 60 00 3d 75 20 21 90 01 8d 00 24 40 00 00
5a 20 80 00 bd 77 40 21 70 00 00 00 c0 00 8d 00
31 20 80 02 bd 0f 80 21 40 01 8d 00 01 00 11 01
5a 20 80 00 bd 77 40 21 80 00 00 00 c0 00 8d 00
41 20 80 00 bd 77 c0 21 40 01 8d 00 80 01 8d 00
5a 20 80 00 bd 77 40 21 90 00 00 00 c0 00 8d 00
41 20 80 00 bd 77 00 22 40 01 8d 00 80 01 8d 00
5a 20 80 00 bd 77 40 21 b0 00 00 00 c0 00 8d 00
41 20 80 00 bd 77 80 20 40 01 8d 00 80 01 8d 00
31 20 80 02 bd 0f c0 20 80 00 8d 00 01 00 11 01
41 20 80 00 be 77 40 20 c0 01 8d 00 c0 00 8d 00
41 20 80 00 be 77 80 20 00 02 8d 00 c0 00 8d 00
31 00 80 01 29 0d 80 20 00 00 8d 00 01 00 58 02
01 20 80 00 be 03 c0 30 40 01 8d 00 00 00 00 00
01 20 80 00 be 03 60 30 80 00 8d 00 00 00 00 00
01 20 80 00 be 03 80 30 c0 00 8d 00 00 00 00 00
01 20 80 00 be 03 a0 30 00 01 8d 00 00 00 00 00
01 02 60 00 22 00 40 20 20 00 8d 00 00 00 00 00
31 00 80 01 28 0d 00 20 00 00 8d 00 00 48 a0 85
54 01 60 00 bd 77 a1 20 64 00 6e 00 24 00 0e 00
01 01 60 00 62 00 4f 20 00 00 00 00 00 00 00 00
01 01 60 00 be 03 af 20 84 00 6e 00 00 00 00 00
54 01 60 00 bd 77 a2 20 64 00 6e 00 34 00 0e 00
54 01 60 00 bd 77 a4 20 64 00 6e 00 44 00 0e 00
54 01 60 00 bd 77 a8 20 64 00 6e 00 54 00 0e 00
31 01 60 01 bd 0f c8 20 af 00 6f 00 01 00 11 01
01 01 60 00 be 03 8f 20 a4 00 6e 00 00 00 00 00
41 01 60 00 bd 77 c7 20 a4 00 6a 00 cf 00 6f 00
01 01 60 00 be 03 6f 20 c4 00 6e 00 00 00 00 00
31 01 60 01 bc 0f 0f 20 04 00 6e 00 00 c4 50 86
40 00 80 00 29 6d 40 21 28 00 48 00 10 10 10 10
40 00 80 00 29 6d 80 21 2a 00 48 00 00 11 00 11
40 00 60 00 3d 75 c0 20 40 01 8d 00 20 40 00 00
40 00 60 00 3d 75 e0 20 80 01 8d 00 24 40 00 00
40 10 60 00 3d 75 00 21 50 01 8d 00 20 40 00 00
40 10 60 00 3d 75 20 21 90 01 8d 00 24 40 00 00
5a 20 80 00 bd 77 40 21 70 00 00 00 c0 00 8d 00
31 20 80 02 bd 0f 80 21 40 01 8d 00 01 00 11 01
5a 20 80 00 bd 77 40 21 80 00 00 00 c0 00 8d 00
41 20 80 00 bd 77 c0 21 40 01 8d 00 80 01 8d 00
5a 20 80 00 bd 77 40 21 90 00 00 00 c0 00 8d 00
41 20 80 00 bd 77 00 22 40 01 8d 00 80 01 8d 00
5a 20 80 00 bd 77 40 21 b0 00 00 00 c0 00 8d 00
41 20 80 00 bd 77 80 20 40 01 8d 00 80 01 8d 00
31 20 80 02 bd 0f c0 20 80 00 8d 00 01 00 11 01
41 20 80 00 be 77 40 20 c0 01 8d 00 c0 00 8d 00
41 20 80 00 be 77 80 20 00 02 8d 00 c0 00 8d 00
31 00 80 01 29 0d 80 20 00 00 8d 00 01 00 58 02
01 20 80 00 be 03 c0 30 40 01 8d 00 00 00 00 00
01 20 80 00 be 03 60 30 80 00 8d 00 00 00 00 00
01 20 80 00 be 03 80 30 c0 00 8d 00 00 00 00 00
01 20 80 00 be 03 a0 30 00 01 8d 00 00 00 00 00
01 02 60 00 22 00 40 20 20 00 8d 00 00 00 00 00
31 00 80 01 28 0d 00 20 00 00 8d 00 00 48 a0 85
