40 00 80 00 29 6d 80 21 28 00 48 00 10 10 10 10
10 20 80 01 bc 7f 00 20 84 00 00 00 00 00 80 3f
01 20 80 00 be 03 80 30 84 00 00 00 00 00 00 00
01 20 80 00 be 03 a0 30 88 00 00 00 00 00 00 00
01 20 80 00 be 03 c0 30 8c 00 00 00 00 00 00 00
01 20 80 00 be 03 a0 21 40 00 8d 00 00 00 00 00
40 00 80 00 29 6d c0 21 2a 00 48 00 00 11 00 11
40 00 60 00 3d 75 00 21 80 01 8d 00 20 40 00 00
40 00 60 00 3d 75 20 21 c0 01 8d 00 24 40 00 00
40 10 60 00 3d 75 40 21 90 01 8d 00 20 40 00 00
40 10 60 00 3d 75 60 21 d0 01 8d 00 24 40 00 00
5a 20 80 00 bd 77 80 21 d0 00 00 00 00 01 8d 00
31 20 80 02 bd 0f c0 21 80 01 8d 00 01 00 11 01
5a 20 80 00 bd 77 80 21 e0 00 00 00 00 01 8d 00
01 20 80 00 be 03 60 30 80 00 00 00 00 00 00 00
41 20 80 00 bd 77 80 20 80 01 8d 00 c0 01 8d 00
02 20 81 00 22 0c 60 21 80 00 8d 00 00 00 00 3f
01 02 60 00 22 00 40 20 20 00 8d 00 00 00 00 00
31 00 80 01 28 0d 00 20 00 00 8d 00 00 48 e0 85
41 01 60 00 bd 7f 61 20 40 00 60 00 00 00 00 3f
01 01 60 00 62 00 4f 20 00 00 00 00 00 00 00 00
01 01 60 00 be 03 8f 20 44 00 6e 00 00 00 00 00
40 01 60 00 be 7f a1 20 60 00 60 00 00 00 00 3f
31 01 60 01 bd 0f 68 20 4f 00 6f 00 01 00 11 01
41 01 60 00 bd 77 67 20 44 00 6a 00 6f 00 6f 00
01 01 60 00 be 03 6f 20 64 00 6e 00 00 00 00 00
31 01 60 01 bc 0f 0f 20 04 00 6e 00 00 c4 50 86
40 00 80 00 29 6d 40 21 28 00 48 00 10 10 10 10
40 00 80 00 29 6d 80 21 2a 00 48 00 00 11 00 11
40 00 60 00 3d 75 c0 20 40 01 8d 00 20 40 00 00
40 00 60 00 3d 75 e0 20 80 01 8d 00 24 40 00 00
40 10 60 00 3d 75 00 21 50 01 8d 00 20 40 00 00
40 10 60 00 3d 75 20 21 90 01 8d 00 24 40 00 00
5a 20 80 00 bd 77 40 21 70 00 00 00 c0 00 8d 00
31 20 80 02 bd 0f 80 21 40 01 8d 00 01 00 11 01
5a 20 80 00 bd 77 40 21 80 00 00 00 c0 00 8d 00
41 20 80 00 be 77 60 30 40 01 8d 00 80 01 8d 00
5a 20 80 00 bd 77 40 21 90 00 00 00 c0 00 8d 00
41 20 80 00 be 77 80 30 40 01 8d 00 80 01 8d 00
5a 20 80 00 bd 77 40 21 a0 00 00 00 c0 00 8d 00
41 20 80 00 be 77 a0 30 40 01 8d 00 80 01 8d 00
5a 20 80 00 bd 77 40 21 b0 00 00 00 c0 00 8d 00
41 20 80 00 be 77 c0 30 40 01 8d 00 80 01 8d 00
01 02 60 00 22 00 40 20 20 00 8d 00 00 00 00 00
31 00 80 01 28 0d 00 20 00 00 8d 00 00 48 a0 85
54 01 60 00 bd 77 c1 20 64 00 6e 00 24 00 0e 00
01 01 60 00 61 00 27 21 00 00 00 00 00 00 00 00
01 01 60 80 be 03 af 20 84 00 6e 00 00 00 00 00
54 01 60 00 bd 77 c2 20 64 00 6e 00 34 00 0e 00
54 01 60 00 bd 77 c4 20 64 00 6e 00 44 00 0e 00
54 01 60 00 bd 77 c8 20 64 00 6e 00 54 00 0e 00
31 01 60 01 bd 0f 08 21 cf 00 6f 00 01 00 11 01
01 01 60 00 be 03 8f 20 c4 00 6e 00 00 00 00 00
41 01 60 00 bd 77 07 21 c4 00 6a 00 0f 01 6f 00
41 01 60 00 a1 7f 28 21 ef 00 6f 00 00 00 00 45
01 01 60 00 be 03 6f 20 04 01 6e 00 00 00 00 00
05 01 60 00 21 1c 28 21 2f 01 6f 00 00 ff 07 00
01 01 60 00 22 00 4f 20 24 01 6e 00 00 00 00 00
31 01 60 01 bc 0f 0f 20 04 00 6e 00 00 c4 50 86
01 20 80 00 be 03 60 30 8c 00 00 00 00 00 00 00
01 20 80 00 be 03 80 30 9c 00 00 00 00 00 00 00
01 20 80 00 be 03 a0 30 ac 00 00 00 00 00 00 00
01 20 80 00 be 03 c0 30 bc 00 00 00 00 00 00 00
01 02 60 00 22 00 40 20 20 00 8d 00 00 00 00 00
31 00 80 01 28 0d 00 20 00 00 8d 00 00 48 a0 85
31 01 60 01 bd 0f 68 20 4f 00 6f 00 01 00 11 01
01 01 60 00 62 00 4f 20 00 00 00 00 00 00 00 00
01 01 60 00 be 03 8f 20 44 00 6e 00 00 00 00 00
41 01 60 00 bd 77 67 20 44 00 6a 00 6f 00 6f 00
01 01 60 00 be 03 6f 20 64 00 6e 00 00 00 00 00
31 01 60 01 bc 0f 0f 20 04 00 6e 00 00 c4 40 86
01 20 80 00 be 03 60 30 40 00 00 00 00 00 00 00
01 20 80 00 be 03 80 30 44 00 00 00 00 00 00 00
01 20 80 00 be 03 a0 30 48 00 00 00 00 00 00 00
01 20 80 00 be 03 c0 30 4c 00 00 00 00 00 00 00
01 02 60 00 22 00 40 20 20 00 8d 00 00 00 00 00
31 00 80 01 28 0d 00 20 00 00 8d 00 00 48 a0 85
