40 00 80 00 29 6d 40 21 28 00 48 00 10 10 10 10
40 00 80 00 29 6d 80 21 2a 00 48 00 00 11 00 11
40 00 60 00 3d 75 c0 20 40 01 8d 00 20 40 00 00
40 00 60 00 3d 75 e0 20 80 01 8d 00 24 40 00 00
40 10 60 00 3d 75 00 21 50 01 8d 00 20 40 00 00
40 10 60 00 3d 75 20 21 90 01 8d 00 24 40 00 00
5a 20 80 00 bd 77 40 21 70 00 00 00 c0 00 8d 00
31 20 80 02 bd 0f 80 21 40 01 8d 00 01 00 11 01
5a 20 80 00 bd 77 40 21 80 00 00 00 c0 00 8d 00
41 20 80 00 be 77 60 30 40 01 8d 00 80 01 8d 00
5a 20 80 00 bd 77 40 21 90 00 00 00 c0 00 8d 00
41 20 80 00 be 77 80 30 40 01 8d 00 80 01 8d 00
5a 20 80 00 bd 77 40 21 a0 00 00 00 c0 00 8d 00
41 20 80 00 be 77 a0 30 40 01 8d 00 80 01 8d 00
5a 20 80 00 bd 77 40 21 b0 00 00 00 c0 00 8d 00
41 20 80 00 be 77 c0 30 40 01 8d 00 80 01 8d 00
01 02 60 00 22 00 40 20 20 00 8d 00 00 00 00 00
31 00 80 01 28 0d 00 20 00 00 8d 00 00 48 a0 85
01 01 60 00 fd 52 48 20 00 00 00 00 00 00 00 30
01 01 60 00 62 00 4f 20 00 00 00 00 00 00 00 00
01 01 60 00 fe 52 8f 20 00 00 00 00 00 00 00 30
01 01 60 00 be 03 af 20 2b 00 01 00 00 00 00 00
31 01 60 01 bd 0f 48 20 4f 00 6f 00 01 00 11 01
01 01 60 00 fd 73 47 20 00 00 00 00 00 00 00 00
01 01 60 00 be 03 6f 20 44 00 6e 00 00 00 00 00
31 01 60 01 bc 0f 0f 20 04 00 6e 00 00 c4 50 86
