01 02 40 00 be 03 40 20 4c 00 87 00 00 00 00 00
32 00 80 05 c8 0f 00 20 40 00 8d 00 00 91 01 82
01 01 60 00 fe 52 6c 20 00 00 00 00 00 00 00 30
01 03 60 00 22 00 2f 22 04 00 6e 00 00 00 00 00
01 01 60 00 e6 10 4f 22 00 00 00 00 00 00 00 00
31 01 60 04 dd 0f 2f 21 24 02 6e 00 00 40 18 04
01 01 60 00 e6 10 4f 20 00 00 00 00 00 00 00 00
01 01 60 00 bd 03 4f 21 20 01 60 00 00 00 00 00
01 01 60 00 bd 03 8f 21 20 01 60 00 00 00 00 00
01 03 60 00 22 00 2f 22 04 00 6e 00 00 00 00 00
01 01 60 00 e6 10 4f 22 00 00 00 00 00 00 00 00
31 01 60 04 dd 0f ef 21 24 02 6e 00 01 40 18 04
38 00 60 07 bd 73 60 21 40 01 69 00 00 00 8d 00
38 00 60 06 bd 73 a0 21 80 01 69 00 00 00 8d 00
01 05 60 00 bd 03 41 20 60 01 60 00 00 00 00 00
01 05 60 00 bd 03 61 20 a5 41 65 00 00 00 00 00
01 09 60 00 bd 03 42 20 a5 01 65 00 00 00 00 00
01 09 60 00 a5 00 62 20 60 01 60 00 00 00 00 00
41 01 60 00 bd 77 83 22 64 00 65 00 25 00 65 00
5b 01 60 00 00 00 06 15 a8 40 01 00 02 a0 82 00
01 03 60 00 22 00 2f 22 04 00 6e 00 00 00 00 00
01 01 60 00 e6 10 4f 22 00 00 00 00 00 00 00 00
31 01 60 04 dd 0f 4f 22 24 02 6e 00 01 40 18 04
5b 01 60 00 01 00 06 03 a8 f0 80 2a 24 a0 42 05
01 03 60 00 22 00 2f 20 04 00 6e 00 00 00 00 00
31 01 60 06 dc 0f 0f 20 24 00 6e 00 00 c4 08 86
01 02 60 00 22 00 20 22 00 00 8d 00 00 00 00 00
01 02 00 00 62 00 28 22 00 00 00 00 00 00 00 00
31 02 80 09 49 0c 40 20 20 02 8d 00 01 03 28 02
41 00 60 00 be 77 20 20 40 00 00 00 50 00 00 00
41 00 60 00 be 77 40 20 44 00 00 00 50 00 00 00
41 00 60 00 be 77 60 20 48 00 00 00 50 00 00 00
41 00 60 00 be 77 80 20 4c 00 00 00 50 00 00 00
32 00 60 05 c8 0f 00 20 20 00 8d 00 00 94 01 88
01 02 60 00 22 00 20 22 00 00 8d 00 00 00 00 00
01 02 00 00 62 00 28 22 00 00 00 00 00 00 00 00
31 02 80 09 49 0c 40 20 20 02 8d 00 01 03 28 02
41 00 80 00 be 77 20 20 40 00 00 00 50 00 00 00
41 00 80 00 be 77 60 20 44 00 00 00 50 00 00 00
41 00 80 00 be 77 a0 20 48 00 00 00 50 00 00 00
41 00 80 00 be 77 e0 20 4c 00 00 00 50 00 00 00
32 00 80 05 c8 0f 00 20 20 00 8d 00 00 90 01 90
40 02 80 00 29 6d c0 20 28 00 28 00 10 10 00 11
01 00 60 00 a6 00 80 20 ec 00 00 00 00 00 00 00
01 00 60 00 e2 10 a0 20 00 00 00 00 00 00 00 00
01 00 60 00 3d 01 40 20 c0 00 89 00 00 00 00 00
01 00 60 00 3d 01 60 20 c8 00 89 00 00 00 00 00
01 00 60 00 a5 03 e0 20 40 00 8d 00 00 00 00 00
01 00 60 00 a5 03 00 21 60 00 8d 00 00 00 00 00
01 00 60 00 bd 00 20 21 e0 00 8d 00 00 00 00 00
01 00 60 00 bd 00 40 21 00 01 8d 00 00 00 00 00
5b 01 60 00 00 00 1e 0b 01 4e 20 c0 08 20 47 02
5b 01 60 00 00 00 1e 0c 01 5e 20 c0 0a 20 87 02
01 00 60 00 a6 03 40 20 60 01 8d 00 00 00 00 00
01 00 60 00 a6 03 60 20 80 01 8d 00 00 00 00 00
31 00 60 02 c9 0f 40 20 40 00 8d 00 01 70 41 08
01 00 60 00 be 03 20 20 40 00 8d 00 00 00 00 00
01 00 60 00 be 03 40 20 60 00 8d 00 00 00 00 00
01 00 60 00 be 03 60 20 80 00 8d 00 00 00 00 00
01 00 60 00 be 03 80 20 a0 00 8d 00 00 00 00 00
32 00 60 05 c8 0f 00 20 20 00 8d 00 00 94 01 88
40 00 80 00 29 6d 80 20 28 00 48 00 10 10 10 10
40 00 80 00 29 6d 00 21 2a 00 48 00 00 11 00 11
01 00 80 00 a6 00 c0 20 2c 01 00 00 00 00 00 00
01 00 80 00 e2 10 00 21 00 00 00 00 00 00 00 00
01 00 80 00 3d 01 40 20 80 00 8d 00 00 00 00 00
01 00 80 00 3d 01 80 20 00 01 8d 00 00 00 00 00
01 00 80 00 a5 03 00 21 40 00 8d 00 00 00 00 00
01 00 80 00 a5 03 40 21 80 00 8d 00 00 00 00 00
01 00 80 00 bd 00 80 21 00 01 8d 00 00 00 00 00
01 00 80 00 bd 00 c0 21 40 01 8d 00 00 00 00 00
5b 01 60 00 00 00 1e 10 01 6e 20 c0 0c 20 07 03
5b 11 60 00 00 00 1e 11 01 6e 20 c0 0c 20 47 03
5b 01 60 00 00 00 1e 12 01 7e 20 c0 0e 20 87 03
5b 11 60 00 00 00 1e 13 01 7e 20 c0 0e 20 c7 03
01 00 80 00 a6 03 40 20 00 02 8d 00 00 00 00 00
01 00 80 00 a6 03 80 20 40 02 8d 00 00 00 00 00
31 00 80 02 c9 0f 40 20 40 00 8d 00 01 70 82 10
01 00 80 00 be 03 20 20 40 00 8d 00 00 00 00 00
01 00 80 00 be 03 60 20 80 00 8d 00 00 00 00 00
01 00 80 00 be 03 a0 20 c0 00 8d 00 00 00 00 00
01 00 80 00 be 03 e0 20 00 01 8d 00 00 00 00 00
32 00 80 05 c8 0f 00 20 20 00 8d 00 00 90 01 90
