01 02 40 00 be 03 40 20 4c 00 87 00 00 00 00 00
32 00 80 05 c8 0f 00 20 40 00 8d 00 00 91 01 82
01 01 60 00 fd 52 c3 21 00 00 00 00 00 30 00 00
01 01 60 00 21 00 e1 21 20 00 00 00 00 00 00 00
10 01 60 01 a4 1c 01 20 20 00 00 00 00 00 00 00
22 01 62 00 8f 10 34 00 04 00 0e 00 04 00 0e 00
01 03 60 00 22 00 2f 22 04 00 6e 00 00 00 00 00
01 01 60 00 e6 10 4f 22 00 00 00 00 00 00 00 00
31 01 60 04 dd 0f 6f 22 24 02 6e 00 00 40 18 04
01 01 60 00 bd 03 8f 22 6f 02 6f 00 00 00 00 00
01 01 60 00 bd 03 cf 22 6f 02 6f 00 00 00 00 00
01 03 60 00 22 00 2f 22 04 00 6e 00 00 00 00 00
01 01 60 00 e6 10 4f 22 00 00 00 00 00 00 00 00
31 01 60 04 dd 0f 2f 23 24 02 6e 00 00 40 18 04
38 00 60 07 bd 73 a0 22 80 02 69 00 00 00 8d 00
38 00 60 06 bd 73 e0 22 c0 02 69 00 00 00 8d 00
01 05 60 00 bd 03 a1 20 a0 02 60 00 00 00 00 00
01 05 60 00 bd 03 c1 20 e5 42 65 00 00 00 00 00
01 09 60 00 bd 03 a2 20 e5 02 65 00 00 00 00 00
01 09 60 00 a5 00 c2 20 a0 02 60 00 00 00 00 00
41 01 60 00 bd 77 c3 23 c4 00 65 00 45 00 65 00
5b 01 60 00 00 00 06 1f a8 e0 01 00 04 a0 42 01
01 03 60 00 22 00 2f 22 04 00 6e 00 00 00 00 00
01 01 60 00 e6 10 4f 22 00 00 00 00 00 00 00 00
31 01 60 04 dd 0f 8f 23 24 02 6e 00 00 40 18 04
5b 01 60 00 00 00 06 03 a8 90 81 2a 38 a0 c2 07
01 03 60 00 22 00 2f 22 04 00 6e 00 00 00 00 00
01 01 60 00 e6 10 4f 22 00 00 00 00 01 00 00 00
31 01 60 04 dd 0f 4f 24 24 02 6e 00 00 40 18 04
01 01 60 00 a5 00 6c 20 c0 01 64 00 00 00 00 00
01 01 60 00 21 00 8f 20 44 04 6e 00 00 00 00 00
25 01 60 00 8f 10 02 00 04 00 6e 00 04 00 6e 00
10 01 60 01 a4 1c 01 20 e0 01 60 00 01 00 00 00
22 01 62 00 8f 10 34 00 04 00 0e 00 04 00 0e 00
01 03 60 00 22 00 2f 22 04 00 6e 00 00 00 00 00
01 01 60 00 e6 10 4f 22 00 00 00 00 02 00 00 00
31 01 60 04 dd 0f 0f 25 24 02 6e 00 00 40 18 04
01 01 60 00 bd 03 2f 25 0f 05 6f 00 00 00 00 00
01 01 60 00 bd 03 6f 25 0f 05 6f 00 00 00 00 00
01 03 60 00 22 00 2f 22 04 00 6e 00 00 00 00 00
01 01 60 00 e6 10 4f 22 00 00 00 00 02 00 00 00
31 01 60 04 dd 0f cf 25 24 02 6e 00 00 40 18 04
38 00 60 07 bd 73 40 25 20 05 69 00 00 00 8d 00
38 00 60 06 bd 73 80 25 60 05 69 00 00 00 8d 00
01 05 60 00 bd 03 e1 20 40 05 60 00 00 00 00 00
01 05 60 00 bd 03 01 21 85 45 65 00 00 00 00 00
01 09 60 00 bd 03 e2 20 85 05 65 00 00 00 00 00
01 09 60 00 a5 00 02 21 40 05 60 00 00 00 00 00
41 01 60 00 bd 77 63 26 04 01 65 00 45 00 65 00
5b 01 60 00 00 00 06 34 a8 30 03 00 04 a0 c2 01
01 03 60 00 22 00 2f 22 04 00 6e 00 00 00 00 00
01 01 60 00 e6 10 4f 22 00 00 00 00 02 00 00 00
31 01 60 04 dd 0f 2f 26 24 02 6e 00 00 40 18 04
5b 01 60 00 00 00 06 03 a8 e0 82 2a 62 a0 02 0d
01 03 60 00 22 00 2f 22 04 00 6e 00 00 00 00 00
01 01 60 00 e6 10 4f 22 00 00 00 00 03 00 00 00
31 01 60 04 dd 0f ef 26 24 02 6e 00 00 40 18 04
01 01 60 00 a5 00 6c 20 c0 01 64 00 00 00 00 00
01 01 60 00 21 00 8f 20 e4 06 6e 00 00 00 00 00
25 01 60 00 8f 10 02 00 04 00 6e 00 04 00 6e 00
10 01 60 01 a4 1c 01 20 e0 01 60 00 02 00 00 00
22 01 62 00 8f 10 34 00 04 00 0e 00 04 00 0e 00
01 03 60 00 22 00 2f 22 04 00 6e 00 00 00 00 00
01 01 60 00 e6 10 4f 22 00 00 00 00 04 00 00 00
31 01 60 04 dd 0f af 27 24 02 6e 00 00 40 18 04
01 01 60 00 bd 03 cf 27 af 07 6f 00 00 00 00 00
01 01 60 00 bd 03 0f 28 af 07 6f 00 00 00 00 00
01 03 60 00 22 00 2f 22 04 00 6e 00 00 00 00 00
01 01 60 00 e6 10 4f 22 00 00 00 00 04 00 00 00
31 01 60 04 dd 0f 6f 28 24 02 6e 00 00 40 18 04
38 00 60 07 bd 73 e0 27 c0 07 69 00 00 00 8d 00
38 00 60 06 bd 73 20 28 00 08 69 00 00 00 8d 00
01 05 60 00 bd 03 21 21 e0 07 60 00 00 00 00 00
01 05 60 00 bd 03 41 21 25 48 65 00 00 00 00 00
01 09 60 00 bd 03 22 21 25 08 65 00 00 00 00 00
01 09 60 00 a5 00 42 21 e0 07 60 00 00 00 00 00
41 01 60 00 bd 77 03 29 44 01 65 00 45 00 65 00
5b 01 60 00 00 00 06 49 a8 80 04 00 04 a0 42 02
01 03 60 00 22 00 2f 22 04 00 6e 00 00 00 00 00
01 01 60 00 e6 10 4f 22 00 00 00 00 04 00 00 00
31 01 60 04 dd 0f cf 28 24 02 6e 00 00 40 18 04
5b 01 60 00 00 00 06 03 a8 30 84 2a 8c a0 42 12
01 03 60 00 22 00 2f 22 04 00 6e 00 00 00 00 00
01 01 60 00 e6 10 4f 22 00 00 00 00 05 00 00 00
31 01 60 04 dd 0f 8f 29 24 02 6e 00 00 40 18 04
01 01 60 00 a5 00 6c 20 c0 01 64 00 00 00 00 00
01 01 60 00 21 00 8f 20 84 09 6e 00 00 00 00 00
25 01 60 00 8f 10 02 00 04 00 6e 00 04 00 6e 00
10 01 60 01 a4 1c 01 20 e0 01 60 00 03 00 00 00
22 01 62 00 8f 10 34 00 04 00 0e 00 04 00 0e 00
01 03 60 00 22 00 2f 22 04 00 6e 00 00 00 00 00
01 01 60 00 e6 10 4f 22 00 00 00 00 06 00 00 00
31 01 60 04 dd 0f 4f 2a 24 02 6e 00 00 40 18 04
01 01 60 00 bd 03 6f 2a 4f 0a 6f 00 00 00 00 00
01 01 60 00 bd 03 af 2a 4f 0a 6f 00 00 00 00 00
01 03 60 00 22 00 2f 22 04 00 6e 00 00 00 00 00
01 01 60 00 e6 10 4f 22 00 00 00 00 06 00 00 00
31 01 60 04 dd 0f 0f 2b 24 02 6e 00 00 40 18 04
38 00 60 07 bd 73 80 2a 60 0a 69 00 00 00 8d 00
38 00 60 06 bd 73 c0 2a a0 0a 69 00 00 00 8d 00
01 05 60 00 bd 03 61 21 80 0a 60 00 00 00 00 00
01 05 60 00 bd 03 81 21 c5 4a 65 00 00 00 00 00
01 09 60 00 bd 03 62 21 c5 0a 65 00 00 00 00 00
01 09 60 00 a5 00 82 21 80 0a 60 00 00 00 00 00
41 01 60 00 bd 77 a3 2b 84 01 65 00 45 00 65 00
5b 01 60 00 00 00 06 5e a8 d0 05 00 04 a0 c2 02
01 03 60 00 22 00 2f 22 04 00 6e 00 00 00 00 00
01 01 60 00 e6 10 4f 22 00 00 00 00 06 00 00 00
31 01 60 04 dd 0f 6f 2b 24 02 6e 00 00 40 18 04
5b 01 60 00 00 00 06 03 a8 80 85 2a b6 a0 82 17
01 03 60 00 22 00 2f 22 04 00 6e 00 00 00 00 00
01 01 60 00 e6 10 4f 22 00 00 00 00 07 00 00 00
31 01 60 04 dd 0f 2f 2c 24 02 6e 00 00 40 18 04
01 01 60 00 a5 00 6c 20 c0 01 64 00 00 00 00 00
01 01 60 00 21 00 8f 20 24 0c 6e 00 00 00 00 00
25 01 60 00 8f 10 02 00 04 00 6e 00 04 00 6e 00
01 01 60 00 e6 10 4f 20 00 00 00 00 00 00 00 00
01 01 60 00 be 03 6f 20 64 00 6e 00 00 00 00 00
01 01 60 00 be 03 8f 20 84 00 6e 00 00 00 00 00
01 03 60 00 22 00 2f 20 04 00 6e 00 00 00 00 00
31 01 60 06 dc 0f 0f 20 24 00 6e 00 00 c4 08 8a
5a 00 60 00 be 77 20 20 80 00 00 00 40 00 8d 00
5a 00 60 00 be 77 40 20 90 00 00 00 40 00 8d 00
5a 00 60 00 be 77 60 20 a0 00 00 00 40 00 8d 00
5a 00 60 00 be 77 80 20 b0 00 00 00 40 00 8d 00
32 00 60 05 c8 0f 00 20 20 00 8d 00 00 94 01 88
7e 00 00 00 00 00 00 00 00 00 00 00 00 00 00 00
7e 00 00 00 00 00 00 00 00 00 00 00 00 00 00 00
7e 00 00 00 00 00 00 00 00 00 00 00 00 00 00 00
5a 00 80 00 be 77 20 20 c0 00 00 00 40 00 8d 00
5a 00 80 00 be 77 60 20 d0 00 00 00 40 00 8d 00
5a 00 80 00 be 77 a0 20 e0 00 00 00 40 00 8d 00
5a 00 80 00 be 77 e0 20 f0 00 00 00 40 00 8d 00
32 00 80 05 c8 0f 00 20 20 00 8d 00 00 90 01 90
40 02 80 00 29 6d c0 20 28 00 28 00 10 10 00 11
01 00 60 00 a6 00 80 20 ec 00 00 00 00 00 00 00
01 00 60 00 e2 10 a0 20 00 00 00 00 00 00 00 00
01 00 60 00 3d 01 40 20 c0 00 89 00 00 00 00 00
01 00 60 00 3d 01 60 20 c8 00 89 00 00 00 00 00
01 00 60 00 a5 03 e0 20 40 00 8d 00 00 00 00 00
01 00 60 00 a5 03 00 21 60 00 8d 00 00 00 00 00
01 00 60 00 bd 00 20 21 e0 00 8d 00 00 00 00 00
01 00 60 00 bd 00 40 21 00 01 8d 00 00 00 00 00
5b 01 60 00 00 00 1e 0b 01 4e 20 c0 08 20 47 02
5b 01 60 00 00 00 1e 0c 01 5e 20 c0 0a 20 87 02
01 00 60 00 a6 03 40 20 60 01 8d 00 00 00 00 00
01 00 60 00 a6 03 60 20 80 01 8d 00 00 00 00 00
31 00 60 02 c9 0f 40 20 40 00 8d 00 01 70 41 08
01 00 60 00 be 03 20 20 40 00 8d 00 00 00 00 00
01 00 60 00 be 03 40 20 60 00 8d 00 00 00 00 00
01 00 60 00 be 03 60 20 80 00 8d 00 00 00 00 00
01 00 60 00 be 03 80 20 a0 00 8d 00 00 00 00 00
32 00 60 05 c8 0f 00 20 20 00 8d 00 00 94 01 88
40 00 80 00 29 6d 80 20 28 00 48 00 10 10 10 10
40 00 80 00 29 6d 00 21 2a 00 48 00 00 11 00 11
01 00 80 00 a6 00 c0 20 2c 01 00 00 00 00 00 00
01 00 80 00 e2 10 00 21 00 00 00 00 00 00 00 00
01 00 80 00 3d 01 40 20 80 00 8d 00 00 00 00 00
01 00 80 00 3d 01 80 20 00 01 8d 00 00 00 00 00
01 00 80 00 a5 03 00 21 40 00 8d 00 00 00 00 00
01 00 80 00 a5 03 40 21 80 00 8d 00 00 00 00 00
01 00 80 00 bd 00 80 21 00 01 8d 00 00 00 00 00
01 00 80 00 bd 00 c0 21 40 01 8d 00 00 00 00 00
5b 01 60 00 00 00 1e 10 01 6e 20 c0 0c 20 07 03
5b 11 60 00 00 00 1e 11 01 6e 20 c0 0c 20 47 03
5b 01 60 00 00 00 1e 12 01 7e 20 c0 0e 20 87 03
5b 11 60 00 00 00 1e 13 01 7e 20 c0 0e 20 c7 03
01 00 80 00 a6 03 40 20 00 02 8d 00 00 00 00 00
01 00 80 00 a6 03 80 20 40 02 8d 00 00 00 00 00
31 00 80 02 c9 0f 40 20 40 00 8d 00 01 70 82 10
01 00 80 00 be 03 20 20 40 00 8d 00 00 00 00 00
01 00 80 00 be 03 60 20 80 00 8d 00 00 00 00 00
01 00 80 00 be 03 a0 20 c0 00 8d 00 00 00 00 00
01 00 80 00 be 03 e0 20 00 01 8d 00 00 00 00 00
32 00 80 05 c8 0f 00 20 20 00 8d 00 00 90 01 90
