01 02 40 00 be 03 40 20 4c 00 87 00 00 00 00 00
32 00 80 05 c8 0f 00 20 40 00 8d 00 00 91 01 82
01 01 60 00 e6 10 4f 20 00 00 00 00 00 00 00 00
01 01 60 00 be 03 6f 20 24 00 6e 00 00 00 00 00
01 03 60 00 22 00 2f 20 04 00 6e 00 00 00 00 00
31 01 60 06 dc 0f 0f 20 24 00 6e 00 00 c4 08 86
01 02 00 00 61 00 08 20 00 00 00 00 00 00 00 00
01 01 60 00 61 00 e1 20 00 00 00 00 00 00 00 00
01 01 60 00 61 00 21 21 00 00 00 00 02 00 00 00
01 01 60 00 61 00 41 21 00 00 00 00 00 00 00 00
01 01 60 00 e5 10 81 21 00 00 00 00 01 00 00 00
01 01 60 00 65 00 41 28 00 00 00 00 00 00 00 00
01 03 60 00 61 00 6f 28 00 00 00 00 00 00 00 00
01 03 60 00 22 00 2f 20 04 00 6e 00 00 00 00 00
01 01 60 00 a5 00 af 21 54 00 0e 00 00 00 00 00
41 01 60 00 a5 1c 41 28 40 08 60 00 02 00 00 00
01 03 60 00 22 00 af 22 04 00 6e 00 00 00 00 00
01 02 00 00 a6 00 c0 22 40 08 00 00 00 00 00 00
40 02 00 00 a6 1c d0 22 50 08 00 00 01 00 00 00
01 01 60 00 a6 00 ef 22 64 08 6e 00 00 00 00 00
31 01 60 05 dd 0f 0f 20 a4 02 6e 00 ff 20 09 06
40 01 60 00 21 0c e1 20 e0 00 60 00 01 00 00 00
01 01 60 00 25 00 81 28 e0 00 60 00 00 00 00 00
41 01 60 00 a5 1c 81 28 80 08 60 00 02 00 00 00
01 03 60 00 22 00 af 22 04 00 6e 00 00 00 00 00
01 02 00 00 a6 00 c0 22 80 08 00 00 00 00 00 00
40 02 00 00 a6 1c d0 22 90 08 00 00 01 00 00 00
01 01 60 00 a6 00 ef 22 54 00 0e 00 00 00 00 00
31 01 60 05 dd 0f 0f 20 a4 02 6e 00 ff 20 09 06
40 01 60 00 21 0c e1 20 e0 00 60 00 01 00 00 00
01 01 60 00 fd 73 e7 28 00 00 00 00 00 00 80 3f
01 01 60 00 25 00 c1 28 e0 00 60 00 00 00 00 00
41 01 60 00 a5 1c c1 28 c0 08 60 00 02 00 00 00
01 03 60 00 22 00 af 22 04 00 6e 00 00 00 00 00
01 02 00 00 a6 00 c0 22 c0 08 00 00 00 00 00 00
40 02 00 00 a6 1c d0 22 d0 08 00 00 01 00 00 00
01 01 60 00 a6 00 ef 22 e4 08 6a 00 00 00 00 00
31 01 60 05 dd 0f 07 20 a4 02 6e 00 ff 20 09 06
40 01 60 00 21 0c e1 20 e0 00 60 00 01 00 00 00
06 01 60 00 21 0c 2f 29 20 01 60 00 14 00 00 00
01 01 60 00 25 00 01 29 e0 00 60 00 00 00 00 00
41 01 60 00 a5 1c 01 29 00 09 60 00 02 00 00 00
01 03 60 00 22 00 af 22 04 00 6e 00 00 00 00 00
01 02 00 00 a6 00 c0 22 00 09 00 00 00 00 00 00
40 02 00 00 a6 1c d0 22 10 09 00 00 01 00 00 00
01 01 60 00 a6 00 ef 22 24 09 6e 00 00 00 00 00
31 01 60 05 dd 0f 0f 20 a4 02 6e 00 ff 20 09 06
01 01 60 00 61 00 21 21 00 00 00 00 00 00 00 00
40 01 60 00 21 0c e1 20 e0 00 60 00 01 00 00 00
01 03 60 00 61 00 6f 29 00 00 00 00 00 00 00 00
01 01 60 00 a5 00 0f 22 74 00 0e 00 00 00 00 00
01 01 60 00 25 00 41 29 e0 00 60 00 00 00 00 00
41 01 60 00 a5 1c 41 29 40 09 60 00 02 00 00 00
01 03 60 00 22 00 af 22 04 00 6e 00 00 00 00 00
01 02 00 00 a6 00 c0 22 40 09 00 00 00 00 00 00
40 02 00 00 a6 1c d0 22 50 09 00 00 01 00 00 00
01 01 60 00 a6 00 ef 22 64 09 6e 00 00 00 00 00
31 01 60 05 dd 0f 0f 20 a4 02 6e 00 ff 20 09 06
40 01 60 00 21 0c e1 20 e0 00 60 00 01 00 00 00
01 01 60 00 25 00 81 29 e0 00 60 00 00 00 00 00
41 01 60 00 a5 1c 81 29 80 09 60 00 02 00 00 00
01 03 60 00 22 00 af 22 04 00 6e 00 00 00 00 00
01 02 00 00 a6 00 c0 22 80 09 00 00 00 00 00 00
40 02 00 00 a6 1c d0 22 90 09 00 00 01 00 00 00
01 01 60 00 a6 00 ef 22 74 00 0e 00 00 00 00 00
31 01 60 05 dd 0f 0f 20 a4 02 6e 00 ff 20 09 06
40 01 60 00 21 0c e1 20 e0 00 60 00 01 00 00 00
01 01 60 00 fd 73 e7 29 00 00 00 00 00 00 80 3f
01 01 60 00 25 00 c1 29 e0 00 60 00 00 00 00 00
41 01 60 00 a5 1c c1 29 c0 09 60 00 02 00 00 00
01 03 60 00 22 00 af 22 04 00 6e 00 00 00 00 00
01 02 00 00 a6 00 c0 22 c0 09 00 00 00 00 00 00
40 02 00 00 a6 1c d0 22 d0 09 00 00 01 00 00 00
01 01 60 00 a6 00 ef 22 e4 09 6a 00 00 00 00 00
31 01 60 05 dd 0f 07 20 a4 02 6e 00 ff 20 09 06
40 01 60 00 21 0c e1 20 e0 00 60 00 01 00 00 00
06 01 60 00 21 0c 2f 2a 20 01 60 00 14 00 00 00
01 01 60 00 25 00 01 2a e0 00 60 00 00 00 00 00
41 01 60 00 a5 1c 01 2a 00 0a 60 00 02 00 00 00
01 03 60 00 22 00 af 22 04 00 6e 00 00 00 00 00
01 02 00 00 a6 00 c0 22 00 0a 00 00 00 00 00 00
40 02 00 00 a6 1c d0 22 10 0a 00 00 01 00 00 00
01 01 60 00 a6 00 ef 22 24 0a 6e 00 00 00 00 00
31 01 60 05 dd 0f 0f 20 a4 02 6e 00 ff 20 09 06
01 01 60 00 61 00 21 21 00 00 00 00 00 00 00 00
40 01 60 00 21 0c e1 20 e0 00 60 00 01 00 00 00
01 01 60 00 e5 10 41 22 00 00 00 00 02 00 00 00
01 03 60 00 61 00 6f 2a 00 00 00 00 00 00 00 00
01 01 60 00 a5 00 6f 22 94 00 0e 00 00 00 00 00
01 01 60 00 25 00 41 2a e0 00 60 00 00 00 00 00
41 01 60 00 a5 1c 41 2a 40 0a 60 00 02 00 00 00
01 03 60 00 22 00 af 22 04 00 6e 00 00 00 00 00
01 02 00 00 a6 00 c0 22 40 0a 00 00 00 00 00 00
40 02 00 00 a6 1c d0 22 50 0a 00 00 01 00 00 00
01 01 60 00 a6 00 ef 22 64 0a 6e 00 00 00 00 00
31 01 60 05 dd 0f 0f 20 a4 02 6e 00 ff 20 09 06
40 01 60 00 21 0c e1 20 e0 00 60 00 01 00 00 00
01 01 60 00 25 00 81 2a e0 00 60 00 00 00 00 00
41 01 60 00 a5 1c 81 2a 80 0a 60 00 02 00 00 00
01 03 60 00 22 00 af 22 04 00 6e 00 00 00 00 00
01 02 00 00 a6 00 c0 22 80 0a 00 00 00 00 00 00
40 02 00 00 a6 1c d0 22 90 0a 00 00 01 00 00 00
01 01 60 00 a6 00 ef 22 94 00 0e 00 00 00 00 00
31 01 60 05 dd 0f 0f 20 a4 02 6e 00 ff 20 09 06
40 01 60 00 21 0c e1 20 e0 00 60 00 01 00 00 00
01 01 60 00 fd 73 e7 2a 00 00 00 00 00 00 80 3f
01 01 60 00 25 00 c1 2a e0 00 60 00 00 00 00 00
41 01 60 00 a5 1c c1 2a c0 0a 60 00 02 00 00 00
01 03 60 00 22 00 af 22 04 00 6e 00 00 00 00 00
01 02 00 00 a6 00 c0 22 c0 0a 00 00 00 00 00 00
40 02 00 00 a6 1c d0 22 d0 0a 00 00 01 00 00 00
01 01 60 00 a6 00 ef 22 e4 0a 6a 00 00 00 00 00
31 01 60 05 dd 0f 07 20 a4 02 6e 00 ff 20 09 06
40 01 60 00 21 0c e1 20 e0 00 60 00 01 00 00 00
06 01 60 00 21 0c 2f 2b 20 01 60 00 14 00 00 00
01 01 60 00 25 00 01 2b e0 00 60 00 00 00 00 00
41 01 60 00 a5 1c 01 2b 00 0b 60 00 02 00 00 00
01 03 60 00 22 00 af 22 04 00 6e 00 00 00 00 00
01 02 00 00 a6 00 c0 22 00 0b 00 00 00 00 00 00
40 02 00 00 a6 1c d0 22 10 0b 00 00 01 00 00 00
01 01 60 00 a6 00 ef 22 24 0b 6e 00 00 00 00 00
31 01 60 05 dd 0f 0f 20 a4 02 6e 00 ff 20 09 06
01 01 60 00 61 00 21 21 00 00 00 00 00 00 00 00
40 01 60 00 21 0c e1 20 e0 00 60 00 01 00 00 00
01 01 60 00 e5 10 a1 22 00 00 00 00 03 00 00 00
10 01 60 05 20 0c 0f 20 a0 02 60 00 13 00 00 00
10 01 61 02 20 0c 0f 20 a0 02 60 00 00 00 00 00
22 01 61 00 8f 10 20 00 04 00 0e 00 04 00 0e 00
40 01 60 00 21 1c c1 22 e0 00 60 00 ff ff ff ff
01 01 60 00 25 00 21 2a c0 02 60 00 00 00 00 00
41 01 60 00 a5 1c 61 2a 20 0a 60 00 02 00 00 00
01 03 60 00 22 00 cf 22 04 00 6e 00 00 00 00 00
01 02 00 00 a6 00 e0 22 60 0a 00 00 00 00 00 00
40 02 00 00 a6 1c f0 22 70 0a 00 00 01 00 00 00
31 01 60 05 dd 0f 8f 2b c4 02 6e 00 ff 40 18 04
06 01 60 00 21 1c 6f 2b 84 0b 6e 00 01 00 00 00
01 03 60 00 22 00 af 22 04 00 6e 00 00 00 00 00
01 02 00 00 a6 00 c0 22 60 0a 00 00 00 00 00 00
40 02 00 00 a6 1c d0 22 70 0a 00 00 01 00 00 00
01 01 60 00 a6 00 ef 22 64 0b 6e 00 00 00 00 00
31 01 60 05 dd 0f 0f 20 a4 02 6e 00 ff 20 09 06
40 01 60 00 21 0c 41 21 40 01 60 00 01 00 00 00
01 01 60 00 e1 10 21 21 00 00 00 00 02 00 00 00
25 01 60 00 8f 10 02 00 04 00 6e 00 04 00 6e 00
01 05 60 00 e5 10 0b 23 00 00 00 00 00 00 00 00
01 01 60 00 25 00 c1 2b e0 00 60 00 00 00 00 00
01 09 60 00 a5 00 04 23 80 01 60 00 00 00 00 00
41 01 60 00 a5 1c c1 2b c0 0b 60 00 02 00 00 00
01 03 60 00 22 00 af 22 04 00 6e 00 00 00 00 00
01 02 00 00 a6 00 c0 22 c0 0b 00 00 00 00 00 00
40 02 00 00 a6 1c d0 22 d0 0b 00 00 01 00 00 00
01 01 60 00 a6 00 ef 22 04 03 6e 00 00 00 00 00
31 01 60 05 dd 0f 0f 20 a4 02 6e 00 ff 20 09 06
40 01 60 00 21 0c e1 20 e0 00 60 00 01 00 00 00
01 01 60 00 25 00 01 2c e0 00 60 00 00 00 00 00
41 01 60 00 a5 1c 01 2c 00 0c 60 00 02 00 00 00
01 03 60 00 22 00 af 22 04 00 6e 00 00 00 00 00
01 02 00 00 a6 00 c0 22 00 0c 00 00 00 00 00 00
40 02 00 00 a6 1c d0 22 10 0c 00 00 01 00 00 00
01 01 60 00 a6 00 ef 22 a4 01 6e 00 00 00 00 00
31 01 60 05 dd 0f 0f 20 a4 02 6e 00 ff 20 09 06
40 01 60 00 21 0c e1 20 e0 00 60 00 01 00 00 00
01 01 60 00 fd 73 67 2c 00 00 00 00 00 00 00 3f
01 01 60 00 25 00 41 2c e0 00 60 00 00 00 00 00
41 01 60 00 a5 1c 41 2c 40 0c 60 00 02 00 00 00
01 03 60 00 22 00 af 22 04 00 6e 00 00 00 00 00
01 02 00 00 a6 00 c0 22 40 0c 00 00 00 00 00 00
40 02 00 00 a6 1c d0 22 50 0c 00 00 01 00 00 00
01 01 60 00 a6 00 ef 22 64 0c 6a 00 00 00 00 00
31 01 60 05 dd 0f 07 20 a4 02 6e 00 ff 20 09 06
40 01 60 00 21 0c e1 20 e0 00 60 00 01 00 00 00
06 01 60 00 21 0c af 2c 20 01 60 00 14 00 00 00
01 01 60 00 25 00 81 2c e0 00 60 00 00 00 00 00
41 01 60 00 a5 1c 81 2c 80 0c 60 00 02 00 00 00
01 03 60 00 22 00 af 22 04 00 6e 00 00 00 00 00
01 02 00 00 a6 00 c0 22 80 0c 00 00 00 00 00 00
40 02 00 00 a6 1c d0 22 90 0c 00 00 01 00 00 00
01 01 60 00 a6 00 ef 22 a4 0c 6e 00 00 00 00 00
31 01 60 05 dd 0f 0f 20 a4 02 6e 00 ff 20 09 06
01 01 60 00 61 00 21 21 00 00 00 00 00 00 00 00
40 01 60 00 21 0c e1 20 e0 00 60 00 01 00 00 00
01 01 60 00 e5 10 21 23 00 00 00 00 04 00 00 00
01 05 60 00 e5 10 4b 23 00 00 00 00 00 00 00 00
01 01 60 00 25 00 c1 2c e0 00 60 00 00 00 00 00
01 09 60 00 a5 00 44 23 80 01 60 00 00 00 00 00
41 01 60 00 a5 1c c1 2c c0 0c 60 00 02 00 00 00
01 03 60 00 22 00 af 22 04 00 6e 00 00 00 00 00
01 02 00 00 a6 00 c0 22 c0 0c 00 00 00 00 00 00
40 02 00 00 a6 1c d0 22 d0 0c 00 00 01 00 00 00
01 01 60 00 a6 00 ef 22 44 03 6e 00 00 00 00 00
31 01 60 05 dd 0f 0f 20 a4 02 6e 00 ff 20 09 06
40 01 60 00 21 0c e1 20 e0 00 60 00 01 00 00 00
01 01 60 00 25 00 01 2d e0 00 60 00 00 00 00 00
41 01 60 00 a5 1c 01 2d 00 0d 60 00 02 00 00 00
01 03 60 00 22 00 af 22 04 00 6e 00 00 00 00 00
01 02 00 00 a6 00 c0 22 00 0d 00 00 00 00 00 00
40 02 00 00 a6 1c d0 22 10 0d 00 00 01 00 00 00
01 01 60 00 a6 00 ef 22 04 02 6e 00 00 00 00 00
31 01 60 05 dd 0f 0f 20 a4 02 6e 00 ff 20 09 06
40 01 60 00 21 0c e1 20 e0 00 60 00 01 00 00 00
01 01 60 00 fd 73 67 2d 00 00 00 00 00 00 00 3f
01 01 60 00 25 00 41 2d e0 00 60 00 00 00 00 00
41 01 60 00 a5 1c 41 2d 40 0d 60 00 02 00 00 00
01 03 60 00 22 00 af 22 04 00 6e 00 00 00 00 00
01 02 00 00 a6 00 c0 22 40 0d 00 00 00 00 00 00
40 02 00 00 a6 1c d0 22 50 0d 00 00 01 00 00 00
01 01 60 00 a6 00 ef 22 64 0d 6a 00 00 00 00 00
31 01 60 05 dd 0f 07 20 a4 02 6e 00 ff 20 09 06
40 01 60 00 21 0c e1 20 e0 00 60 00 01 00 00 00
06 01 60 00 21 0c af 2d 20 01 60 00 14 00 00 00
01 01 60 00 25 00 81 2d e0 00 60 00 00 00 00 00
41 01 60 00 a5 1c 81 2d 80 0d 60 00 02 00 00 00
01 03 60 00 22 00 af 22 04 00 6e 00 00 00 00 00
01 02 00 00 a6 00 c0 22 80 0d 00 00 00 00 00 00
40 02 00 00 a6 1c d0 22 90 0d 00 00 01 00 00 00
01 01 60 00 a6 00 ef 22 a4 0d 6e 00 00 00 00 00
31 01 60 05 dd 0f 0f 20 a4 02 6e 00 ff 20 09 06
01 01 60 00 61 00 21 21 00 00 00 00 00 00 00 00
40 01 60 00 21 0c e1 20 e0 00 60 00 01 00 00 00
01 01 60 00 e5 10 61 23 00 00 00 00 05 00 00 00
01 05 60 00 e5 10 8b 23 00 00 00 00 00 00 00 00
01 01 60 00 25 00 c1 2d e0 00 60 00 00 00 00 00
01 09 60 00 a5 00 84 23 80 01 60 00 00 00 00 00
41 01 60 00 a5 1c c1 2d c0 0d 60 00 02 00 00 00
01 03 60 00 22 00 af 22 04 00 6e 00 00 00 00 00
01 02 00 00 a6 00 c0 22 c0 0d 00 00 00 00 00 00
40 02 00 00 a6 1c d0 22 d0 0d 00 00 01 00 00 00
01 01 60 00 a6 00 ef 22 84 03 6e 00 00 00 00 00
31 01 60 05 dd 0f 0f 20 a4 02 6e 00 ff 20 09 06
40 01 60 00 21 0c e1 20 e0 00 60 00 01 00 00 00
01 01 60 00 25 00 01 2e e0 00 60 00 00 00 00 00
41 01 60 00 a5 1c 01 2e 00 0e 60 00 02 00 00 00
01 03 60 00 22 00 af 22 04 00 6e 00 00 00 00 00
01 02 00 00 a6 00 c0 22 00 0e 00 00 00 00 00 00
40 02 00 00 a6 1c d0 22 10 0e 00 00 01 00 00 00
01 01 60 00 a6 00 ef 22 64 02 6e 00 00 00 00 00
31 01 60 05 dd 0f 0f 20 a4 02 6e 00 ff 20 09 06
40 01 60 00 21 0c e1 20 e0 00 60 00 01 00 00 00
01 01 60 00 fd 73 67 2e 00 00 00 00 00 00 00 3f
01 01 60 00 25 00 41 2e e0 00 60 00 00 00 00 00
41 01 60 00 a5 1c 41 2e 40 0e 60 00 02 00 00 00
01 03 60 00 22 00 af 22 04 00 6e 00 00 00 00 00
01 02 00 00 a6 00 c0 22 40 0e 00 00 00 00 00 00
40 02 00 00 a6 1c d0 22 50 0e 00 00 01 00 00 00
01 01 60 00 a6 00 ef 22 64 0e 6a 00 00 00 00 00
31 01 60 05 dd 0f 07 20 a4 02 6e 00 ff 20 09 06
40 01 60 00 21 0c e1 20 e0 00 60 00 01 00 00 00
06 01 60 00 21 0c af 2e 20 01 60 00 14 00 00 00
01 01 60 00 25 00 81 2e e0 00 60 00 00 00 00 00
41 01 60 00 a5 1c 81 2e 80 0e 60 00 02 00 00 00
01 03 60 00 22 00 af 22 04 00 6e 00 00 00 00 00
01 02 00 00 a6 00 c0 22 80 0e 00 00 00 00 00 00
40 02 00 00 a6 1c d0 22 90 0e 00 00 01 00 00 00
01 01 60 00 a6 00 ef 22 a4 0e 6e 00 00 00 00 00
31 01 60 05 dd 0f 0f 20 a4 02 6e 00 ff 20 09 06
01 01 60 00 61 00 21 21 00 00 00 00 00 00 00 00
40 01 60 00 21 0c e1 20 e0 00 60 00 01 00 00 00
01 01 60 00 e5 10 a1 23 00 00 00 00 06 00 00 00
10 01 60 05 20 0c 0f 20 a0 03 60 00 13 00 00 00
10 01 61 02 20 0c 0f 20 a0 03 60 00 00 00 00 00
22 01 61 00 8f 10 20 00 04 00 0e 00 04 00 0e 00
40 01 60 00 21 1c c1 23 e0 00 60 00 ff ff ff ff
01 01 60 00 25 00 41 2a c0 03 60 00 00 00 00 00
41 01 60 00 a5 1c 81 2a 40 0a 60 00 02 00 00 00
01 03 60 00 22 00 cf 22 04 00 6e 00 00 00 00 00
01 02 00 00 a6 00 e0 22 80 0a 00 00 00 00 00 00
40 02 00 00 a6 1c f0 22 90 0a 00 00 01 00 00 00
31 01 60 05 dd 0f 0f 2f c4 02 6e 00 ff 40 18 04
06 01 60 00 21 1c ef 2e 04 0f 6e 00 01 00 00 00
01 03 60 00 22 00 af 22 04 00 6e 00 00 00 00 00
01 02 00 00 a6 00 c0 22 80 0a 00 00 00 00 00 00
40 02 00 00 a6 1c d0 22 90 0a 00 00 01 00 00 00
01 01 60 00 a6 00 ef 22 e4 0e 6e 00 00 00 00 00
31 01 60 05 dd 0f 0f 20 a4 02 6e 00 ff 20 09 06
40 01 60 00 21 0c 41 21 40 01 60 00 01 00 00 00
01 01 60 00 e1 10 21 21 00 00 00 00 02 00 00 00
25 01 60 00 8f 10 02 00 04 00 6e 00 04 00 6e 00
01 05 60 00 e5 10 0b 24 00 00 00 00 00 00 00 00
01 01 60 00 25 00 41 2f e0 00 60 00 00 00 00 00
01 09 60 00 a5 00 04 24 40 02 60 00 00 00 00 00
41 01 60 00 a5 1c 41 2f 40 0f 60 00 02 00 00 00
01 03 60 00 22 00 af 22 04 00 6e 00 00 00 00 00
01 02 00 00 a6 00 c0 22 40 0f 00 00 00 00 00 00
40 02 00 00 a6 1c d0 22 50 0f 00 00 01 00 00 00
01 01 60 00 a6 00 ef 22 04 04 6e 00 00 00 00 00
31 01 60 05 dd 0f 0f 20 a4 02 6e 00 ff 20 09 06
40 01 60 00 21 0c e1 20 e0 00 60 00 01 00 00 00
01 01 60 00 25 00 81 2f e0 00 60 00 00 00 00 00
41 01 60 00 a5 1c 81 2f 80 0f 60 00 02 00 00 00
01 03 60 00 22 00 af 22 04 00 6e 00 00 00 00 00
01 02 00 00 a6 00 c0 22 80 0f 00 00 00 00 00 00
40 02 00 00 a6 1c d0 22 90 0f 00 00 01 00 00 00
01 01 60 00 a6 00 ef 22 a4 01 6e 00 00 00 00 00
31 01 60 05 dd 0f 0f 20 a4 02 6e 00 ff 20 09 06
40 01 60 00 21 0c e1 20 e0 00 60 00 01 00 00 00
01 01 60 00 fd 73 e7 2f 00 00 00 00 ab aa aa 3e
01 01 60 00 25 00 c1 2f e0 00 60 00 00 00 00 00
41 01 60 00 a5 1c c1 2f c0 0f 60 00 02 00 00 00
01 03 60 00 22 00 af 22 04 00 6e 00 00 00 00 00
01 02 00 00 a6 00 c0 22 c0 0f 00 00 00 00 00 00
40 02 00 00 a6 1c d0 22 d0 0f 00 00 01 00 00 00
01 01 60 00 a6 00 ef 22 e4 0f 6a 00 00 00 00 00
31 01 60 05 dd 0f 07 20 a4 02 6e 00 ff 20 09 06
40 01 60 00 21 0c e1 20 e0 00 60 00 01 00 00 00
06 01 60 00 21 0c cf 20 20 01 60 00 14 00 00 00
01 01 60 00 25 00 a1 20 e0 00 60 00 00 00 00 00
41 01 60 00 a5 1c a1 20 a0 00 60 00 02 00 00 00
01 03 60 00 22 00 af 22 04 00 6e 00 00 00 00 00
01 02 00 00 a6 00 c0 22 a0 00 00 00 00 00 00 00
40 02 00 00 a6 1c d0 22 b0 00 00 00 01 00 00 00
01 01 60 00 a6 00 ef 22 c4 00 6e 00 00 00 00 00
31 01 60 05 dd 0f 0f 20 a4 02 6e 00 ff 20 09 06
01 01 60 00 61 00 21 21 00 00 00 00 00 00 00 00
40 01 60 00 21 0c e1 20 e0 00 60 00 01 00 00 00
01 05 60 00 e5 10 4b 24 00 00 00 00 00 00 00 00
01 01 60 00 25 00 01 21 e0 00 60 00 00 00 00 00
01 09 60 00 a5 00 44 24 40 02 60 00 00 00 00 00
41 01 60 00 a5 1c 01 21 00 01 60 00 02 00 00 00
01 03 60 00 22 00 af 22 04 00 6e 00 00 00 00 00
01 02 00 00 a6 00 c0 22 00 01 00 00 00 00 00 00
40 02 00 00 a6 1c d0 22 10 01 00 00 01 00 00 00
01 01 60 00 a6 00 ef 22 44 04 6e 00 00 00 00 00
31 01 60 05 dd 0f 0f 20 a4 02 6e 00 ff 20 09 06
40 01 60 00 21 0c e1 20 e0 00 60 00 01 00 00 00
01 01 60 00 25 00 61 21 e0 00 60 00 00 00 00 00
41 01 60 00 a5 1c 61 21 60 01 60 00 02 00 00 00
01 03 60 00 22 00 af 22 04 00 6e 00 00 00 00 00
01 02 00 00 a6 00 c0 22 60 01 00 00 00 00 00 00
40 02 00 00 a6 1c d0 22 70 01 00 00 01 00 00 00
01 01 60 00 a6 00 ef 22 04 02 6e 00 00 00 00 00
31 01 60 05 dd 0f 0f 20 a4 02 6e 00 ff 20 09 06
40 01 60 00 21 0c e1 20 e0 00 60 00 01 00 00 00
01 01 60 00 fd 73 e7 21 00 00 00 00 ab aa aa 3e
01 01 60 00 25 00 c1 21 e0 00 60 00 00 00 00 00
41 01 60 00 a5 1c c1 21 c0 01 60 00 02 00 00 00
01 03 60 00 22 00 af 22 04 00 6e 00 00 00 00 00
01 02 00 00 a6 00 c0 22 c0 01 00 00 00 00 00 00
40 02 00 00 a6 1c d0 22 d0 01 00 00 01 00 00 00
01 01 60 00 a6 00 ef 22 e4 01 6a 00 00 00 00 00
31 01 60 05 dd 0f 07 20 a4 02 6e 00 ff 20 09 06
40 01 60 00 21 0c e1 20 e0 00 60 00 01 00 00 00
06 01 60 00 21 0c 8f 22 20 01 60 00 14 00 00 00
01 01 60 00 25 00 21 22 e0 00 60 00 00 00 00 00
41 01 60 00 a5 1c 21 22 20 02 60 00 02 00 00 00
01 03 60 00 22 00 af 22 04 00 6e 00 00 00 00 00
01 02 00 00 a6 00 c0 22 20 02 00 00 00 00 00 00
40 02 00 00 a6 1c d0 22 30 02 00 00 01 00 00 00
01 01 60 00 a6 00 ef 22 84 02 6e 00 00 00 00 00
31 01 60 05 dd 0f 0f 20 a4 02 6e 00 ff 20 09 06
01 01 60 00 61 00 21 21 00 00 00 00 00 00 00 00
40 01 60 00 21 0c e1 20 e0 00 60 00 01 00 00 00
01 05 60 00 e5 10 8b 24 00 00 00 00 00 00 00 00
01 01 60 00 25 00 c1 22 e0 00 60 00 00 00 00 00
01 09 60 00 a5 00 84 24 40 02 60 00 00 00 00 00
41 01 60 00 a5 1c c1 22 c0 02 60 00 02 00 00 00
01 03 60 00 22 00 af 22 04 00 6e 00 00 00 00 00
01 02 00 00 a6 00 c0 22 c0 02 00 00 00 00 00 00
40 02 00 00 a6 1c d0 22 d0 02 00 00 01 00 00 00
01 01 60 00 a6 00 ef 22 84 04 6e 00 00 00 00 00
31 01 60 05 dd 0f 0f 20 a4 02 6e 00 ff 20 09 06
40 01 60 00 21 0c e1 20 e0 00 60 00 01 00 00 00
01 01 60 00 25 00 01 23 e0 00 60 00 00 00 00 00
41 01 60 00 a5 1c 01 23 00 03 60 00 02 00 00 00
01 03 60 00 22 00 af 22 04 00 6e 00 00 00 00 00
01 02 00 00 a6 00 c0 22 00 03 00 00 00 00 00 00
40 02 00 00 a6 1c d0 22 10 03 00 00 01 00 00 00
01 01 60 00 a6 00 ef 22 64 02 6e 00 00 00 00 00
31 01 60 05 dd 0f 0f 20 a4 02 6e 00 ff 20 09 06
40 01 60 00 21 0c e1 20 e0 00 60 00 01 00 00 00
01 01 60 00 fd 73 87 23 00 00 00 00 ab aa aa 3e
01 01 60 00 25 00 41 23 e0 00 60 00 00 00 00 00
41 01 60 00 a5 1c 41 23 40 03 60 00 02 00 00 00
01 03 60 00 22 00 af 22 04 00 6e 00 00 00 00 00
01 02 00 00 a6 00 c0 22 40 03 00 00 00 00 00 00
40 02 00 00 a6 1c d0 22 50 03 00 00 01 00 00 00
01 01 60 00 a6 00 ef 22 84 03 6a 00 00 00 00 00
31 01 60 05 dd 0f 07 20 a4 02 6e 00 ff 20 09 06
40 01 60 00 21 0c e1 20 e0 00 60 00 01 00 00 00
06 01 60 00 21 0c cf 23 20 01 60 00 14 00 00 00
01 01 60 00 25 00 a1 23 e0 00 60 00 00 00 00 00
41 01 60 00 a5 1c a1 23 a0 03 60 00 02 00 00 00
01 03 60 00 22 00 af 22 04 00 6e 00 00 00 00 00
01 02 00 00 a6 00 c0 22 a0 03 00 00 00 00 00 00
40 02 00 00 a6 1c d0 22 b0 03 00 00 01 00 00 00
01 01 60 00 a6 00 ef 22 c4 03 6e 00 00 00 00 00
31 01 60 05 dd 0f 0f 20 a4 02 6e 00 ff 20 09 06
01 01 60 00 61 00 21 21 00 00 00 00 00 00 00 00
40 01 60 00 21 0c e1 20 e0 00 60 00 01 00 00 00
01 01 60 00 e5 10 a1 24 00 00 00 00 09 00 00 00
10 01 60 05 20 0c 0f 20 a0 04 60 00 13 00 00 00
10 01 61 02 20 0c 0f 20 a0 04 60 00 00 00 00 00
22 01 61 00 8f 10 24 00 04 00 0e 00 04 00 0e 00
40 01 60 00 21 1c c1 24 e0 00 60 00 ff ff ff ff
01 01 60 00 25 00 e1 23 c0 04 60 00 00 00 00 00
01 01 60 00 25 00 41 24 c0 04 60 00 00 00 00 00
41 01 60 00 a5 1c e1 23 e0 03 60 00 02 00 00 00
41 01 60 00 a5 1c 41 24 40 04 60 00 02 00 00 00
01 03 60 00 22 00 cf 22 04 00 6e 00 00 00 00 00
01 02 00 00 a6 00 e0 22 40 04 00 00 00 00 00 00
40 02 00 00 a6 1c f0 22 50 04 00 00 01 00 00 00
31 01 60 05 dd 0f 2f 24 c4 02 6e 00 ff 40 18 04
06 01 60 00 21 1c 0f 24 24 04 6e 00 01 00 00 00
01 03 60 00 22 00 af 22 04 00 6e 00 00 00 00 00
01 02 00 00 a6 00 c0 22 e0 03 00 00 00 00 00 00
40 02 00 00 a6 1c d0 22 f0 03 00 00 01 00 00 00
01 01 60 00 a6 00 ef 22 04 04 6e 00 00 00 00 00
31 01 60 05 dd 0f 0f 20 a4 02 6e 00 ff 20 09 06
40 01 60 00 21 0c 41 21 40 01 60 00 01 00 00 00
01 01 60 00 e1 10 21 21 00 00 00 00 02 00 00 00
25 01 60 00 8f 10 02 00 04 00 6e 00 04 00 6e 00
01 05 60 00 e5 10 0b 25 00 00 00 00 00 00 00 00
01 01 60 00 25 00 61 24 e0 00 60 00 00 00 00 00
01 09 60 00 a5 00 04 25 a0 02 60 00 00 00 00 00
41 01 60 00 a5 1c 61 24 60 04 60 00 02 00 00 00
01 03 60 00 22 00 af 22 04 00 6e 00 00 00 00 00
01 02 00 00 a6 00 c0 22 60 04 00 00 00 00 00 00
40 02 00 00 a6 1c d0 22 70 04 00 00 01 00 00 00
01 01 60 00 a6 00 ef 22 04 05 6e 00 00 00 00 00
31 01 60 05 dd 0f 0f 20 a4 02 6e 00 ff 20 09 06
40 01 60 00 21 0c e1 20 e0 00 60 00 01 00 00 00
01 01 60 00 25 00 a1 24 e0 00 60 00 00 00 00 00
41 01 60 00 a5 1c a1 24 a0 04 60 00 02 00 00 00
01 03 60 00 22 00 af 22 04 00 6e 00 00 00 00 00
01 02 00 00 a6 00 c0 22 a0 04 00 00 00 00 00 00
40 02 00 00 a6 1c d0 22 b0 04 00 00 01 00 00 00
01 01 60 00 a6 00 ef 22 a4 01 6e 00 00 00 00 00
31 01 60 05 dd 0f 0f 20 a4 02 6e 00 ff 20 09 06
40 01 60 00 21 0c e1 20 e0 00 60 00 01 00 00 00
01 01 60 00 fd 73 07 25 00 00 00 00 00 00 80 3e
01 01 60 00 25 00 e1 24 e0 00 60 00 00 00 00 00
41 01 60 00 a5 1c e1 24 e0 04 60 00 02 00 00 00
01 03 60 00 22 00 af 22 04 00 6e 00 00 00 00 00
01 02 00 00 a6 00 c0 22 e0 04 00 00 00 00 00 00
40 02 00 00 a6 1c d0 22 f0 04 00 00 01 00 00 00
01 01 60 00 a6 00 ef 22 04 05 6a 00 00 00 00 00
31 01 60 05 dd 0f 07 20 a4 02 6e 00 ff 20 09 06
40 01 60 00 21 0c e1 20 e0 00 60 00 01 00 00 00
06 01 60 00 21 0c 4f 25 20 01 60 00 14 00 00 00
01 01 60 00 25 00 21 25 e0 00 60 00 00 00 00 00
41 01 60 00 a5 1c 21 25 20 05 60 00 02 00 00 00
01 03 60 00 22 00 af 22 04 00 6e 00 00 00 00 00
01 02 00 00 a6 00 c0 22 20 05 00 00 00 00 00 00
40 02 00 00 a6 1c d0 22 30 05 00 00 01 00 00 00
01 01 60 00 a6 00 ef 22 44 05 6e 00 00 00 00 00
31 01 60 05 dd 0f 0f 20 a4 02 6e 00 ff 20 09 06
01 01 60 00 61 00 21 21 00 00 00 00 00 00 00 00
40 01 60 00 21 0c e1 20 e0 00 60 00 01 00 00 00
01 05 60 00 e5 10 4b 25 00 00 00 00 00 00 00 00
01 01 60 00 25 00 61 25 e0 00 60 00 00 00 00 00
01 09 60 00 a5 00 44 25 a0 02 60 00 00 00 00 00
41 01 60 00 a5 1c 61 25 60 05 60 00 02 00 00 00
01 03 60 00 22 00 af 22 04 00 6e 00 00 00 00 00
01 02 00 00 a6 00 c0 22 60 05 00 00 00 00 00 00
40 02 00 00 a6 1c d0 22 70 05 00 00 01 00 00 00
01 01 60 00 a6 00 ef 22 44 05 6e 00 00 00 00 00
31 01 60 05 dd 0f 0f 20 a4 02 6e 00 ff 20 09 06
40 01 60 00 21 0c e1 20 e0 00 60 00 01 00 00 00
01 01 60 00 25 00 a1 25 e0 00 60 00 00 00 00 00
41 01 60 00 a5 1c a1 25 a0 05 60 00 02 00 00 00
01 03 60 00 22 00 af 22 04 00 6e 00 00 00 00 00
01 02 00 00 a6 00 c0 22 a0 05 00 00 00 00 00 00
40 02 00 00 a6 1c d0 22 b0 05 00 00 01 00 00 00
01 01 60 00 a6 00 ef 22 04 02 6e 00 00 00 00 00
31 01 60 05 dd 0f 0f 20 a4 02 6e 00 ff 20 09 06
40 01 60 00 21 0c e1 20 e0 00 60 00 01 00 00 00
01 01 60 00 fd 73 07 26 00 00 00 00 00 00 80 3e
01 01 60 00 25 00 e1 25 e0 00 60 00 00 00 00 00
41 01 60 00 a5 1c e1 25 e0 05 60 00 02 00 00 00
01 03 60 00 22 00 af 22 04 00 6e 00 00 00 00 00
01 02 00 00 a6 00 c0 22 e0 05 00 00 00 00 00 00
40 02 00 00 a6 1c d0 22 f0 05 00 00 01 00 00 00
01 01 60 00 a6 00 ef 22 04 06 6a 00 00 00 00 00
31 01 60 05 dd 0f 07 20 a4 02 6e 00 ff 20 09 06
40 01 60 00 21 0c e1 20 e0 00 60 00 01 00 00 00
06 01 60 00 21 0c 4f 26 20 01 60 00 14 00 00 00
01 01 60 00 25 00 21 26 e0 00 60 00 00 00 00 00
41 01 60 00 a5 1c 21 26 20 06 60 00 02 00 00 00
01 03 60 00 22 00 af 22 04 00 6e 00 00 00 00 00
01 02 00 00 a6 00 c0 22 20 06 00 00 00 00 00 00
40 02 00 00 a6 1c d0 22 30 06 00 00 01 00 00 00
01 01 60 00 a6 00 ef 22 44 06 6e 00 00 00 00 00
31 01 60 05 dd 0f 0f 20 a4 02 6e 00 ff 20 09 06
01 01 60 00 61 00 21 21 00 00 00 00 00 00 00 00
40 01 60 00 21 0c e1 20 e0 00 60 00 01 00 00 00
01 05 60 00 e5 10 8b 25 00 00 00 00 00 00 00 00
01 01 60 00 25 00 61 26 e0 00 60 00 00 00 00 00
01 09 60 00 a5 00 84 25 a0 02 60 00 00 00 00 00
41 01 60 00 a5 1c 61 26 60 06 60 00 02 00 00 00
01 03 60 00 22 00 af 22 04 00 6e 00 00 00 00 00
01 02 00 00 a6 00 c0 22 60 06 00 00 00 00 00 00
40 02 00 00 a6 1c d0 22 70 06 00 00 01 00 00 00
01 01 60 00 a6 00 ef 22 84 05 6e 00 00 00 00 00
31 01 60 05 dd 0f 0f 20 a4 02 6e 00 ff 20 09 06
40 01 60 00 21 0c e1 20 e0 00 60 00 01 00 00 00
01 01 60 00 25 00 a1 26 e0 00 60 00 00 00 00 00
41 01 60 00 a5 1c a1 26 a0 06 60 00 02 00 00 00
01 03 60 00 22 00 af 22 04 00 6e 00 00 00 00 00
01 02 00 00 a6 00 c0 22 a0 06 00 00 00 00 00 00
40 02 00 00 a6 1c d0 22 b0 06 00 00 01 00 00 00
01 01 60 00 a6 00 ef 22 64 02 6e 00 00 00 00 00
31 01 60 05 dd 0f 0f 20 a4 02 6e 00 ff 20 09 06
40 01 60 00 21 0c e1 20 e0 00 60 00 01 00 00 00
01 01 60 00 fd 73 07 27 00 00 00 00 00 00 80 3e
01 01 60 00 25 00 e1 26 e0 00 60 00 00 00 00 00
41 01 60 00 a5 1c e1 26 e0 06 60 00 02 00 00 00
01 03 60 00 22 00 af 22 04 00 6e 00 00 00 00 00
01 02 00 00 a6 00 c0 22 e0 06 00 00 00 00 00 00
40 02 00 00 a6 1c d0 22 f0 06 00 00 01 00 00 00
01 01 60 00 a6 00 ef 22 04 07 6a 00 00 00 00 00
31 01 60 05 dd 0f 07 20 a4 02 6e 00 ff 20 09 06
40 01 60 00 21 0c e1 20 e0 00 60 00 01 00 00 00
06 01 60 00 21 0c 4f 27 20 01 60 00 14 00 00 00
01 01 60 00 25 00 21 27 e0 00 60 00 00 00 00 00
41 01 60 00 a5 1c 21 27 20 07 60 00 02 00 00 00
01 03 60 00 22 00 af 22 04 00 6e 00 00 00 00 00
01 02 00 00 a6 00 c0 22 20 07 00 00 00 00 00 00
40 02 00 00 a6 1c d0 22 30 07 00 00 01 00 00 00
01 01 60 00 a6 00 ef 22 44 07 6e 00 00 00 00 00
31 01 60 05 dd 0f 0f 20 a4 02 6e 00 ff 20 09 06
01 01 60 00 61 00 21 21 00 00 00 00 00 00 00 00
40 01 60 00 21 0c e1 20 e0 00 60 00 01 00 00 00
01 01 60 00 e5 10 a1 25 00 00 00 00 0c 00 00 00
10 01 60 05 20 0c 0f 20 a0 05 60 00 13 00 00 00
10 01 61 02 20 0c 0f 20 a0 05 60 00 00 00 00 00
22 01 61 00 8f 10 24 00 04 00 0e 00 04 00 0e 00
40 01 60 00 21 1c c1 25 e0 00 60 00 ff ff ff ff
01 01 60 00 25 00 61 27 c0 05 60 00 00 00 00 00
01 01 60 00 25 00 c1 27 c0 05 60 00 00 00 00 00
41 01 60 00 a5 1c 61 27 60 07 60 00 02 00 00 00
41 01 60 00 a5 1c c1 27 c0 07 60 00 02 00 00 00
01 03 60 00 22 00 cf 22 04 00 6e 00 00 00 00 00
01 02 00 00 a6 00 e0 22 c0 07 00 00 00 00 00 00
40 02 00 00 a6 1c f0 22 d0 07 00 00 01 00 00 00
31 01 60 05 dd 0f af 27 c4 02 6e 00 ff 40 18 04
06 01 60 00 21 1c 8f 27 a4 07 6e 00 01 00 00 00
01 03 60 00 22 00 af 22 04 00 6e 00 00 00 00 00
01 02 00 00 a6 00 c0 22 60 07 00 00 00 00 00 00
40 02 00 00 a6 1c d0 22 70 07 00 00 01 00 00 00
01 01 60 00 a6 00 ef 22 84 07 6e 00 00 00 00 00
31 01 60 05 dd 0f 0f 20 a4 02 6e 00 ff 20 09 06
40 01 60 00 21 0c 41 21 40 01 60 00 01 00 00 00
01 01 60 00 e1 10 21 21 00 00 00 00 02 00 00 00
25 01 60 00 8f 10 02 00 04 00 6e 00 04 00 6e 00
01 05 60 00 e5 10 0b 26 00 00 00 00 00 00 00 00
01 01 60 00 25 00 e1 27 e0 00 60 00 00 00 00 00
01 09 60 00 a5 00 04 26 20 03 60 00 00 00 00 00
41 01 60 00 a5 1c e1 27 e0 07 60 00 02 00 00 00
01 03 60 00 22 00 af 22 04 00 6e 00 00 00 00 00
01 02 00 00 a6 00 c0 22 e0 07 00 00 00 00 00 00
40 02 00 00 a6 1c d0 22 f0 07 00 00 01 00 00 00
01 01 60 00 a6 00 ef 22 04 06 6e 00 00 00 00 00
31 01 60 05 dd 0f 0f 20 a4 02 6e 00 ff 20 09 06
40 01 60 00 21 0c e1 20 e0 00 60 00 01 00 00 00
01 01 60 00 25 00 21 28 e0 00 60 00 00 00 00 00
41 01 60 00 a5 1c 21 28 20 08 60 00 02 00 00 00
01 03 60 00 22 00 af 22 04 00 6e 00 00 00 00 00
01 02 00 00 a6 00 c0 22 20 08 00 00 00 00 00 00
40 02 00 00 a6 1c d0 22 30 08 00 00 01 00 00 00
01 01 60 00 a6 00 ef 22 a4 01 6e 00 00 00 00 00
31 01 60 05 dd 0f 0f 20 a4 02 6e 00 ff 20 09 06
40 01 60 00 21 0c e1 20 e0 00 60 00 01 00 00 00
01 01 60 00 fd 73 87 28 00 00 00 00 cd cc 4c 3e
01 01 60 00 25 00 61 28 e0 00 60 00 00 00 00 00
41 01 60 00 a5 1c 61 28 60 08 60 00 02 00 00 00
01 03 60 00 22 00 af 22 04 00 6e 00 00 00 00 00
01 02 00 00 a6 00 c0 22 60 08 00 00 00 00 00 00
40 02 00 00 a6 1c d0 22 70 08 00 00 01 00 00 00
01 01 60 00 a6 00 ef 22 84 08 6a 00 00 00 00 00
31 01 60 05 dd 0f 07 20 a4 02 6e 00 ff 20 09 06
40 01 60 00 21 0c e1 20 e0 00 60 00 01 00 00 00
06 01 60 00 21 0c cf 28 20 01 60 00 14 00 00 00
01 01 60 00 25 00 a1 28 e0 00 60 00 00 00 00 00
41 01 60 00 a5 1c a1 28 a0 08 60 00 02 00 00 00
01 03 60 00 22 00 af 22 04 00 6e 00 00 00 00 00
01 02 00 00 a6 00 c0 22 a0 08 00 00 00 00 00 00
40 02 00 00 a6 1c d0 22 b0 08 00 00 01 00 00 00
01 01 60 00 a6 00 ef 22 c4 08 6e 00 00 00 00 00
31 01 60 05 dd 0f 0f 20 a4 02 6e 00 ff 20 09 06
01 01 60 00 61 00 21 21 00 00 00 00 00 00 00 00
40 01 60 00 21 0c e1 20 e0 00 60 00 01 00 00 00
01 05 60 00 e5 10 4b 26 00 00 00 00 00 00 00 00
01 01 60 00 25 00 e1 28 e0 00 60 00 00 00 00 00
01 09 60 00 a5 00 44 26 20 03 60 00 00 00 00 00
41 01 60 00 a5 1c e1 28 e0 08 60 00 02 00 00 00
01 03 60 00 22 00 af 22 04 00 6e 00 00 00 00 00
01 02 00 00 a6 00 c0 22 e0 08 00 00 00 00 00 00
40 02 00 00 a6 1c d0 22 f0 08 00 00 01 00 00 00
01 01 60 00 a6 00 ef 22 44 06 6e 00 00 00 00 00
31 01 60 05 dd 0f 0f 20 a4 02 6e 00 ff 20 09 06
40 01 60 00 21 0c e1 20 e0 00 60 00 01 00 00 00
01 01 60 00 25 00 21 29 e0 00 60 00 00 00 00 00
41 01 60 00 a5 1c 21 29 20 09 60 00 02 00 00 00
01 03 60 00 22 00 af 22 04 00 6e 00 00 00 00 00
01 02 00 00 a6 00 c0 22 20 09 00 00 00 00 00 00
40 02 00 00 a6 1c d0 22 30 09 00 00 01 00 00 00
01 01 60 00 a6 00 ef 22 04 02 6e 00 00 00 00 00
31 01 60 05 dd 0f 0f 20 a4 02 6e 00 ff 20 09 06
40 01 60 00 21 0c e1 20 e0 00 60 00 01 00 00 00
01 01 60 00 fd 73 87 29 00 00 00 00 cd cc 4c 3e
01 01 60 00 25 00 61 29 e0 00 60 00 00 00 00 00
41 01 60 00 a5 1c 61 29 60 09 60 00 02 00 00 00
01 03 60 00 22 00 af 22 04 00 6e 00 00 00 00 00
01 02 00 00 a6 00 c0 22 60 09 00 00 00 00 00 00
40 02 00 00 a6 1c d0 22 70 09 00 00 01 00 00 00
01 01 60 00 a6 00 ef 22 84 09 6a 00 00 00 00 00
31 01 60 05 dd 0f 07 20 a4 02 6e 00 ff 20 09 06
40 01 60 00 21 0c e1 20 e0 00 60 00 01 00 00 00
06 01 60 00 21 0c cf 29 20 01 60 00 14 00 00 00
01 01 60 00 25 00 a1 29 e0 00 60 00 00 00 00 00
41 01 60 00 a5 1c a1 29 a0 09 60 00 02 00 00 00
01 03 60 00 22 00 af 22 04 00 6e 00 00 00 00 00
01 02 00 00 a6 00 c0 22 a0 09 00 00 00 00 00 00
40 02 00 00 a6 1c d0 22 b0 09 00 00 01 00 00 00
01 01 60 00 a6 00 ef 22 c4 09 6e 00 00 00 00 00
31 01 60 05 dd 0f 0f 20 a4 02 6e 00 ff 20 09 06
01 01 60 00 61 00 21 21 00 00 00 00 00 00 00 00
40 01 60 00 21 0c e1 20 e0 00 60 00 01 00 00 00
01 05 60 00 e5 10 8b 26 00 00 00 00 00 00 00 00
01 01 60 00 25 00 e1 29 e0 00 60 00 00 00 00 00
01 09 60 00 a5 00 84 26 20 03 60 00 00 00 00 00
41 01 60 00 a5 1c e1 29 e0 09 60 00 02 00 00 00
01 03 60 00 22 00 af 22 04 00 6e 00 00 00 00 00
01 02 00 00 a6 00 c0 22 e0 09 00 00 00 00 00 00
40 02 00 00 a6 1c d0 22 f0 09 00 00 01 00 00 00
01 01 60 00 a6 00 ef 22 84 06 6e 00 00 00 00 00
31 01 60 05 dd 0f 0f 20 a4 02 6e 00 ff 20 09 06
40 01 60 00 21 0c e1 20 e0 00 60 00 01 00 00 00
01 01 60 00 25 00 21 2a e0 00 60 00 00 00 00 00
41 01 60 00 a5 1c 21 2a 20 0a 60 00 02 00 00 00
01 03 60 00 22 00 af 22 04 00 6e 00 00 00 00 00
01 02 00 00 a6 00 c0 22 20 0a 00 00 00 00 00 00
40 02 00 00 a6 1c d0 22 30 0a 00 00 01 00 00 00
01 01 60 00 a6 00 ef 22 64 02 6e 00 00 00 00 00
31 01 60 05 dd 0f 0f 20 a4 02 6e 00 ff 20 09 06
40 01 60 00 21 0c e1 20 e0 00 60 00 01 00 00 00
01 01 60 00 fd 73 87 2a 00 00 00 00 cd cc 4c 3e
01 01 60 00 25 00 61 2a e0 00 60 00 00 00 00 00
41 01 60 00 a5 1c 61 2a 60 0a 60 00 02 00 00 00
01 03 60 00 22 00 af 22 04 00 6e 00 00 00 00 00
01 02 00 00 a6 00 c0 22 60 0a 00 00 00 00 00 00
40 02 00 00 a6 1c d0 22 70 0a 00 00 01 00 00 00
01 01 60 00 a6 00 ef 22 84 0a 6a 00 00 00 00 00
31 01 60 05 dd 0f 07 20 a4 02 6e 00 ff 20 09 06
40 01 60 00 21 0c e1 20 e0 00 60 00 01 00 00 00
06 01 60 00 21 0c cf 2a 20 01 60 00 14 00 00 00
01 01 60 00 25 00 a1 2a e0 00 60 00 00 00 00 00
41 01 60 00 a5 1c a1 2a a0 0a 60 00 02 00 00 00
01 03 60 00 22 00 af 22 04 00 6e 00 00 00 00 00
01 02 00 00 a6 00 c0 22 a0 0a 00 00 00 00 00 00
40 02 00 00 a6 1c d0 22 b0 0a 00 00 01 00 00 00
01 01 60 00 a6 00 ef 22 c4 0a 6e 00 00 00 00 00
31 01 60 05 dd 0f 0f 20 a4 02 6e 00 ff 20 09 06
01 01 60 00 61 00 21 21 00 00 00 00 00 00 00 00
40 01 60 00 21 0c e1 20 e0 00 60 00 01 00 00 00
01 01 60 00 e5 10 a1 26 00 00 00 00 0f 00 00 00
10 01 60 05 20 0c 0f 20 a0 06 60 00 13 00 00 00
10 01 61 02 20 0c 0f 20 a0 06 60 00 00 00 00 00
22 01 61 00 8f 10 24 00 04 00 0e 00 04 00 0e 00
40 01 60 00 21 1c c1 26 e0 00 60 00 ff ff ff ff
01 01 60 00 25 00 e1 2a c0 06 60 00 00 00 00 00
01 01 60 00 25 00 41 2b c0 06 60 00 00 00 00 00
41 01 60 00 a5 1c e1 2a e0 0a 60 00 02 00 00 00
41 01 60 00 a5 1c 41 2b 40 0b 60 00 02 00 00 00
01 03 60 00 22 00 cf 22 04 00 6e 00 00 00 00 00
01 02 00 00 a6 00 e0 22 40 0b 00 00 00 00 00 00
40 02 00 00 a6 1c f0 22 50 0b 00 00 01 00 00 00
31 01 60 05 dd 0f 2f 2b c4 02 6e 00 ff 40 18 04
06 01 60 00 21 1c 0f 2b 24 0b 6e 00 01 00 00 00
01 03 60 00 22 00 af 22 04 00 6e 00 00 00 00 00
01 02 00 00 a6 00 c0 22 e0 0a 00 00 00 00 00 00
40 02 00 00 a6 1c d0 22 f0 0a 00 00 01 00 00 00
01 01 60 00 a6 00 ef 22 04 0b 6e 00 00 00 00 00
31 01 60 05 dd 0f 0f 20 a4 02 6e 00 ff 20 09 06
40 01 60 00 21 0c 41 21 40 01 60 00 01 00 00 00
01 01 60 00 e1 10 21 21 00 00 00 00 02 00 00 00
25 01 60 00 8f 10 02 00 04 00 6e 00 04 00 6e 00
01 05 60 00 e5 10 0b 27 00 00 00 00 00 00 00 00
01 01 60 00 25 00 61 2b e0 00 60 00 00 00 00 00
01 09 60 00 a5 00 04 27 60 03 60 00 00 00 00 00
41 01 60 00 a5 1c 61 2b 60 0b 60 00 02 00 00 00
01 03 60 00 22 00 af 22 04 00 6e 00 00 00 00 00
01 02 00 00 a6 00 c0 22 60 0b 00 00 00 00 00 00
40 02 00 00 a6 1c d0 22 70 0b 00 00 01 00 00 00
01 01 60 00 a6 00 ef 22 04 07 6e 00 00 00 00 00
31 01 60 05 dd 0f 0f 20 a4 02 6e 00 ff 20 09 06
40 01 60 00 21 0c e1 20 e0 00 60 00 01 00 00 00
01 01 60 00 25 00 a1 2b e0 00 60 00 00 00 00 00
41 01 60 00 a5 1c a1 2b a0 0b 60 00 02 00 00 00
01 03 60 00 22 00 af 22 04 00 6e 00 00 00 00 00
01 02 00 00 a6 00 c0 22 a0 0b 00 00 00 00 00 00
40 02 00 00 a6 1c d0 22 b0 0b 00 00 01 00 00 00
01 01 60 00 a6 00 ef 22 a4 01 6e 00 00 00 00 00
31 01 60 05 dd 0f 0f 20 a4 02 6e 00 ff 20 09 06
40 01 60 00 21 0c e1 20 e0 00 60 00 01 00 00 00
01 01 60 00 fd 73 07 2c 00 00 00 00 ab aa 2a 3e
01 01 60 00 25 00 e1 2b e0 00 60 00 00 00 00 00
41 01 60 00 a5 1c e1 2b e0 0b 60 00 02 00 00 00
01 03 60 00 22 00 af 22 04 00 6e 00 00 00 00 00
01 02 00 00 a6 00 c0 22 e0 0b 00 00 00 00 00 00
40 02 00 00 a6 1c d0 22 f0 0b 00 00 01 00 00 00
01 01 60 00 a6 00 ef 22 04 0c 6a 00 00 00 00 00
31 01 60 05 dd 0f 07 20 a4 02 6e 00 ff 20 09 06
40 01 60 00 21 0c e1 20 e0 00 60 00 01 00 00 00
06 01 60 00 21 0c 4f 2c 20 01 60 00 14 00 00 00
01 01 60 00 25 00 21 2c e0 00 60 00 00 00 00 00
41 01 60 00 a5 1c 21 2c 20 0c 60 00 02 00 00 00
01 03 60 00 22 00 af 22 04 00 6e 00 00 00 00 00
01 02 00 00 a6 00 c0 22 20 0c 00 00 00 00 00 00
40 02 00 00 a6 1c d0 22 30 0c 00 00 01 00 00 00
01 01 60 00 a6 00 ef 22 44 0c 6e 00 00 00 00 00
31 01 60 05 dd 0f 0f 20 a4 02 6e 00 ff 20 09 06
01 01 60 00 61 00 21 21 00 00 00 00 00 00 00 00
40 01 60 00 21 0c e1 20 e0 00 60 00 01 00 00 00
01 05 60 00 e5 10 4b 27 00 00 00 00 00 00 00 00
01 01 60 00 25 00 61 2c e0 00 60 00 00 00 00 00
01 09 60 00 a5 00 44 27 60 03 60 00 00 00 00 00
41 01 60 00 a5 1c 61 2c 60 0c 60 00 02 00 00 00
01 03 60 00 22 00 af 22 04 00 6e 00 00 00 00 00
01 02 00 00 a6 00 c0 22 60 0c 00 00 00 00 00 00
40 02 00 00 a6 1c d0 22 70 0c 00 00 01 00 00 00
01 01 60 00 a6 00 ef 22 44 07 6e 00 00 00 00 00
31 01 60 05 dd 0f 0f 20 a4 02 6e 00 ff 20 09 06
40 01 60 00 21 0c e1 20 e0 00 60 00 01 00 00 00
01 01 60 00 25 00 a1 2c e0 00 60 00 00 00 00 00
41 01 60 00 a5 1c a1 2c a0 0c 60 00 02 00 00 00
01 03 60 00 22 00 af 22 04 00 6e 00 00 00 00 00
01 02 00 00 a6 00 c0 22 a0 0c 00 00 00 00 00 00
40 02 00 00 a6 1c d0 22 b0 0c 00 00 01 00 00 00
01 01 60 00 a6 00 ef 22 04 02 6e 00 00 00 00 00
31 01 60 05 dd 0f 0f 20 a4 02 6e 00 ff 20 09 06
40 01 60 00 21 0c e1 20 e0 00 60 00 01 00 00 00
01 01 60 00 fd 73 07 2d 00 00 00 00 ab aa 2a 3e
01 01 60 00 25 00 e1 2c e0 00 60 00 00 00 00 00
41 01 60 00 a5 1c e1 2c e0 0c 60 00 02 00 00 00
01 03 60 00 22 00 af 22 04 00 6e 00 00 00 00 00
01 02 00 00 a6 00 c0 22 e0 0c 00 00 00 00 00 00
40 02 00 00 a6 1c d0 22 f0 0c 00 00 01 00 00 00
01 01 60 00 a6 00 ef 22 04 0d 6a 00 00 00 00 00
31 01 60 05 dd 0f 07 20 a4 02 6e 00 ff 20 09 06
40 01 60 00 21 0c e1 20 e0 00 60 00 01 00 00 00
06 01 60 00 21 0c 4f 2d 20 01 60 00 14 00 00 00
01 01 60 00 25 00 21 2d e0 00 60 00 00 00 00 00
41 01 60 00 a5 1c 21 2d 20 0d 60 00 02 00 00 00
01 03 60 00 22 00 af 22 04 00 6e 00 00 00 00 00
01 02 00 00 a6 00 c0 22 20 0d 00 00 00 00 00 00
40 02 00 00 a6 1c d0 22 30 0d 00 00 01 00 00 00
01 01 60 00 a6 00 ef 22 44 0d 6e 00 00 00 00 00
31 01 60 05 dd 0f 0f 20 a4 02 6e 00 ff 20 09 06
01 01 60 00 61 00 21 21 00 00 00 00 00 00 00 00
40 01 60 00 21 0c e1 20 e0 00 60 00 01 00 00 00
01 05 60 00 e5 10 8b 27 00 00 00 00 00 00 00 00
01 01 60 00 25 00 61 2d e0 00 60 00 00 00 00 00
01 09 60 00 a5 00 84 27 60 03 60 00 00 00 00 00
41 01 60 00 a5 1c 61 2d 60 0d 60 00 02 00 00 00
01 03 60 00 22 00 af 22 04 00 6e 00 00 00 00 00
01 02 00 00 a6 00 c0 22 60 0d 00 00 00 00 00 00
40 02 00 00 a6 1c d0 22 70 0d 00 00 01 00 00 00
01 01 60 00 a6 00 ef 22 84 07 6e 00 00 00 00 00
31 01 60 05 dd 0f 0f 20 a4 02 6e 00 ff 20 09 06
40 01 60 00 21 0c e1 20 e0 00 60 00 01 00 00 00
01 01 60 00 25 00 a1 2d e0 00 60 00 00 00 00 00
41 01 60 00 a5 1c a1 2d a0 0d 60 00 02 00 00 00
01 03 60 00 22 00 af 22 04 00 6e 00 00 00 00 00
01 02 00 00 a6 00 c0 22 a0 0d 00 00 00 00 00 00
40 02 00 00 a6 1c d0 22 b0 0d 00 00 01 00 00 00
01 01 60 00 a6 00 ef 22 64 02 6e 00 00 00 00 00
31 01 60 05 dd 0f 0f 20 a4 02 6e 00 ff 20 09 06
40 01 60 00 21 0c e1 20 e0 00 60 00 01 00 00 00
01 01 60 00 fd 73 07 2e 00 00 00 00 ab aa 2a 3e
01 01 60 00 25 00 e1 2d e0 00 60 00 00 00 00 00
41 01 60 00 a5 1c e1 2d e0 0d 60 00 02 00 00 00
01 03 60 00 22 00 af 22 04 00 6e 00 00 00 00 00
01 02 00 00 a6 00 c0 22 e0 0d 00 00 00 00 00 00
40 02 00 00 a6 1c d0 22 f0 0d 00 00 01 00 00 00
01 01 60 00 a6 00 ef 22 04 0e 6a 00 00 00 00 00
31 01 60 05 dd 0f 07 20 a4 02 6e 00 ff 20 09 06
40 01 60 00 21 0c e1 20 e0 00 60 00 01 00 00 00
06 01 60 00 21 0c 4f 2e 20 01 60 00 14 00 00 00
01 01 60 00 25 00 21 2e e0 00 60 00 00 00 00 00
41 01 60 00 a5 1c 21 2e 20 0e 60 00 02 00 00 00
01 03 60 00 22 00 af 22 04 00 6e 00 00 00 00 00
01 02 00 00 a6 00 c0 22 20 0e 00 00 00 00 00 00
40 02 00 00 a6 1c d0 22 30 0e 00 00 01 00 00 00
01 01 60 00 a6 00 ef 22 44 0e 6e 00 00 00 00 00
31 01 60 05 dd 0f 0f 20 a4 02 6e 00 ff 20 09 06
01 01 60 00 61 00 21 21 00 00 00 00 00 00 00 00
40 01 60 00 21 0c e1 20 e0 00 60 00 01 00 00 00
01 01 60 00 e5 10 a1 27 00 00 00 00 12 00 00 00
10 01 60 05 20 0c 0f 20 a0 07 60 00 13 00 00 00
10 01 61 02 20 0c 0f 20 a0 07 60 00 00 00 00 00
22 01 61 00 8f 10 24 00 04 00 0e 00 04 00 0e 00
40 01 60 00 21 1c c1 27 e0 00 60 00 ff ff ff ff
01 01 60 00 25 00 61 2e c0 07 60 00 00 00 00 00
01 01 60 00 25 00 c1 2e c0 07 60 00 00 00 00 00
41 01 60 00 a5 1c 61 2e 60 0e 60 00 02 00 00 00
41 01 60 00 a5 1c c1 2e c0 0e 60 00 02 00 00 00
01 03 60 00 22 00 cf 22 04 00 6e 00 00 00 00 00
01 02 00 00 a6 00 e0 22 c0 0e 00 00 00 00 00 00
40 02 00 00 a6 1c f0 22 d0 0e 00 00 01 00 00 00
31 01 60 05 dd 0f af 2e c4 02 6e 00 ff 40 18 04
06 01 60 00 21 1c 8f 2e a4 0e 6e 00 01 00 00 00
01 03 60 00 22 00 af 22 04 00 6e 00 00 00 00 00
01 02 00 00 a6 00 c0 22 60 0e 00 00 00 00 00 00
40 02 00 00 a6 1c d0 22 70 0e 00 00 01 00 00 00
01 01 60 00 a6 00 ef 22 84 0e 6e 00 00 00 00 00
31 01 60 05 dd 0f 0f 20 a4 02 6e 00 ff 20 09 06
40 01 60 00 21 0c 41 21 40 01 60 00 01 00 00 00
01 01 60 00 e1 10 21 21 00 00 00 00 02 00 00 00
25 01 60 00 8f 10 02 00 04 00 6e 00 04 00 6e 00
10 01 60 01 20 0c 0f 20 20 01 60 00 00 00 00 00
22 01 61 00 8f 10 2a 00 04 00 0e 00 04 00 0e 00
10 01 60 05 20 0c 0f 20 a0 07 60 00 13 00 00 00
10 01 61 02 20 0c 0f 20 a0 07 60 00 00 00 00 00
22 01 61 00 8f 10 22 00 04 00 0e 00 04 00 0e 00
40 01 60 00 21 1c e1 27 e0 00 60 00 ff ff ff ff
01 01 60 00 25 00 e1 2e e0 07 60 00 00 00 00 00
01 01 60 00 25 00 41 2f e0 07 60 00 00 00 00 00
41 01 60 00 a5 1c e1 2e e0 0e 60 00 02 00 00 00
41 01 60 00 a5 1c 41 2f 40 0f 60 00 02 00 00 00
01 03 60 00 22 00 cf 22 04 00 6e 00 00 00 00 00
01 02 00 00 a6 00 e0 22 40 0f 00 00 00 00 00 00
40 02 00 00 a6 1c f0 22 50 0f 00 00 01 00 00 00
31 01 60 05 dd 0f 2f 2f c4 02 6e 00 ff 40 18 04
06 01 60 00 21 1c 0f 2f 24 0f 6e 00 01 00 00 00
01 03 60 00 22 00 af 22 04 00 6e 00 00 00 00 00
01 02 00 00 a6 00 c0 22 e0 0e 00 00 00 00 00 00
40 02 00 00 a6 1c d0 22 f0 0e 00 00 01 00 00 00
01 01 60 00 a6 00 ef 22 04 0f 6e 00 00 00 00 00
31 01 60 05 dd 0f 0f 20 a4 02 6e 00 ff 20 09 06
40 01 60 00 21 0c 41 21 40 01 60 00 01 00 00 00
25 01 60 00 8f 10 02 00 04 00 6e 00 04 00 6e 00
25 01 60 00 8f 10 02 00 04 00 6e 00 04 00 6e 00
01 02 00 00 62 00 20 20 00 00 00 00 00 00 00 00
01 02 00 00 22 00 24 20 40 01 00 00 00 00 00 00
31 01 60 06 41 0c 01 21 24 00 6e 00 01 20 18 02
01 02 00 00 22 00 20 20 00 01 00 00 00 00 00 00
10 01 60 03 20 0c 0f 20 a0 07 60 00 00 00 00 00
22 01 61 00 8f 10 54 00 04 00 0e 00 04 00 0e 00
01 01 60 00 61 00 01 28 00 00 00 00 00 00 00 00
01 01 60 00 61 00 e1 20 00 00 00 00 00 00 00 00
10 01 60 04 20 04 0f 20 00 08 60 00 a0 07 60 00
28 01 61 00 84 1c 0f 20 04 00 6e 00 4a 00 4c 00
40 01 60 00 21 1c 21 28 e0 00 60 00 03 00 00 00
01 01 60 00 25 00 c1 2f e0 00 60 00 00 00 00 00
40 01 60 00 21 0c 01 28 00 08 60 00 01 00 00 00
01 01 60 00 25 00 81 2f 20 08 60 00 00 00 00 00
41 01 60 00 a5 1c c1 2f c0 0f 60 00 02 00 00 00
40 01 60 00 21 0c e1 20 e0 00 60 00 01 00 00 00
41 01 60 00 a5 1c 81 2f 80 0f 60 00 02 00 00 00
01 01 60 00 25 00 a1 20 e0 00 60 00 00 00 00 00
01 03 60 00 22 00 cf 22 04 00 6e 00 00 00 00 00
01 02 00 00 a6 00 e0 22 80 0f 00 00 00 00 00 00
40 02 00 00 a6 1c f0 22 90 0f 00 00 01 00 00 00
31 01 60 05 dd 0f 6f 2f c4 02 6e 00 ff 40 18 04
41 01 60 00 a5 1c a1 20 a0 00 60 00 02 00 00 00
40 01 60 00 21 0c e1 20 e0 00 60 00 01 00 00 00
01 02 00 00 22 00 28 20 60 0f 00 00 00 00 00 00
01 03 60 00 22 00 cf 22 04 00 6e 00 00 00 00 00
01 02 00 00 a6 00 e0 22 c0 0f 00 00 00 00 00 00
40 02 00 00 a6 1c f0 22 d0 0f 00 00 01 00 00 00
31 01 60 05 dd 0f af 2f c4 02 6e 00 ff 40 18 04
01 01 60 00 25 00 21 21 e0 00 60 00 00 00 00 00
01 03 60 00 be 03 4f 20 a4 0f 6e 00 00 00 00 00
01 03 60 00 22 00 cf 22 04 00 6e 00 00 00 00 00
01 02 00 00 a6 00 e0 22 a0 00 00 00 00 00 00 00
40 02 00 00 a6 1c f0 22 b0 00 00 00 01 00 00 00
31 01 60 05 dd 0f ef 2f c4 02 6e 00 ff 40 18 04
41 01 60 00 a5 1c 21 21 20 01 60 00 02 00 00 00
40 01 60 00 21 0c e1 20 e0 00 60 00 01 00 00 00
01 03 60 00 be 03 6f 20 e4 0f 6e 00 00 00 00 00
01 03 60 00 22 00 cf 22 04 00 6e 00 00 00 00 00
01 02 00 00 a6 00 e0 22 20 01 00 00 00 00 00 00
40 02 00 00 a6 1c f0 22 30 01 00 00 01 00 00 00
31 01 60 05 dd 0f cf 20 c4 02 6e 00 ff 40 18 04
40 01 60 00 21 0c e1 20 e0 00 60 00 01 00 00 00
01 03 60 00 be 03 8f 20 c4 00 6e 00 00 00 00 00
31 01 60 06 c1 0f 0f 21 24 00 6e 00 00 e4 18 0a
01 02 00 00 22 00 20 20 00 01 00 00 00 00 00 00
27 01 60 00 8f 10 b4 ff 04 00 6e 00 04 00 6e 00
25 01 60 00 8f 10 02 00 04 00 6e 00 04 00 6e 00
31 01 60 06 dc 0f 0f 20 24 00 6e 00 00 84 08 82
5a 00 60 00 be 77 20 20 80 00 00 00 40 00 8d 00
01 00 60 00 fe 73 80 20 00 00 00 00 00 00 80 3f
5a 00 60 00 be 77 40 20 90 00 00 00 40 00 8d 00
5a 00 60 00 be 77 60 20 a0 00 00 00 40 00 8d 00
32 00 60 05 c8 0f 00 20 20 00 8d 00 00 94 01 88
5a 00 80 00 be 77 20 20 c0 00 00 00 40 00 8d 00
01 00 80 00 fe 73 e0 20 00 00 00 00 00 00 80 3f
5a 00 80 00 be 77 60 20 d0 00 00 00 40 00 8d 00
5a 00 80 00 be 77 a0 20 e0 00 00 00 40 00 8d 00
32 00 80 05 c8 0f 00 20 20 00 8d 00 00 90 01 90
