01 02 40 00 be 03 40 20 4c 00 87 00 00 00 00 00
32 00 80 05 c8 0f 00 20 40 00 8d 00 00 91 01 82
01 05 60 00 fe 52 6e 20 00 00 00 00 00 00 00 30
40 01 60 00 a5 14 a1 21 2a 00 6a 00 20 00 60 00
01 01 60 00 e6 10 4f 20 00 00 00 00 00 00 00 00
09 01 60 00 a5 0c e1 21 a0 01 60 00 04 00 00 00
01 01 60 00 bd 00 81 22 a0 01 60 00 00 00 00 00
40 01 60 00 a5 1c c1 22 a0 41 60 00 10 00 00 00
40 01 60 00 a6 1c a1 20 a0 01 60 00 01 00 00 00
40 01 60 00 a5 1c 01 22 e0 01 60 00 08 00 00 00
41 05 60 00 be 7f 85 20 80 02 60 00 00 00 80 3d
01 01 60 00 bd 00 e1 22 c0 02 60 00 00 00 00 00
01 01 60 00 bd 00 21 22 00 02 60 00 00 00 00 00
41 0d 60 00 be 7f 82 20 e0 02 60 00 00 00 80 3d
41 01 60 00 bd 7f 61 22 20 02 60 00 00 00 00 3c
01 09 60 00 e6 10 88 20 00 00 00 00 00 00 80 3f
40 09 60 00 be 7f 61 20 60 02 60 00 00 00 80 bf
01 03 60 00 22 00 2f 20 04 00 6e 00 00 00 00 00
31 01 60 06 dc 0f 0f 20 24 00 6e 00 00 c4 08 8a
01 02 60 00 21 00 80 20 00 00 8d 00 00 00 00 00
40 02 00 00 21 0c a0 20 20 00 00 00 01 00 00 00
10 02 00 06 3c 04 00 20 a0 00 00 00 30 00 00 00
22 00 01 00 8f 10 0e 00 00 00 00 00 00 00 00 00
01 02 60 00 69 63 c0 20 00 00 00 00 00 01 02 00
40 02 40 00 21 04 c0 20 c0 00 69 00 20 00 00 00
01 02 00 00 21 00 94 20 c0 00 00 00 00 00 00 00
01 03 40 00 21 00 8f 20 74 00 6e 00 00 00 00 00
01 02 60 00 22 00 20 20 80 00 8d 00 00 00 00 00
31 02 60 05 c1 0f a0 20 20 00 8d 00 00 a0 1b 02
25 00 00 00 8f 10 02 00 00 00 8d 00 00 00 8d 00
01 02 60 00 21 00 80 20 00 00 8d 00 00 00 00 00
01 02 60 00 21 00 a0 20 a0 00 8d 00 00 00 00 00
01 02 00 00 61 00 84 20 00 00 00 00 01 00 00 00
01 02 60 00 22 00 00 20 80 00 8d 00 00 00 00 00
31 02 60 06 c1 0f a0 20 00 00 8d 00 01 20 18 02
01 02 00 00 21 00 80 20 a0 00 00 00 00 00 00 00
05 02 00 00 21 0c 88 20 08 00 00 00 1f 00 00 00
09 02 00 00 21 0c 88 20 88 00 00 00 02 00 00 00
40 02 00 00 a5 1c 88 20 88 00 00 00 03 00 00 00
01 02 60 00 be 03 20 20 40 00 8d 00 00 00 00 00
01 02 60 00 be 03 40 20 60 00 8d 00 00 00 00 00
01 02 60 00 22 00 00 20 80 00 8d 00 00 00 00 00
31 02 60 06 c0 0f 00 20 00 00 8d 00 00 c0 08 86
5a 00 60 00 be 77 20 20 80 00 00 00 40 00 8d 00
5a 00 60 00 be 77 40 20 90 00 00 00 40 00 8d 00
5a 00 60 00 be 77 60 20 a0 00 00 00 40 00 8d 00
5a 00 60 00 be 77 80 20 b0 00 00 00 40 00 8d 00
32 00 60 05 c8 0f 00 20 20 00 8d 00 00 94 01 88
7e 00 00 00 00 00 00 00 00 00 00 00 00 00 00 00
7e 00 00 00 00 00 00 00 00 00 00 00 00 00 00 00
7e 00 00 00 00 00 00 00 00 00 00 00 00 00 00 00
5a 00 80 00 be 77 20 20 c0 00 00 00 40 00 8d 00
5a 00 80 00 be 77 60 20 d0 00 00 00 40 00 8d 00
5a 00 80 00 be 77 a0 20 e0 00 00 00 40 00 8d 00
5a 00 80 00 be 77 e0 20 f0 00 00 00 40 00 8d 00
32 00 80 05 c8 0f 00 20 20 00 8d 00 00 90 01 90
40 02 80 00 29 6d c0 20 28 00 28 00 10 10 00 11
01 00 60 00 a6 00 80 20 ec 00 00 00 00 00 00 00
01 00 60 00 e2 10 a0 20 00 00 00 00 00 00 00 00
01 00 60 00 3d 01 40 20 c0 00 89 00 00 00 00 00
01 00 60 00 3d 01 60 20 c8 00 89 00 00 00 00 00
01 00 60 00 a5 03 e0 20 40 00 8d 00 00 00 00 00
01 00 60 00 a5 03 00 21 60 00 8d 00 00 00 00 00
01 00 60 00 bd 00 20 21 e0 00 8d 00 00 00 00 00
01 00 60 00 bd 00 40 21 00 01 8d 00 00 00 00 00
5b 01 60 00 00 00 1e 0b 01 4e 20 c0 08 20 47 02
5b 01 60 00 00 00 1e 0c 01 5e 20 c0 0a 20 87 02
01 00 60 00 a6 03 40 20 60 01 8d 00 00 00 00 00
01 00 60 00 a6 03 60 20 80 01 8d 00 00 00 00 00
31 00 60 02 c9 0f 40 20 40 00 8d 00 01 70 41 08
01 00 60 00 be 03 20 20 40 00 8d 00 00 00 00 00
01 00 60 00 be 03 40 20 60 00 8d 00 00 00 00 00
01 00 60 00 be 03 60 20 80 00 8d 00 00 00 00 00
01 00 60 00 be 03 80 20 a0 00 8d 00 00 00 00 00
32 00 60 05 c8 0f 00 20 20 00 8d 00 00 94 01 88
40 00 80 00 29 6d 80 20 28 00 48 00 10 10 10 10
40 00 80 00 29 6d 00 21 2a 00 48 00 00 11 00 11
01 00 80 00 a6 00 c0 20 2c 01 00 00 00 00 00 00
01 00 80 00 e2 10 00 21 00 00 00 00 00 00 00 00
01 00 80 00 3d 01 40 20 80 00 8d 00 00 00 00 00
01 00 80 00 3d 01 80 20 00 01 8d 00 00 00 00 00
01 00 80 00 a5 03 00 21 40 00 8d 00 00 00 00 00
01 00 80 00 a5 03 40 21 80 00 8d 00 00 00 00 00
01 00 80 00 bd 00 80 21 00 01 8d 00 00 00 00 00
01 00 80 00 bd 00 c0 21 40 01 8d 00 00 00 00 00
5b 01 60 00 00 00 1e 10 01 6e 20 c0 0c 20 07 03
5b 11 60 00 00 00 1e 11 01 6e 20 c0 0c 20 47 03
5b 01 60 00 00 00 1e 12 01 7e 20 c0 0e 20 87 03
5b 11 60 00 00 00 1e 13 01 7e 20 c0 0e 20 c7 03
01 00 80 00 a6 03 40 20 00 02 8d 00 00 00 00 00
01 00 80 00 a6 03 80 20 40 02 8d 00 00 00 00 00
31 00 80 02 c9 0f 40 20 40 00 8d 00 01 70 82 10
01 00 80 00 be 03 20 20 40 00 8d 00 00 00 00 00
01 00 80 00 be 03 60 20 80 00 8d 00 00 00 00 00
01 00 80 00 be 03 a0 20 c0 00 8d 00 00 00 00 00
01 00 80 00 be 03 e0 20 00 01 8d 00 00 00 00 00
32 00 80 05 c8 0f 00 20 20 00 8d 00 00 90 01 90
