5a 00 60 00 be 77 20 20 80 00 00 00 40 00 8d 00
5a 00 60 00 be 77 40 20 90 00 00 00 40 00 8d 00
5a 00 60 00 be 77 60 20 a0 00 00 00 40 00 8d 00
5a 00 60 00 be 77 80 20 b0 00 00 00 40 00 8d 00
32 00 60 05 c8 0f 00 20 20 00 8d 00 00 94 01 88
5a 00 80 00 be 77 20 20 c0 00 00 00 40 00 8d 00
5a 00 80 00 be 77 60 20 d0 00 00 00 40 00 8d 00
5a 00 80 00 be 77 a0 20 e0 00 00 00 40 00 8d 00
5a 00 80 00 be 77 e0 20 f0 00 00 00 40 00 8d 00
32 00 80 05 c8 0f 00 20 20 00 8d 00 00 90 01 90
54 05 60 00 be 77 61 20 64 00 6e 00 24 00 0e 00
01 01 60 00 e6 10 4f 20 00 00 00 00 00 00 00 00
01 01 60 80 be 03 8f 20 84 00 6e 00 00 00 00 00
54 0d 60 00 be 77 62 20 64 00 6e 00 34 00 0e 00
01 01 60 00 be 03 48 20 a0 00 60 00 00 00 00 00
54 0d 60 00 be 77 64 20 64 00 6e 00 44 00 0e 00
54 09 60 00 be 77 68 20 64 00 6e 00 54 00 0e 00
01 03 60 00 22 00 2f 20 04 00 6e 00 00 00 00 00
31 01 60 06 dc 0f 0f 20 24 00 6e 00 00 c4 08 8a
01 02 40 00 be 03 40 20 4c 00 87 00 00 00 00 00
32 00 80 05 c8 0f 00 20 40 00 8d 00 00 91 01 82
01 00 60 00 be 03 20 20 40 00 00 00 00 00 00 00
01 00 60 00 be 03 40 20 44 00 00 00 00 00 00 00
01 00 60 00 be 03 60 20 48 00 00 00 00 00 00 00
01 00 60 00 be 03 80 20 4c 00 00 00 00 00 00 00
32 00 60 05 c8 0f 00 20 20 00 8d 00 00 94 01 88
01 00 80 00 be 03 20 20 40 00 00 00 00 00 00 00
01 00 80 00 be 03 60 20 44 00 00 00 00 00 00 00
01 00 80 00 be 03 a0 20 48 00 00 00 00 00 00 00
01 00 80 00 be 03 e0 20 4c 00 00 00 00 00 00 00
32 00 80 05 c8 0f 00 20 20 00 8d 00 00 90 01 90
54 05 60 00 be 77 61 20 64 00 6e 00 24 00 0e 00
01 01 60 00 e6 10 4f 20 00 00 00 00 00 00 00 00
01 01 60 00 fe 73 81 20 00 00 00 00 00 80 26 44
54 0d 60 00 be 77 62 20 64 00 6e 00 34 00 0e 00
54 0d 60 00 be 77 64 20 64 00 6e 00 44 00 0e 00
54 09 60 00 be 77 68 20 64 00 6e 00 54 00 0e 00
01 03 60 00 22 00 2f 20 04 00 6e 00 00 00 00 00
31 01 60 06 dc 0f 0f 20 24 00 6e 00 00 c4 08 8a
01 02 60 00 21 00 00 21 00 00 8d 00 00 00 00 00
40 02 00 00 21 0c 20 21 20 00 00 00 03 00 00 00
10 02 00 06 3c 04 00 20 20 01 00 00 30 00 00 00
22 00 01 00 8f 10 24 00 00 00 00 00 00 00 00 00
01 02 60 00 69 63 40 21 00 00 00 00 00 01 02 00
05 02 00 00 21 0c 20 21 08 00 00 00 1f 00 00 00
10 02 60 01 3c 0c 00 20 20 01 00 00 0d 00 00 00
01 02 61 00 69 63 40 21 00 00 00 00 01 00 02 00
40 02 40 00 21 04 40 21 40 01 69 00 20 00 00 00
01 02 00 00 21 00 14 21 40 01 00 00 00 00 00 00
01 03 40 00 21 00 0f 21 64 00 6e 00 00 00 00 00
01 02 60 00 22 00 20 20 00 01 8d 00 00 00 00 00
31 02 60 05 dc 0f 00 20 20 00 8d 00 00 a0 09 02
01 02 00 00 21 00 14 21 44 01 00 00 00 00 00 00
01 03 40 00 21 00 0f 21 a4 00 6e 00 00 00 00 00
01 02 60 00 22 00 20 20 00 01 8d 00 00 00 00 00
31 02 60 05 dc 0f 00 20 20 00 8d 00 00 a0 09 02
01 02 00 00 21 00 14 21 48 01 00 00 00 00 00 00
01 03 40 00 21 00 0f 21 e4 00 6e 00 00 00 00 00
01 02 60 00 22 00 20 20 00 01 8d 00 00 00 00 00
31 02 60 05 c1 0f 20 21 20 00 8d 00 00 a0 1b 02
25 00 00 00 8f 10 02 00 00 00 8d 00 00 00 8d 00
01 02 60 00 21 00 00 21 00 00 8d 00 00 00 00 00
01 02 60 00 21 00 20 21 20 01 8d 00 00 00 00 00
01 02 00 00 61 00 04 21 00 00 00 00 01 00 00 00
01 02 60 00 22 00 00 20 00 01 8d 00 00 00 00 00
31 02 60 06 c1 0f 20 21 00 00 8d 00 01 20 18 02
01 02 00 00 21 00 00 21 20 01 00 00 00 00 00 00
05 02 00 00 21 0c 08 21 08 00 00 00 1f 00 00 00
09 02 00 00 21 0c 08 21 08 01 00 00 02 00 00 00
40 02 00 00 a5 1c 08 21 08 01 00 00 02 00 00 00
01 02 60 00 be 03 20 20 40 00 8d 00 00 00 00 00
01 02 60 00 be 03 40 20 60 00 8d 00 00 00 00 00
01 02 60 00 22 00 00 20 00 01 8d 00 00 00 00 00
31 02 60 06 c1 0f 20 21 00 00 8d 00 00 e0 18 06
01 02 00 00 21 00 00 21 20 01 00 00 00 00 00 00
40 02 00 00 a5 1c 08 21 08 01 00 00 fe ff ff ff
01 02 60 00 be 03 20 20 80 00 8d 00 00 00 00 00
01 02 60 00 be 03 40 20 a0 00 8d 00 00 00 00 00
01 02 60 00 22 00 00 20 00 01 8d 00 00 00 00 00
31 02 60 06 c1 0f 20 21 00 00 8d 00 00 e0 18 06
01 02 00 00 21 00 00 21 20 01 00 00 00 00 00 00
40 02 00 00 a5 1c 08 21 08 01 00 00 01 00 00 00
01 02 60 00 be 03 20 20 c0 00 8d 00 00 00 00 00
01 02 60 00 be 03 40 20 e0 00 8d 00 00 00 00 00
01 02 60 00 22 00 00 20 00 01 8d 00 00 00 00 00
31 02 60 06 c0 0f 00 20 00 00 8d 00 00 c0 08 86
