01 00 60 00 22 00 20 20 60 00 8d 00 00 00 00 00
01 00 60 00 22 00 40 20 80 00 8d 00 00 00 00 00
01 00 60 00 22 00 60 20 a0 00 8d 00 00 00 00 00
01 00 60 00 22 00 80 20 40 00 8d 00 00 00 00 00
32 00 60 05 c8 0f 00 20 20 00 8d 00 00 94 01 88
01 00 80 00 22 00 20 20 60 00 8d 00 00 00 00 00
01 00 80 00 22 00 60 20 80 00 8d 00 00 00 00 00
01 00 80 00 22 00 a0 20 a0 00 8d 00 00 00 00 00
01 00 80 00 22 00 e0 20 40 00 8d 00 00 00 00 00
32 00 80 05 c8 0f 00 20 20 00 8d 00 00 90 01 90
54 05 60 00 be 77 61 20 64 00 6e 00 24 00 0e 00
01 01 60 00 e6 10 4f 20 00 00 00 00 00 00 00 00
54 0d 60 00 be 77 62 20 64 00 6e 00 34 00 0e 00
01 01 60 00 be 03 48 20 80 00 60 00 00 00 00 00
54 0d 60 00 be 77 64 20 64 00 6e 00 44 00 0e 00
54 09 60 00 be 77 68 20 64 00 6e 00 54 00 0e 00
01 03 60 00 22 00 2f 20 04 00 6e 00 00 00 00 00
31 01 60 06 dc 0f 0f 20 24 00 6e 00 00 c4 08 86
01 00 60 00 22 00 20 20 60 00 8d 00 00 00 00 00
01 00 60 00 22 00 40 20 80 00 8d 00 00 00 00 00
01 00 60 00 22 00 60 20 a0 00 8d 00 00 00 00 00
01 00 60 00 22 00 80 20 40 00 8d 00 00 00 00 00
32 00 60 05 c8 0f 00 20 20 00 8d 00 00 94 01 88
01 00 80 00 22 00 20 20 60 00 8d 00 00 00 00 00
01 00 80 00 22 00 60 20 80 00 8d 00 00 00 00 00
01 00 80 00 22 00 a0 20 a0 00 8d 00 00 00 00 00
01 00 80 00 22 00 e0 20 40 00 8d 00 00 00 00 00
32 00 80 05 c8 0f 00 20 20 00 8d 00 00 90 01 90
54 05 60 00 be 77 61 20 64 00 6e 00 24 00 0e 00
01 01 60 00 e6 10 4f 20 00 00 00 00 00 00 00 00
54 0d 60 00 be 77 62 20 64 00 6e 00 34 00 0e 00
54 0d 60 00 be 77 64 20 64 00 6e 00 44 00 0e 00
54 09 60 00 be 77 68 20 64 00 6e 00 54 00 0e 00
01 03 60 00 22 00 2f 20 04 00 6e 00 00 00 00 00
31 01 60 06 dc 0f 0f 20 24 00 6e 00 00 c4 08 86
