5a 00 60 00 be 77 20 20 80 00 00 00 40 00 8d 00
5a 00 60 00 be 77 40 20 90 00 00 00 40 00 8d 00
5a 00 60 00 be 77 60 20 a0 00 00 00 40 00 8d 00
5a 00 60 00 be 77 80 20 b0 00 00 00 40 00 8d 00
32 00 60 05 c8 0f 00 20 20 00 8d 00 00 94 01 88
5a 00 80 00 be 77 20 20 c0 00 00 00 40 00 8d 00
5a 00 80 00 be 77 60 20 d0 00 00 00 40 00 8d 00
5a 00 80 00 be 77 a0 20 e0 00 00 00 40 00 8d 00
5a 00 80 00 be 77 e0 20 f0 00 00 00 40 00 8d 00
32 00 80 05 c8 0f 00 20 20 00 8d 00 00 90 01 90
54 05 60 00 be 77 61 20 64 00 6e 00 24 00 0e 00
01 01 60 00 e6 10 4f 20 00 00 00 00 00 00 00 00
01 01 60 80 be 03 8f 20 84 00 6e 00 00 00 00 00
54 0d 60 00 be 77 62 20 64 00 6e 00 34 00 0e 00
01 01 60 00 be 03 48 20 a0 00 60 00 00 00 00 00
54 0d 60 00 be 77 64 20 64 00 6e 00 44 00 0e 00
54 09 60 00 be 77 68 20 64 00 6e 00 54 00 0e 00
01 03 60 00 22 00 2f 20 04 00 6e 00 00 00 00 00
31 01 60 06 dc 0f 0f 20 24 00 6e 00 00 c4 08 8a
01 02 40 00 be 03 40 20 4c 00 87 00 00 00 00 00
32 00 80 05 c8 0f 00 20 40 00 8d 00 00 91 01 82
01 00 60 00 be 03 20 20 40 00 00 00 00 00 00 00
01 00 60 00 be 03 40 20 44 00 00 00 00 00 00 00
01 00 60 00 be 03 60 20 48 00 00 00 00 00 00 00
01 00 60 00 be 03 80 20 4c 00 00 00 00 00 00 00
32 00 60 05 c8 0f 00 20 20 00 8d 00 00 94 01 88
01 00 80 00 be 03 20 20 40 00 00 00 00 00 00 00
01 00 80 00 be 03 60 20 44 00 00 00 00 00 00 00
01 00 80 00 be 03 a0 20 48 00 00 00 00 00 00 00
01 00 80 00 be 03 e0 20 4c 00 00 00 00 00 00 00
32 00 80 05 c8 0f 00 20 20 00 8d 00 00 90 01 90
54 05 60 00 be 77 61 20 64 00 6e 00 24 00 0e 00
01 01 60 00 e6 10 4f 20 00 00 00 00 00 00 00 00
54 0d 60 00 be 77 62 20 64 00 6e 00 34 00 0e 00
54 0d 60 00 be 77 64 20 64 00 6e 00 44 00 0e 00
54 09 60 00 be 77 68 20 64 00 6e 00 54 00 0e 00
01 03 60 00 22 00 2f 20 04 00 6e 00 00 00 00 00
31 01 60 06 dc 0f 0f 20 24 00 6e 00 00 c4 08 86
01 00 60 00 be 03 20 20 40 00 00 00 00 00 00 00
01 00 60 00 be 03 40 20 44 00 00 00 00 00 00 00
01 00 60 00 be 03 60 20 48 00 00 00 00 00 00 00
01 00 60 00 be 03 80 20 4c 00 00 00 00 00 00 00
32 00 60 05 c8 0f 00 20 20 00 8d 00 00 94 01 88
01 00 80 00 be 03 20 20 40 00 00 00 00 00 00 00
01 00 80 00 be 03 60 20 44 00 00 00 00 00 00 00
01 00 80 00 be 03 a0 20 48 00 00 00 00 00 00 00
01 00 80 00 be 03 e0 20 4c 00 00 00 00 00 00 00
32 00 80 05 c8 0f 00 20 20 00 8d 00 00 90 01 90
40 02 80 00 29 6d 00 21 28 00 28 00 10 10 00 11
01 00 60 00 be 03 80 20 ec 00 00 00 00 00 00 00
01 00 60 00 3d 01 40 20 00 01 89 00 00 00 00 00
01 00 60 00 3d 01 60 20 08 01 89 00 00 00 00 00
01 00 60 00 a5 03 20 21 40 00 8d 00 00 00 00 00
01 00 60 00 a5 03 40 21 60 00 8d 00 00 00 00 00
01 00 60 00 bd 00 60 21 20 01 8d 00 00 00 00 00
01 00 60 00 bd 00 80 21 40 01 8d 00 00 00 00 00
5b 01 60 00 00 00 1e 0d 01 4e 20 c0 08 20 c7 02
5b 01 60 00 00 00 1e 0e 01 5e 20 c0 0a 20 07 03
01 00 60 00 a5 03 e0 21 a0 01 8d 00 00 00 00 00
01 00 60 00 a5 03 00 22 c0 01 8d 00 00 00 00 00
01 00 60 00 bd 00 20 22 e0 01 8d 00 00 00 00 00
01 00 60 00 bd 00 40 22 00 02 8d 00 00 00 00 00
40 00 60 00 bd 7f 60 22 20 02 8d 00 00 00 00 3f
40 00 60 00 bd 7f 80 22 40 02 8d 00 00 00 00 3f
41 00 60 00 be 77 40 20 60 02 8d 00 cc 00 00 00
41 00 60 00 be 77 60 20 80 02 8d 00 dc 00 00 00
31 00 60 02 c9 0f 40 20 40 00 8d 00 01 00 41 06
01 00 60 00 be 03 20 20 40 00 8d 00 00 00 00 00
01 00 60 00 be 03 40 20 60 00 8d 00 00 00 00 00
01 00 60 00 be 03 60 20 80 00 8d 00 00 00 00 00
01 00 60 00 be 03 80 20 a0 00 8d 00 00 00 00 00
32 00 60 05 c8 0f 00 20 20 00 8d 00 00 94 01 88
40 00 80 00 29 6d 80 20 28 00 48 00 10 10 10 10
40 00 80 00 29 6d 40 21 2a 00 48 00 00 11 00 11
01 00 80 00 be 03 c0 20 2c 01 00 00 00 00 00 00
01 00 80 00 3d 01 40 20 80 00 8d 00 00 00 00 00
01 00 80 00 3d 01 80 20 40 01 8d 00 00 00 00 00
01 00 80 00 a5 03 20 21 40 00 8d 00 00 00 00 00
01 00 80 00 a5 03 60 21 80 00 8d 00 00 00 00 00
01 00 80 00 bd 00 a0 21 20 01 8d 00 00 00 00 00
01 00 80 00 bd 00 e0 21 60 01 8d 00 00 00 00 00
5b 01 60 00 00 00 1e 11 01 6e 20 c0 0c 20 47 03
5b 11 60 00 00 00 1e 12 01 6e 20 c0 0c 20 87 03
5b 01 60 00 00 00 1e 13 01 7e 20 c0 0e 20 c7 03
5b 11 60 00 00 00 1e 14 01 7e 20 c0 0e 20 07 04
01 00 80 00 a5 03 a0 22 20 02 8d 00 00 00 00 00
01 00 80 00 a5 03 e0 22 60 02 8d 00 00 00 00 00
01 00 80 00 bd 00 20 23 a0 02 8d 00 00 00 00 00
01 00 80 00 bd 00 60 23 e0 02 8d 00 00 00 00 00
40 00 80 00 bd 7f a0 23 20 03 8d 00 00 00 00 3f
40 00 80 00 bd 7f e0 23 60 03 8d 00 00 00 00 3f
41 00 80 00 be 77 40 20 a0 03 8d 00 0c 01 00 00
41 00 80 00 be 77 80 20 e0 03 8d 00 1c 01 00 00
31 00 80 02 c9 0f 40 20 40 00 8d 00 01 00 82 0c
01 00 80 00 be 03 20 20 40 00 8d 00 00 00 00 00
01 00 80 00 be 03 60 20 80 00 8d 00 00 00 00 00
01 00 80 00 be 03 a0 20 c0 00 8d 00 00 00 00 00
01 00 80 00 be 03 e0 20 00 01 8d 00 00 00 00 00
32 00 80 05 c8 0f 00 20 20 00 8d 00 00 90 01 90
