5a 00 60 00 be 77 20 20 80 00 00 00 40 00 8d 00
5a 00 60 00 be 77 40 20 90 00 00 00 40 00 8d 00
5a 00 60 00 be 77 60 20 a0 00 00 00 40 00 8d 00
5a 00 60 00 be 77 80 20 b0 00 00 00 40 00 8d 00
32 00 60 05 c8 0f 00 20 20 00 8d 00 00 94 01 88
5a 00 80 00 be 77 20 20 c0 00 00 00 40 00 8d 00
5a 00 80 00 be 77 60 20 d0 00 00 00 40 00 8d 00
5a 00 80 00 be 77 a0 20 e0 00 00 00 40 00 8d 00
5a 00 80 00 be 77 e0 20 f0 00 00 00 40 00 8d 00
32 00 80 05 c8 0f 00 20 20 00 8d 00 00 90 01 90
54 05 60 00 be 77 61 20 64 00 6e 00 24 00 0e 00
01 01 60 00 e6 10 4f 20 00 00 00 00 00 00 00 00
01 01 60 80 be 03 8f 20 84 00 6e 00 00 00 00 00
54 0d 60 00 be 77 62 20 64 00 6e 00 34 00 0e 00
01 01 60 00 be 03 48 20 a0 00 60 00 00 00 00 00
54 0d 60 00 be 77 64 20 64 00 6e 00 44 00 0e 00
54 09 60 00 be 77 68 20 64 00 6e 00 54 00 0e 00
01 03 60 00 22 00 2f 20 04 00 6e 00 00 00 00 00
31 01 60 06 dc 0f 0f 20 24 00 6e 00 00 c4 08 8a
01 02 40 00 be 03 40 20 4c 00 87 00 00 00 00 00
32 00 80 05 c8 0f 00 20 40 00 8d 00 00 91 01 82
5a 00 60 00 be 77 20 20 80 00 00 00 40 00 8d 00
5a 00 60 00 bd 77 80 21 90 00 00 00 40 00 8d 00
5a 00 60 00 bd 77 a0 21 a0 00 00 00 40 00 8d 00
5a 00 60 00 bd 77 00 21 c0 00 00 00 40 00 8d 00
5a 00 60 00 bd 77 20 21 d0 00 00 00 40 00 8d 00
5a 00 60 00 bd 77 80 20 f0 00 00 00 40 00 8d 00
38 00 60 01 bd 73 a0 20 80 00 8d 00 00 00 8d 00
41 00 60 00 be 77 40 20 00 01 8d 00 a0 00 8d 00
41 00 60 00 be 77 60 20 20 01 8d 00 a0 00 8d 00
31 00 60 02 c9 0f 40 20 40 00 8d 00 01 00 41 04
01 00 60 00 be 03 60 20 a0 01 8d 00 00 00 00 00
01 00 60 00 be 03 80 20 a0 00 8d 00 00 00 00 00
01 00 60 00 be 03 40 20 80 01 8d 00 00 00 00 00
32 00 60 05 c8 0f 00 20 20 00 8d 00 00 94 01 88
5a 00 80 00 bd 77 c0 21 c0 00 00 00 40 00 8d 00
5a 00 80 00 bd 77 00 22 d0 00 00 00 40 00 8d 00
5a 00 80 00 bd 77 40 22 e0 00 00 00 40 00 8d 00
5a 00 80 00 bd 77 40 21 00 01 00 00 40 00 8d 00
5a 00 80 00 bd 77 80 21 10 01 00 00 40 00 8d 00
5a 00 80 00 bd 77 c0 20 30 01 00 00 40 00 8d 00
38 00 60 01 bd 73 00 21 c0 00 8d 00 00 00 8d 00
38 10 60 01 bd 73 20 21 e0 00 8d 00 00 00 8d 00
41 00 80 00 be 77 40 20 40 01 8d 00 00 01 8d 00
41 00 80 00 be 77 80 20 80 01 8d 00 00 01 8d 00
31 00 80 02 c9 0f 40 20 40 00 8d 00 01 00 82 08
01 00 80 00 be 03 60 20 00 02 8d 00 00 00 00 00
01 00 80 00 be 03 a0 20 40 02 8d 00 00 00 00 00
01 00 80 00 be 03 e0 20 00 01 8d 00 00 00 00 00
01 00 80 00 be 03 20 20 c0 01 8d 00 00 00 00 00
32 00 80 05 c8 0f 00 20 20 00 8d 00 00 90 01 90
54 05 60 00 be 77 61 20 64 00 6e 00 24 00 0e 00
01 01 60 00 e6 10 4f 20 00 00 00 00 00 00 00 00
01 01 60 80 be 03 8f 20 84 00 6e 00 00 00 00 00
01 01 60 00 be 03 af 20 a4 00 6e 00 00 00 00 00
54 0d 60 00 be 77 62 20 64 00 6e 00 34 00 0e 00
01 01 60 00 be 03 48 20 c0 00 60 00 00 00 00 00
54 0d 60 00 be 77 64 20 64 00 6e 00 44 00 0e 00
54 09 60 00 be 77 68 20 64 00 6e 00 54 00 0e 00
01 03 60 00 22 00 2f 20 04 00 6e 00 00 00 00 00
31 01 60 06 dc 0f 0f 20 24 00 6e 00 00 c4 08 8a
54 05 60 00 be 77 61 20 64 00 6e 00 24 00 0e 00
01 01 60 00 e6 10 4f 20 00 00 00 00 00 00 00 00
01 01 60 80 be 03 8f 20 84 00 6e 00 00 00 00 00
01 01 60 00 be 03 af 20 a4 00 6e 00 00 00 00 00
54 0d 60 00 be 77 62 20 64 00 6e 00 34 00 0e 00
54 0d 60 00 be 77 64 20 64 00 6e 00 44 00 0e 00
54 09 60 00 be 77 68 20 64 00 6e 00 54 00 0e 00
01 03 60 00 22 00 2f 20 04 00 6e 00 00 00 00 00
31 01 60 06 dc 0f 0f 20 24 00 6e 00 00 c4 08 8a
5a 00 60 00 bd 77 00 21 c0 00 00 00 40 00 8d 00
01 00 60 00 be 03 20 20 8c 00 00 00 00 00 00 00
5a 00 60 00 bd 77 20 21 d0 00 00 00 40 00 8d 00
5a 00 60 00 bd 77 c0 20 f0 00 00 00 40 00 8d 00
38 00 60 01 bd 73 e0 20 c0 00 8d 00 00 00 8d 00
41 00 60 00 be 77 40 20 00 01 8d 00 e0 00 8d 00
41 00 60 00 be 77 60 20 20 01 8d 00 e0 00 8d 00
31 00 60 02 c9 0f c0 20 40 00 8d 00 01 00 41 04
01 00 60 00 be 03 60 20 ac 00 00 00 00 00 00 00
01 00 60 00 be 03 80 20 20 01 8d 00 00 00 00 00
01 00 60 00 be 03 40 20 9c 00 00 00 00 00 00 00
32 00 60 05 c8 0f 00 20 20 00 8d 00 00 94 01 88
5a 00 80 00 bd 77 c0 21 00 01 00 00 40 00 8d 00
5a 00 80 00 bd 77 00 22 10 01 00 00 40 00 8d 00
5a 00 80 00 bd 77 40 21 30 01 00 00 40 00 8d 00
38 00 60 01 bd 73 80 21 40 01 8d 00 00 00 8d 00
38 10 60 01 bd 73 a0 21 60 01 8d 00 00 00 8d 00
41 00 80 00 be 77 40 20 c0 01 8d 00 80 01 8d 00
41 00 80 00 be 77 80 20 00 02 8d 00 80 01 8d 00
31 00 80 02 c9 0f 00 21 40 00 8d 00 01 00 82 08
01 00 80 00 be 03 60 20 dc 00 00 00 00 00 00 00
01 00 80 00 be 03 a0 20 ec 00 00 00 00 00 00 00
01 00 80 00 be 03 e0 20 c0 01 8d 00 00 00 00 00
01 00 80 00 be 03 20 20 cc 00 00 00 00 00 00 00
32 00 80 05 c8 0f 00 20 20 00 8d 00 00 90 01 90
40 02 80 00 29 6d c0 20 28 00 28 00 10 10 00 11
01 00 60 00 a6 00 80 20 ec 00 00 00 00 00 00 00
01 00 60 00 e2 10 a0 20 00 00 00 00 00 00 00 00
01 00 60 00 3d 01 40 20 c0 00 89 00 00 00 00 00
01 00 60 00 3d 01 60 20 c8 00 89 00 00 00 00 00
01 00 60 00 a5 03 e0 20 40 00 8d 00 00 00 00 00
01 00 60 00 a5 03 00 21 60 00 8d 00 00 00 00 00
01 00 60 00 bd 00 20 21 e0 00 8d 00 00 00 00 00
01 00 60 00 bd 00 40 21 00 01 8d 00 00 00 00 00
5b 01 60 00 00 00 1e 0b 01 4e 20 c0 08 20 47 02
5b 01 60 00 00 00 1e 0c 01 5e 20 c0 0a 20 87 02
01 00 60 00 a6 03 40 20 60 01 8d 00 00 00 00 00
01 00 60 00 a6 03 60 20 80 01 8d 00 00 00 00 00
31 00 60 02 c9 0f 40 20 40 00 8d 00 01 70 41 08
01 00 60 00 be 03 20 20 40 00 8d 00 00 00 00 00
01 00 60 00 be 03 40 20 60 00 8d 00 00 00 00 00
01 00 60 00 be 03 60 20 80 00 8d 00 00 00 00 00
01 00 60 00 be 03 80 20 a0 00 8d 00 00 00 00 00
32 00 60 05 c8 0f 00 20 20 00 8d 00 00 94 01 88
40 00 80 00 29 6d 80 20 28 00 48 00 10 10 10 10
40 00 80 00 29 6d 00 21 2a 00 48 00 00 11 00 11
01 00 80 00 a6 00 c0 20 2c 01 00 00 00 00 00 00
01 00 80 00 e2 10 00 21 00 00 00 00 00 00 00 00
01 00 80 00 3d 01 40 20 80 00 8d 00 00 00 00 00
01 00 80 00 3d 01 80 20 00 01 8d 00 00 00 00 00
01 00 80 00 a5 03 00 21 40 00 8d 00 00 00 00 00
01 00 80 00 a5 03 40 21 80 00 8d 00 00 00 00 00
01 00 80 00 bd 00 80 21 00 01 8d 00 00 00 00 00
01 00 80 00 bd 00 c0 21 40 01 8d 00 00 00 00 00
5b 01 60 00 00 00 1e 10 01 6e 20 c0 0c 20 07 03
5b 11 60 00 00 00 1e 11 01 6e 20 c0 0c 20 47 03
5b 01 60 00 00 00 1e 12 01 7e 20 c0 0e 20 87 03
5b 11 60 00 00 00 1e 13 01 7e 20 c0 0e 20 c7 03
01 00 80 00 a6 03 40 20 00 02 8d 00 00 00 00 00
01 00 80 00 a6 03 80 20 40 02 8d 00 00 00 00 00
31 00 80 02 c9 0f 40 20 40 00 8d 00 01 70 82 10
01 00 80 00 be 03 20 20 40 00 8d 00 00 00 00 00
01 00 80 00 be 03 60 20 80 00 8d 00 00 00 00 00
01 00 80 00 be 03 a0 20 c0 00 8d 00 00 00 00 00
01 00 80 00 be 03 e0 20 00 01 8d 00 00 00 00 00
32 00 80 05 c8 0f 00 20 20 00 8d 00 00 90 01 90
5a 00 60 00 be 77 20 20 80 00 00 00 40 00 8d 00
5a 00 60 00 bd 77 80 21 90 00 00 00 40 00 8d 00
5a 00 60 00 bd 77 a0 21 a0 00 00 00 40 00 8d 00
5a 00 60 00 bd 77 80 20 b0 00 00 00 40 00 8d 00
5a 00 60 00 bd 77 00 21 c0 00 00 00 40 00 8d 00
5a 00 60 00 bd 77 20 21 d0 00 00 00 40 00 8d 00
5a 00 60 00 bd 77 a0 20 f0 00 00 00 40 00 8d 00
38 00 60 01 bd 73 c0 20 a0 00 8d 00 00 00 8d 00
41 00 60 00 be 77 40 20 00 01 8d 00 c0 00 8d 00
41 00 60 00 be 77 60 20 20 01 8d 00 c0 00 8d 00
31 00 60 02 c9 0f a0 20 40 00 8d 00 01 00 41 04
01 00 60 00 be 03 60 20 a0 01 8d 00 00 00 00 00
41 00 60 00 be 77 80 20 00 01 8d 00 80 00 8d 00
01 00 60 00 be 03 40 20 80 01 8d 00 00 00 00 00
32 00 60 05 c8 0f 00 20 20 00 8d 00 00 94 01 88
5a 00 80 00 bd 77 40 22 c0 00 00 00 40 00 8d 00
5a 00 80 00 bd 77 80 22 d0 00 00 00 40 00 8d 00
5a 00 80 00 bd 77 c0 22 e0 00 00 00 40 00 8d 00
5a 00 80 00 bd 77 40 21 f0 00 00 00 40 00 8d 00
5a 00 80 00 bd 77 c0 20 00 01 00 00 40 00 8d 00
5a 00 80 00 bd 77 00 22 10 01 00 00 40 00 8d 00
5a 00 80 00 bd 77 80 21 30 01 00 00 40 00 8d 00
38 00 60 01 bd 73 c0 21 80 01 8d 00 00 00 8d 00
38 10 60 01 bd 73 e0 21 a0 01 8d 00 00 00 8d 00
41 00 80 00 be 77 40 20 c0 00 8d 00 c0 01 8d 00
41 00 80 00 be 77 80 20 00 02 8d 00 c0 01 8d 00
31 00 80 02 c9 0f 40 20 40 00 8d 00 01 00 82 08
01 00 80 00 be 03 60 20 80 02 8d 00 00 00 00 00
01 00 80 00 be 03 a0 20 c0 02 8d 00 00 00 00 00
41 00 80 00 be 77 e0 20 00 01 8d 00 40 01 8d 00
01 00 80 00 be 03 20 20 40 02 8d 00 00 00 00 00
32 00 80 05 c8 0f 00 20 20 00 8d 00 00 90 01 90
5a 00 60 00 bd 77 00 21 c0 00 00 00 40 00 8d 00
01 00 60 00 be 03 20 20 8c 00 00 00 00 00 00 00
5a 00 60 00 bd 77 20 21 d0 00 00 00 40 00 8d 00
5a 00 60 00 bd 77 c0 20 f0 00 00 00 40 00 8d 00
38 00 60 01 bd 73 e0 20 c0 00 8d 00 00 00 8d 00
41 00 60 00 be 77 40 20 00 01 8d 00 e0 00 8d 00
41 00 60 00 be 77 60 20 20 01 8d 00 e0 00 8d 00
31 00 60 02 c9 0f c0 20 40 00 8d 00 01 00 41 04
01 00 60 00 be 03 60 20 ac 00 00 00 00 00 00 00
41 00 60 00 be 77 80 20 20 01 8d 00 bc 00 00 00
01 00 60 00 be 03 40 20 9c 00 00 00 00 00 00 00
32 00 60 05 c8 0f 00 20 20 00 8d 00 00 94 01 88
5a 00 80 00 bd 77 c0 21 00 01 00 00 40 00 8d 00
5a 00 80 00 bd 77 00 22 10 01 00 00 40 00 8d 00
5a 00 80 00 bd 77 40 21 30 01 00 00 40 00 8d 00
38 00 60 01 bd 73 80 21 40 01 8d 00 00 00 8d 00
38 10 60 01 bd 73 a0 21 60 01 8d 00 00 00 8d 00
41 00 80 00 be 77 40 20 c0 01 8d 00 80 01 8d 00
41 00 80 00 be 77 80 20 00 02 8d 00 80 01 8d 00
31 00 80 02 c9 0f 00 21 40 00 8d 00 01 00 82 08
01 00 80 00 be 03 60 20 dc 00 00 00 00 00 00 00
01 00 80 00 be 03 a0 20 ec 00 00 00 00 00 00 00
41 00 80 00 be 77 e0 20 c0 01 8d 00 fc 00 00 00
01 00 80 00 be 03 20 20 cc 00 00 00 00 00 00 00
32 00 80 05 c8 0f 00 20 20 00 8d 00 00 90 01 90
5a 00 60 00 bd 77 00 21 c0 00 00 00 40 00 8d 00
5a 00 60 00 bd 77 20 21 d0 00 00 00 40 00 8d 00
5a 00 60 00 bd 77 80 20 f0 00 00 00 40 00 8d 00
38 00 60 01 bd 73 c0 20 80 00 8d 00 00 00 8d 00
5a 00 60 00 be 77 80 20 b0 00 00 00 40 00 8d 00
41 00 60 00 be 77 40 20 00 01 8d 00 c0 00 8d 00
41 00 60 00 be 77 60 20 20 01 8d 00 c0 00 8d 00
31 00 60 02 c9 0f 40 20 40 00 8d 00 01 00 41 04
01 00 60 00 be 03 20 20 40 00 8d 00 00 00 00 00
01 00 60 00 be 03 40 20 60 00 8d 00 00 00 00 00
01 00 60 00 be 03 60 20 80 00 8d 00 00 00 00 00
32 00 60 05 c8 0f 00 20 20 00 8d 00 00 94 01 88
5a 00 80 00 bd 77 c0 21 00 01 00 00 40 00 8d 00
5a 00 80 00 bd 77 00 22 10 01 00 00 40 00 8d 00
5a 00 80 00 bd 77 40 21 30 01 00 00 40 00 8d 00
38 00 60 01 bd 73 80 21 40 01 8d 00 00 00 8d 00
38 10 60 01 bd 73 a0 21 60 01 8d 00 00 00 8d 00
5a 00 80 00 be 77 e0 20 f0 00 00 00 40 00 8d 00
41 00 80 00 be 77 40 20 c0 01 8d 00 80 01 8d 00
41 00 80 00 be 77 80 20 00 02 8d 00 80 01 8d 00
31 00 80 02 c9 0f 40 20 40 00 8d 00 01 00 82 08
01 00 80 00 be 03 20 20 40 00 8d 00 00 00 00 00
01 00 80 00 be 03 60 20 80 00 8d 00 00 00 00 00
01 00 80 00 be 03 a0 20 c0 00 8d 00 00 00 00 00
32 00 80 05 c8 0f 00 20 20 00 8d 00 00 90 01 90
5a 00 60 00 bd 77 00 21 c0 00 00 00 40 00 8d 00
01 00 60 00 be 03 80 20 bc 00 00 00 00 00 00 00
5a 00 60 00 bd 77 20 21 d0 00 00 00 40 00 8d 00
5a 00 60 00 bd 77 80 20 f0 00 00 00 40 00 8d 00
38 00 60 01 bd 73 a0 20 80 00 8d 00 00 00 8d 00
41 00 60 00 be 77 40 20 00 01 8d 00 a0 00 8d 00
41 00 60 00 be 77 60 20 20 01 8d 00 a0 00 8d 00
31 00 60 02 c9 0f 40 20 40 00 8d 00 01 00 41 04
01 00 60 00 be 03 20 20 40 00 8d 00 00 00 00 00
01 00 60 00 be 03 40 20 60 00 8d 00 00 00 00 00
01 00 60 00 be 03 60 20 80 00 8d 00 00 00 00 00
32 00 60 05 c8 0f 00 20 20 00 8d 00 00 94 01 88
5a 00 80 00 bd 77 40 21 00 01 00 00 40 00 8d 00
01 00 80 00 be 03 e0 20 fc 00 00 00 00 00 00 00
5a 00 80 00 bd 77 80 21 10 01 00 00 40 00 8d 00
5a 00 80 00 bd 77 c0 20 30 01 00 00 40 00 8d 00
38 00 60 01 bd 73 00 21 c0 00 8d 00 00 00 8d 00
38 10 60 01 bd 73 20 21 e0 00 8d 00 00 00 8d 00
41 00 80 00 be 77 40 20 40 01 8d 00 00 01 8d 00
41 00 80 00 be 77 80 20 80 01 8d 00 00 01 8d 00
31 00 80 02 c9 0f 40 20 40 00 8d 00 01 00 82 08
01 00 80 00 be 03 20 20 40 00 8d 00 00 00 00 00
01 00 80 00 be 03 60 20 80 00 8d 00 00 00 00 00
01 00 80 00 be 03 a0 20 c0 00 8d 00 00 00 00 00
32 00 80 05 c8 0f 00 20 20 00 8d 00 00 90 01 90
5a 00 60 00 bd 77 00 21 c0 00 00 00 40 00 8d 00
5a 00 60 00 bd 77 20 21 d0 00 00 00 40 00 8d 00
5a 00 60 00 bd 77 c0 20 f0 00 00 00 40 00 8d 00
38 00 60 01 bd 73 e0 20 c0 00 8d 00 00 00 8d 00
5a 00 60 00 bd 77 40 21 80 00 00 00 40 00 8d 00
5a 00 60 00 bd 77 60 21 90 00 00 00 40 00 8d 00
41 00 60 00 be 77 40 20 00 01 8d 00 e0 00 8d 00
41 00 60 00 be 77 60 20 20 01 8d 00 e0 00 8d 00
5a 00 60 00 bd 77 80 21 a0 00 00 00 40 00 8d 00
31 00 60 02 c9 0f c0 20 40 00 8d 00 01 00 41 04
5a 00 60 00 be 77 80 20 b0 00 00 00 40 00 8d 00
41 00 60 00 be 77 20 20 c0 00 8d 00 40 01 8d 00
41 00 60 00 be 77 40 20 e0 00 8d 00 60 01 8d 00
41 00 60 00 be 77 60 20 00 01 8d 00 80 01 8d 00
32 00 60 05 c8 0f 00 20 20 00 8d 00 00 94 01 88
5a 00 80 00 bd 77 c0 21 00 01 00 00 40 00 8d 00
5a 00 80 00 bd 77 00 22 10 01 00 00 40 00 8d 00
5a 00 80 00 bd 77 40 21 30 01 00 00 40 00 8d 00
38 00 60 01 bd 73 80 21 40 01 8d 00 00 00 8d 00
38 10 60 01 bd 73 a0 21 60 01 8d 00 00 00 8d 00
5a 00 80 00 bd 77 40 22 c0 00 00 00 40 00 8d 00
41 00 80 00 be 77 40 20 c0 01 8d 00 80 01 8d 00
41 00 80 00 be 77 80 20 00 02 8d 00 80 01 8d 00
5a 00 80 00 bd 77 80 22 d0 00 00 00 40 00 8d 00
31 00 80 02 c9 0f 00 21 40 00 8d 00 01 00 82 08
5a 00 80 00 bd 77 c0 22 e0 00 00 00 40 00 8d 00
5a 00 80 00 be 77 e0 20 f0 00 00 00 40 00 8d 00
41 00 80 00 be 77 a0 20 80 01 8d 00 c0 02 8d 00
41 00 80 00 be 77 20 20 00 01 8d 00 40 02 8d 00
41 00 80 00 be 77 60 20 40 01 8d 00 80 02 8d 00
32 00 80 05 c8 0f 00 20 20 00 8d 00 00 90 01 90
5a 00 60 00 bd 77 00 21 c0 00 00 00 40 00 8d 00
01 00 60 00 be 03 80 20 bc 00 00 00 00 00 00 00
5a 00 60 00 bd 77 20 21 d0 00 00 00 40 00 8d 00
5a 00 60 00 bd 77 c0 20 f0 00 00 00 40 00 8d 00
38 00 60 01 bd 73 e0 20 c0 00 8d 00 00 00 8d 00
41 00 60 00 be 77 40 20 00 01 8d 00 e0 00 8d 00
41 00 60 00 be 77 60 20 20 01 8d 00 e0 00 8d 00
31 00 60 02 c9 0f c0 20 40 00 8d 00 01 00 41 04
41 00 60 00 be 77 20 20 c0 00 8d 00 8c 00 00 00
41 00 60 00 be 77 40 20 e0 00 8d 00 9c 00 00 00
41 00 60 00 be 77 60 20 00 01 8d 00 ac 00 00 00
32 00 60 05 c8 0f 00 20 20 00 8d 00 00 94 01 88
5a 00 80 00 bd 77 c0 21 00 01 00 00 40 00 8d 00
01 00 80 00 be 03 e0 20 fc 00 00 00 00 00 00 00
5a 00 80 00 bd 77 00 22 10 01 00 00 40 00 8d 00
5a 00 80 00 bd 77 40 21 30 01 00 00 40 00 8d 00
38 00 60 01 bd 73 80 21 40 01 8d 00 00 00 8d 00
38 10 60 01 bd 73 a0 21 60 01 8d 00 00 00 8d 00
41 00 80 00 be 77 40 20 c0 01 8d 00 80 01 8d 00
41 00 80 00 be 77 80 20 00 02 8d 00 80 01 8d 00
31 00 80 02 c9 0f 00 21 40 00 8d 00 01 00 82 08
41 00 80 00 be 77 20 20 00 01 8d 00 cc 00 00 00
41 00 80 00 be 77 60 20 40 01 8d 00 dc 00 00 00
41 00 80 00 be 77 a0 20 80 01 8d 00 ec 00 00 00
32 00 80 05 c8 0f 00 20 20 00 8d 00 00 90 01 90
5a 00 60 00 bd 77 20 21 e0 00 00 00 40 00 8d 00
5a 00 60 00 bd 77 40 21 f0 00 00 00 40 00 8d 00
5a 00 60 00 bd 77 e0 20 10 01 00 00 40 00 8d 00
38 00 60 01 bd 73 00 21 e0 00 8d 00 00 00 8d 00
5a 00 60 00 bd 77 60 21 a0 00 00 00 40 00 8d 00
5a 00 60 00 bd 77 e0 21 b0 00 00 00 40 00 8d 00
41 00 60 00 be 77 40 20 20 01 8d 00 00 01 8d 00
41 00 60 00 be 77 60 20 40 01 8d 00 00 01 8d 00
5a 00 60 00 bd 77 a0 21 c0 00 00 00 40 00 8d 00
31 00 60 02 c9 0f e0 20 40 00 8d 00 01 00 41 04
5a 00 60 00 be 77 80 20 d0 00 00 00 40 00 8d 00
5c 01 60 00 01 00 1e 01 c8 71 20 00 08 20 c7 02
5c 01 60 00 01 00 1e 02 c8 81 20 40 08 20 c7 03
5c 01 60 00 01 00 1e 03 c8 91 20 80 08 20 47 03
32 00 60 05 c8 0f 00 20 20 00 8d 00 00 94 01 88
5a 00 80 00 bd 77 e0 21 20 01 00 00 40 00 8d 00
5a 00 80 00 bd 77 20 22 30 01 00 00 40 00 8d 00
5a 00 80 00 bd 77 60 21 50 01 00 00 40 00 8d 00
38 00 60 01 bd 73 a0 21 60 01 8d 00 00 00 8d 00
38 10 60 01 bd 73 c0 21 80 01 8d 00 00 00 8d 00
5a 00 80 00 bd 77 60 22 e0 00 00 00 40 00 8d 00
41 00 80 00 be 77 40 20 e0 01 8d 00 a0 01 8d 00
41 00 80 00 be 77 80 20 20 02 8d 00 a0 01 8d 00
5a 00 80 00 bd 77 a0 22 f0 00 00 00 40 00 8d 00
31 00 80 02 c9 0f 20 21 40 00 8d 00 01 00 82 08
5a 00 80 00 bd 77 e0 22 00 01 00 00 40 00 8d 00
5a 00 80 00 be 77 e0 20 10 01 00 00 40 00 8d 00
5c 01 60 00 01 00 1e 05 c8 d1 20 80 0c 20 c7 05
5c 11 60 00 01 00 1e 06 c8 e1 20 80 0c 20 07 06
5c 01 60 00 01 00 1e 01 c8 91 20 00 0c 20 c7 04
5c 11 60 00 01 00 1e 02 c8 a1 20 00 0c 20 07 05
5c 01 60 00 01 00 1e 03 c8 b1 20 40 0c 20 47 05
5c 11 60 00 01 00 1e 04 c8 c1 20 40 0c 20 87 05
32 00 80 05 c8 0f 00 20 20 00 8d 00 00 90 01 90
5a 00 60 00 bd 77 20 21 e0 00 00 00 40 00 8d 00
01 00 60 00 be 03 80 20 dc 00 00 00 00 00 00 00
5a 00 60 00 bd 77 40 21 f0 00 00 00 40 00 8d 00
5a 00 60 00 bd 77 e0 20 10 01 00 00 40 00 8d 00
38 00 60 01 bd 73 00 21 e0 00 8d 00 00 00 8d 00
41 00 60 00 be 77 40 20 20 01 8d 00 00 01 8d 00
41 00 60 00 be 77 60 20 40 01 8d 00 00 01 8d 00
31 00 60 02 c9 0f e0 20 40 00 8d 00 01 00 41 04
5c 01 60 00 01 00 1e 01 c8 71 20 00 08 04 58 01
5c 01 60 00 01 00 1e 02 c8 81 20 40 08 04 78 01
5c 01 60 00 01 00 1e 03 c8 91 20 80 08 04 98 01
32 00 60 05 c8 0f 00 20 20 00 8d 00 00 94 01 88
5a 00 80 00 bd 77 e0 21 20 01 00 00 40 00 8d 00
01 00 80 00 be 03 e0 20 1c 01 00 00 00 00 00 00
5a 00 80 00 bd 77 20 22 30 01 00 00 40 00 8d 00
5a 00 80 00 bd 77 60 21 50 01 00 00 40 00 8d 00
38 00 60 01 bd 73 a0 21 60 01 8d 00 00 00 8d 00
38 10 60 01 bd 73 c0 21 80 01 8d 00 00 00 8d 00
41 00 80 00 be 77 40 20 e0 01 8d 00 a0 01 8d 00
41 00 80 00 be 77 80 20 20 02 8d 00 a0 01 8d 00
31 00 80 02 c9 0f 20 21 40 00 8d 00 01 00 82 08
5c 01 60 00 01 00 1e 01 c8 91 20 00 0c 04 d8 01
5c 11 60 00 01 00 1e 06 c8 e1 20 80 0c 04 18 02
5c 11 60 00 01 00 1e 02 c8 a1 20 00 0c 04 d8 01
5c 01 60 00 01 00 1e 03 c8 b1 20 40 0c 04 f8 01
5c 11 60 00 01 00 1e 04 c8 c1 20 40 0c 04 f8 01
5c 01 60 00 01 00 1e 05 c8 d1 20 80 0c 04 18 02
32 00 80 05 c8 0f 00 20 20 00 8d 00 00 90 01 90
5a 00 60 00 bd 77 00 21 c0 00 00 00 40 00 8d 00
5a 00 60 00 bd 77 20 21 d0 00 00 00 40 00 8d 00
5a 00 60 00 bd 77 c0 20 f0 00 00 00 40 00 8d 00
38 00 60 01 bd 73 e0 20 c0 00 8d 00 00 00 8d 00
5a 00 60 00 bd 77 40 21 80 00 00 00 40 00 8d 00
5a 00 60 00 bd 77 60 21 90 00 00 00 40 00 8d 00
41 00 60 00 be 77 40 20 00 01 8d 00 e0 00 8d 00
41 00 60 00 be 77 60 20 20 01 8d 00 e0 00 8d 00
5a 00 60 00 bd 77 80 21 a0 00 00 00 40 00 8d 00
31 00 60 02 c9 0f c0 20 40 00 8d 00 01 00 41 04
5a 00 60 00 be 77 80 20 b0 00 00 00 40 00 8d 00
40 00 60 80 be 77 20 20 c0 00 8d 00 40 01 8d 00
40 00 60 80 be 77 40 20 e0 00 8d 00 60 01 8d 00
40 00 60 80 be 77 60 20 00 01 8d 00 80 01 8d 00
32 00 60 05 c8 0f 00 20 20 00 8d 00 00 94 01 88
5a 00 80 00 bd 77 c0 21 00 01 00 00 40 00 8d 00
5a 00 80 00 bd 77 00 22 10 01 00 00 40 00 8d 00
5a 00 80 00 bd 77 40 21 30 01 00 00 40 00 8d 00
38 00 60 01 bd 73 80 21 40 01 8d 00 00 00 8d 00
38 10 60 01 bd 73 a0 21 60 01 8d 00 00 00 8d 00
5a 00 80 00 bd 77 40 22 c0 00 00 00 40 00 8d 00
41 00 80 00 be 77 40 20 c0 01 8d 00 80 01 8d 00
41 00 80 00 be 77 80 20 00 02 8d 00 80 01 8d 00
5a 00 80 00 bd 77 80 22 d0 00 00 00 40 00 8d 00
31 00 80 02 c9 0f 00 21 40 00 8d 00 01 00 82 08
5a 00 80 00 bd 77 c0 22 e0 00 00 00 40 00 8d 00
5a 00 80 00 be 77 e0 20 f0 00 00 00 40 00 8d 00
40 00 80 80 be 77 a0 20 80 01 8d 00 c0 02 8d 00
40 00 80 80 be 77 20 20 00 01 8d 00 40 02 8d 00
40 00 80 80 be 77 60 20 40 01 8d 00 80 02 8d 00
32 00 80 05 c8 0f 00 20 20 00 8d 00 00 90 01 90
5a 00 60 00 bd 77 00 21 c0 00 00 00 40 00 8d 00
01 00 60 00 be 03 80 20 bc 00 00 00 00 00 00 00
5a 00 60 00 bd 77 20 21 d0 00 00 00 40 00 8d 00
5a 00 60 00 bd 77 c0 20 f0 00 00 00 40 00 8d 00
38 00 60 01 bd 73 e0 20 c0 00 8d 00 00 00 8d 00
41 00 60 00 be 77 40 20 00 01 8d 00 e0 00 8d 00
41 00 60 00 be 77 60 20 20 01 8d 00 e0 00 8d 00
31 00 60 02 c9 0f c0 20 40 00 8d 00 01 00 41 04
40 00 60 80 be 77 20 20 c0 00 8d 00 8c 00 00 00
40 00 60 80 be 77 40 20 e0 00 8d 00 9c 00 00 00
40 00 60 80 be 77 60 20 00 01 8d 00 ac 00 00 00
32 00 60 05 c8 0f 00 20 20 00 8d 00 00 94 01 88
5a 00 80 00 bd 77 c0 21 00 01 00 00 40 00 8d 00
01 00 80 00 be 03 e0 20 fc 00 00 00 00 00 00 00
5a 00 80 00 bd 77 00 22 10 01 00 00 40 00 8d 00
5a 00 80 00 bd 77 40 21 30 01 00 00 40 00 8d 00
38 00 60 01 bd 73 80 21 40 01 8d 00 00 00 8d 00
38 10 60 01 bd 73 a0 21 60 01 8d 00 00 00 8d 00
41 00 80 00 be 77 40 20 c0 01 8d 00 80 01 8d 00
41 00 80 00 be 77 80 20 00 02 8d 00 80 01 8d 00
31 00 80 02 c9 0f 00 21 40 00 8d 00 01 00 82 08
40 00 80 80 be 77 20 20 00 01 8d 00 cc 00 00 00
40 00 80 80 be 77 60 20 40 01 8d 00 dc 00 00 00
40 00 80 80 be 77 a0 20 80 01 8d 00 ec 00 00 00
32 00 80 05 c8 0f 00 20 20 00 8d 00 00 90 01 90
5a 00 60 00 bd 77 c0 20 80 00 00 00 40 00 8d 00
5a 00 60 00 bd 77 e0 20 90 00 00 00 40 00 8d 00
5a 00 60 00 bd 77 80 20 b0 00 00 00 40 00 8d 00
38 00 60 01 bd 73 a0 20 80 00 8d 00 00 00 8d 00
41 00 60 00 be 77 40 20 c0 00 8d 00 a0 00 8d 00
41 00 60 00 be 77 60 20 e0 00 8d 00 a0 00 8d 00
31 00 60 02 c9 0f 40 20 40 00 8d 00 01 00 41 04
01 00 60 00 be 03 20 20 40 00 8d 00 00 00 00 00
01 00 60 00 be 03 80 20 a0 00 8d 00 00 00 00 00
01 00 60 00 be 03 40 20 60 00 8d 00 00 00 00 00
01 00 60 00 be 03 60 20 80 00 8d 00 00 00 00 00
32 00 60 05 c8 0f 00 20 20 00 8d 00 00 94 01 88
5a 00 80 00 bd 77 80 21 c0 00 00 00 40 00 8d 00
5a 00 80 00 bd 77 c0 21 d0 00 00 00 40 00 8d 00
5a 00 80 00 bd 77 00 21 f0 00 00 00 40 00 8d 00
38 00 60 01 bd 73 40 21 00 01 8d 00 00 00 8d 00
38 10 60 01 bd 73 60 21 20 01 8d 00 00 00 8d 00
41 00 80 00 be 77 40 20 80 01 8d 00 40 01 8d 00
41 00 80 00 be 77 80 20 c0 01 8d 00 40 01 8d 00
31 00 80 02 c9 0f 40 20 40 00 8d 00 01 00 82 08
01 00 80 00 be 03 e0 20 00 01 8d 00 00 00 00 00
01 00 80 00 be 03 20 20 40 00 8d 00 00 00 00 00
01 00 80 00 be 03 60 20 80 00 8d 00 00 00 00 00
01 00 80 00 be 03 a0 20 c0 00 8d 00 00 00 00 00
32 00 80 05 c8 0f 00 20 20 00 8d 00 00 90 01 90
54 05 60 00 be 77 61 20 64 00 6e 00 24 00 0e 00
01 01 60 00 e6 10 4f 20 00 00 00 00 00 00 00 00
01 01 60 00 be 03 8f 20 84 00 6e 00 00 00 00 00
54 0d 60 00 be 77 62 20 64 00 6e 00 34 00 0e 00
54 0d 60 00 be 77 64 20 64 00 6e 00 44 00 0e 00
54 09 60 00 be 77 68 20 64 00 6e 00 54 00 0e 00
01 03 60 00 22 00 2f 20 04 00 6e 00 00 00 00 00
31 01 60 06 dc 0f 0f 20 24 00 6e 00 00 c4 08 8a
5a 00 60 00 bd 77 00 21 c0 00 00 00 40 00 8d 00
5a 00 60 00 bd 77 20 21 d0 00 00 00 40 00 8d 00
5a 00 60 00 bd 77 c0 20 f0 00 00 00 40 00 8d 00
38 00 60 01 bd 73 e0 20 c0 00 8d 00 00 00 8d 00
5a 00 60 00 bd 77 40 21 80 00 00 00 40 00 8d 00
5a 00 60 00 bd 77 60 21 90 00 00 00 40 00 8d 00
41 00 60 00 be 77 40 20 00 01 8d 00 e0 00 8d 00
41 00 60 00 be 77 60 20 20 01 8d 00 e0 00 8d 00
5a 00 60 00 bd 77 80 21 a0 00 00 00 40 00 8d 00
31 00 60 02 c9 0f c0 20 40 00 8d 00 01 00 41 04
5a 00 60 00 bd 77 80 20 b0 00 00 00 40 00 8d 00
41 00 60 00 be 77 80 20 20 01 8d 00 80 00 8d 00
41 00 60 00 be 77 20 20 c0 00 8d 00 40 01 8d 00
41 00 60 00 be 77 40 20 e0 00 8d 00 60 01 8d 00
41 00 60 00 be 77 60 20 00 01 8d 00 80 01 8d 00
32 00 60 05 c8 0f 00 20 20 00 8d 00 00 94 01 88
5a 00 80 00 bd 77 40 22 00 01 00 00 40 00 8d 00
5a 00 80 00 bd 77 80 22 10 01 00 00 40 00 8d 00
5a 00 80 00 bd 77 40 21 30 01 00 00 40 00 8d 00
38 00 60 01 bd 73 80 21 40 01 8d 00 00 00 8d 00
38 10 60 01 bd 73 a0 21 60 01 8d 00 00 00 8d 00
5a 00 80 00 bd 77 c0 22 c0 00 00 00 40 00 8d 00
41 00 80 00 be 77 40 20 40 02 8d 00 80 01 8d 00
41 00 80 00 be 77 80 20 80 02 8d 00 80 01 8d 00
5a 00 80 00 bd 77 00 23 d0 00 00 00 40 00 8d 00
31 00 80 02 c9 0f 00 21 40 00 8d 00 01 00 82 08
5a 00 80 00 bd 77 40 23 e0 00 00 00 40 00 8d 00
5a 00 80 00 bd 77 00 22 f0 00 00 00 40 00 8d 00
41 00 80 00 be 77 e0 20 c0 01 8d 00 00 02 8d 00
41 00 80 00 be 77 a0 20 80 01 8d 00 40 03 8d 00
41 00 80 00 be 77 20 20 00 01 8d 00 c0 02 8d 00
41 00 80 00 be 77 60 20 40 01 8d 00 00 03 8d 00
32 00 80 05 c8 0f 00 20 20 00 8d 00 00 90 01 90
5a 00 60 00 bd 77 00 21 c0 00 00 00 40 00 8d 00
5a 00 60 00 bd 77 20 21 d0 00 00 00 40 00 8d 00
5a 00 60 00 bd 77 c0 20 f0 00 00 00 40 00 8d 00
38 00 60 01 bd 73 e0 20 c0 00 8d 00 00 00 8d 00
41 00 60 00 be 77 40 20 00 01 8d 00 e0 00 8d 00
41 00 60 00 be 77 60 20 20 01 8d 00 e0 00 8d 00
31 00 60 02 c9 0f c0 20 40 00 8d 00 01 00 41 04
41 00 60 00 be 77 20 20 c0 00 8d 00 8c 00 00 00
41 00 60 00 be 77 80 20 20 01 8d 00 bc 00 00 00
41 00 60 00 be 77 40 20 e0 00 8d 00 9c 00 00 00
41 00 60 00 be 77 60 20 00 01 8d 00 ac 00 00 00
32 00 60 05 c8 0f 00 20 20 00 8d 00 00 94 01 88
5a 00 80 00 bd 77 c0 21 00 01 00 00 40 00 8d 00
5a 00 80 00 bd 77 00 22 10 01 00 00 40 00 8d 00
5a 00 80 00 bd 77 40 21 30 01 00 00 40 00 8d 00
38 00 60 01 bd 73 80 21 40 01 8d 00 00 00 8d 00
38 10 60 01 bd 73 a0 21 60 01 8d 00 00 00 8d 00
41 00 80 00 be 77 40 20 c0 01 8d 00 80 01 8d 00
41 00 80 00 be 77 80 20 00 02 8d 00 80 01 8d 00
31 00 80 02 c9 0f 00 21 40 00 8d 00 01 00 82 08
41 00 80 00 be 77 e0 20 c0 01 8d 00 fc 00 00 00
41 00 80 00 be 77 20 20 00 01 8d 00 cc 00 00 00
41 00 80 00 be 77 60 20 40 01 8d 00 dc 00 00 00
41 00 80 00 be 77 a0 20 80 01 8d 00 ec 00 00 00
32 00 80 05 c8 0f 00 20 20 00 8d 00 00 90 01 90
5a 00 60 00 bd 77 20 21 e0 00 00 00 40 00 8d 00
5a 00 60 00 bd 77 40 21 f0 00 00 00 40 00 8d 00
5a 00 60 00 bd 77 e0 20 10 01 00 00 40 00 8d 00
38 00 60 01 bd 73 00 21 e0 00 8d 00 00 00 8d 00
5a 00 60 00 bd 77 60 21 a0 00 00 00 40 00 8d 00
5a 00 60 00 bd 77 e0 21 b0 00 00 00 40 00 8d 00
41 00 60 00 be 77 40 20 20 01 8d 00 00 01 8d 00
41 00 60 00 be 77 60 20 40 01 8d 00 00 01 8d 00
5a 00 60 00 bd 77 a0 21 c0 00 00 00 40 00 8d 00
31 00 60 02 c9 0f e0 20 40 00 8d 00 01 00 41 04
5a 00 60 00 bd 77 a0 20 d0 00 00 00 40 00 8d 00
41 00 60 00 be 77 80 20 40 01 8d 00 a0 00 8d 00
5c 01 60 00 01 00 1e 01 c8 71 20 00 08 20 c7 02
5c 01 60 00 01 00 1e 02 c8 81 20 40 08 20 c7 03
5c 01 60 00 01 00 1e 03 c8 91 20 80 08 20 47 03
32 00 60 05 c8 0f 00 20 20 00 8d 00 00 94 01 88
5a 00 80 00 bd 77 60 22 20 01 00 00 40 00 8d 00
5a 00 80 00 bd 77 a0 22 30 01 00 00 40 00 8d 00
5a 00 80 00 bd 77 60 21 50 01 00 00 40 00 8d 00
38 00 60 01 bd 73 a0 21 60 01 8d 00 00 00 8d 00
38 10 60 01 bd 73 c0 21 80 01 8d 00 00 00 8d 00
5a 00 80 00 bd 77 e0 22 e0 00 00 00 40 00 8d 00
41 00 80 00 be 77 40 20 60 02 8d 00 a0 01 8d 00
41 00 80 00 be 77 80 20 a0 02 8d 00 a0 01 8d 00
5a 00 80 00 bd 77 20 23 f0 00 00 00 40 00 8d 00
31 00 80 02 c9 0f 20 21 40 00 8d 00 01 00 82 08
5a 00 80 00 bd 77 60 23 00 01 00 00 40 00 8d 00
5a 00 80 00 bd 77 20 22 10 01 00 00 40 00 8d 00
41 00 80 00 be 77 e0 20 e0 01 8d 00 20 02 8d 00
5c 01 60 00 01 00 1e 05 c8 d1 20 80 0c 20 c7 06
5c 11 60 00 01 00 1e 06 c8 e1 20 80 0c 20 07 07
5c 01 60 00 01 00 1e 01 c8 91 20 00 0c 20 c7 05
5c 11 60 00 01 00 1e 02 c8 a1 20 00 0c 20 07 06
5c 01 60 00 01 00 1e 03 c8 b1 20 40 0c 20 47 06
5c 11 60 00 01 00 1e 04 c8 c1 20 40 0c 20 87 06
32 00 80 05 c8 0f 00 20 20 00 8d 00 00 90 01 90
5a 00 60 00 bd 77 20 21 e0 00 00 00 40 00 8d 00
5a 00 60 00 bd 77 40 21 f0 00 00 00 40 00 8d 00
5a 00 60 00 bd 77 e0 20 10 01 00 00 40 00 8d 00
38 00 60 01 bd 73 00 21 e0 00 8d 00 00 00 8d 00
41 00 60 00 be 77 40 20 20 01 8d 00 00 01 8d 00
41 00 60 00 be 77 60 20 40 01 8d 00 00 01 8d 00
31 00 60 02 c9 0f e0 20 40 00 8d 00 01 00 41 04
5c 01 60 00 01 00 1e 01 c8 71 20 00 08 04 58 01
41 00 60 00 be 77 80 20 40 01 8d 00 dc 00 00 00
5c 01 60 00 01 00 1e 02 c8 81 20 40 08 04 78 01
5c 01 60 00 01 00 1e 03 c8 91 20 80 08 04 98 01
32 00 60 05 c8 0f 00 20 20 00 8d 00 00 94 01 88
5a 00 80 00 bd 77 e0 21 20 01 00 00 40 00 8d 00
5a 00 80 00 bd 77 20 22 30 01 00 00 40 00 8d 00
5a 00 80 00 bd 77 60 21 50 01 00 00 40 00 8d 00
38 00 60 01 bd 73 a0 21 60 01 8d 00 00 00 8d 00
38 10 60 01 bd 73 c0 21 80 01 8d 00 00 00 8d 00
41 00 80 00 be 77 40 20 e0 01 8d 00 a0 01 8d 00
41 00 80 00 be 77 80 20 20 02 8d 00 a0 01 8d 00
31 00 80 02 c9 0f 20 21 40 00 8d 00 01 00 82 08
5c 01 60 00 01 00 1e 01 c8 91 20 00 0c 04 d8 01
5c 11 60 00 01 00 1e 06 c8 e1 20 80 0c 04 18 02
41 00 80 00 be 77 e0 20 e0 01 8d 00 1c 01 00 00
5c 11 60 00 01 00 1e 02 c8 a1 20 00 0c 04 d8 01
5c 01 60 00 01 00 1e 03 c8 b1 20 40 0c 04 f8 01
5c 11 60 00 01 00 1e 04 c8 c1 20 40 0c 04 f8 01
5c 01 60 00 01 00 1e 05 c8 d1 20 80 0c 04 18 02
32 00 80 05 c8 0f 00 20 20 00 8d 00 00 90 01 90
5a 00 60 00 bd 77 00 21 c0 00 00 00 40 00 8d 00
5a 00 60 00 bd 77 20 21 d0 00 00 00 40 00 8d 00
5a 00 60 00 bd 77 c0 20 f0 00 00 00 40 00 8d 00
38 00 60 01 bd 73 e0 20 c0 00 8d 00 00 00 8d 00
5a 00 60 00 bd 77 40 21 80 00 00 00 40 00 8d 00
5a 00 60 00 bd 77 60 21 90 00 00 00 40 00 8d 00
41 00 60 00 be 77 40 20 00 01 8d 00 e0 00 8d 00
41 00 60 00 be 77 60 20 20 01 8d 00 e0 00 8d 00
5a 00 60 00 bd 77 80 21 a0 00 00 00 40 00 8d 00
31 00 60 02 c9 0f c0 20 40 00 8d 00 01 00 41 04
5a 00 60 00 bd 77 80 20 b0 00 00 00 40 00 8d 00
41 00 60 00 be 77 80 20 20 01 8d 00 80 00 8d 00
40 00 60 80 be 77 20 20 c0 00 8d 00 40 01 8d 00
40 00 60 80 be 77 40 20 e0 00 8d 00 60 01 8d 00
40 00 60 80 be 77 60 20 00 01 8d 00 80 01 8d 00
32 00 60 05 c8 0f 00 20 20 00 8d 00 00 94 01 88
5a 00 80 00 bd 77 40 22 00 01 00 00 40 00 8d 00
5a 00 80 00 bd 77 80 22 10 01 00 00 40 00 8d 00
5a 00 80 00 bd 77 40 21 30 01 00 00 40 00 8d 00
38 00 60 01 bd 73 80 21 40 01 8d 00 00 00 8d 00
38 10 60 01 bd 73 a0 21 60 01 8d 00 00 00 8d 00
5a 00 80 00 bd 77 c0 22 c0 00 00 00 40 00 8d 00
41 00 80 00 be 77 40 20 40 02 8d 00 80 01 8d 00
41 00 80 00 be 77 80 20 80 02 8d 00 80 01 8d 00
5a 00 80 00 bd 77 00 23 d0 00 00 00 40 00 8d 00
31 00 80 02 c9 0f 00 21 40 00 8d 00 01 00 82 08
5a 00 80 00 bd 77 40 23 e0 00 00 00 40 00 8d 00
5a 00 80 00 bd 77 00 22 f0 00 00 00 40 00 8d 00
41 00 80 00 be 77 e0 20 c0 01 8d 00 00 02 8d 00
40 00 80 80 be 77 a0 20 80 01 8d 00 40 03 8d 00
40 00 80 80 be 77 20 20 00 01 8d 00 c0 02 8d 00
40 00 80 80 be 77 60 20 40 01 8d 00 00 03 8d 00
32 00 80 05 c8 0f 00 20 20 00 8d 00 00 90 01 90
5a 00 60 00 bd 77 00 21 c0 00 00 00 40 00 8d 00
5a 00 60 00 bd 77 20 21 d0 00 00 00 40 00 8d 00
5a 00 60 00 bd 77 c0 20 f0 00 00 00 40 00 8d 00
38 00 60 01 bd 73 e0 20 c0 00 8d 00 00 00 8d 00
41 00 60 00 be 77 40 20 00 01 8d 00 e0 00 8d 00
41 00 60 00 be 77 60 20 20 01 8d 00 e0 00 8d 00
31 00 60 02 c9 0f c0 20 40 00 8d 00 01 00 41 04
40 00 60 80 be 77 20 20 c0 00 8d 00 8c 00 00 00
41 00 60 00 be 77 80 20 20 01 8d 00 bc 00 00 00
40 00 60 80 be 77 40 20 e0 00 8d 00 9c 00 00 00
40 00 60 80 be 77 60 20 00 01 8d 00 ac 00 00 00
32 00 60 05 c8 0f 00 20 20 00 8d 00 00 94 01 88
5a 00 80 00 bd 77 c0 21 00 01 00 00 40 00 8d 00
5a 00 80 00 bd 77 00 22 10 01 00 00 40 00 8d 00
5a 00 80 00 bd 77 40 21 30 01 00 00 40 00 8d 00
38 00 60 01 bd 73 80 21 40 01 8d 00 00 00 8d 00
38 10 60 01 bd 73 a0 21 60 01 8d 00 00 00 8d 00
41 00 80 00 be 77 40 20 c0 01 8d 00 80 01 8d 00
41 00 80 00 be 77 80 20 00 02 8d 00 80 01 8d 00
31 00 80 02 c9 0f 00 21 40 00 8d 00 01 00 82 08
41 00 80 00 be 77 e0 20 c0 01 8d 00 fc 00 00 00
40 00 80 80 be 77 20 20 00 01 8d 00 cc 00 00 00
40 00 80 80 be 77 60 20 40 01 8d 00 dc 00 00 00
40 00 80 80 be 77 a0 20 80 01 8d 00 ec 00 00 00
32 00 80 05 c8 0f 00 20 20 00 8d 00 00 90 01 90
5a 00 60 00 bd 77 20 21 e0 00 00 00 40 00 8d 00
5a 00 60 00 bd 77 40 21 f0 00 00 00 40 00 8d 00
5a 00 60 00 bd 77 e0 20 10 01 00 00 40 00 8d 00
38 00 60 01 bd 73 00 21 e0 00 8d 00 00 00 8d 00
5a 00 60 00 bd 77 60 21 a0 00 00 00 40 00 8d 00
5a 00 60 00 bd 77 e0 21 b0 00 00 00 40 00 8d 00
41 00 60 00 be 77 40 20 20 01 8d 00 00 01 8d 00
41 00 60 00 be 77 60 20 40 01 8d 00 00 01 8d 00
5a 00 60 00 bd 77 a0 21 c0 00 00 00 40 00 8d 00
31 00 60 02 c9 0f e0 20 40 00 8d 00 01 00 41 04
5a 00 60 00 bd 77 a0 20 d0 00 00 00 40 00 8d 00
5c 01 60 00 01 00 1e 04 c8 a1 20 c0 08 20 47 01
5c 01 60 00 01 00 1e 01 c8 71 20 00 08 20 c7 02
5c 01 60 00 01 00 1e 02 c8 81 20 40 08 20 c7 03
5c 01 60 00 01 00 1e 03 c8 91 20 80 08 20 47 03
32 00 60 05 c8 0f 00 20 20 00 8d 00 00 94 01 88
5a 00 80 00 bd 77 60 22 20 01 00 00 40 00 8d 00
5a 00 80 00 bd 77 a0 22 30 01 00 00 40 00 8d 00
5a 00 80 00 bd 77 60 21 50 01 00 00 40 00 8d 00
38 00 60 01 bd 73 a0 21 60 01 8d 00 00 00 8d 00
38 10 60 01 bd 73 c0 21 80 01 8d 00 00 00 8d 00
5a 00 80 00 bd 77 e0 22 e0 00 00 00 40 00 8d 00
41 00 80 00 be 77 40 20 60 02 8d 00 a0 01 8d 00
41 00 80 00 be 77 80 20 a0 02 8d 00 a0 01 8d 00
5a 00 80 00 bd 77 20 23 f0 00 00 00 40 00 8d 00
31 00 80 02 c9 0f 20 21 40 00 8d 00 01 00 82 08
5a 00 80 00 bd 77 60 23 00 01 00 00 40 00 8d 00
5a 00 80 00 bd 77 20 22 10 01 00 00 40 00 8d 00
5c 01 60 00 01 00 1e 07 c8 f1 20 c0 0c 20 47 04
5c 11 60 00 01 00 1e 08 c8 01 21 c0 0c 20 87 04
5c 01 60 00 01 00 1e 05 c8 d1 20 80 0c 20 c7 06
5c 11 60 00 01 00 1e 06 c8 e1 20 80 0c 20 07 07
5c 01 60 00 01 00 1e 01 c8 91 20 00 0c 20 c7 05
5c 11 60 00 01 00 1e 02 c8 a1 20 00 0c 20 07 06
5c 01 60 00 01 00 1e 03 c8 b1 20 40 0c 20 47 06
5c 11 60 00 01 00 1e 04 c8 c1 20 40 0c 20 87 06
32 00 80 05 c8 0f 00 20 20 00 8d 00 00 90 01 90
5a 00 60 00 bd 77 20 21 e0 00 00 00 40 00 8d 00
5a 00 60 00 bd 77 40 21 f0 00 00 00 40 00 8d 00
5a 00 60 00 bd 77 e0 20 10 01 00 00 40 00 8d 00
38 00 60 01 bd 73 00 21 e0 00 8d 00 00 00 8d 00
41 00 60 00 be 77 40 20 20 01 8d 00 00 01 8d 00
41 00 60 00 be 77 60 20 40 01 8d 00 00 01 8d 00
31 00 60 02 c9 0f e0 20 40 00 8d 00 01 00 41 04
5c 01 60 00 01 00 1e 01 c8 71 20 00 08 04 58 01
5c 01 60 00 01 00 1e 04 c8 a1 20 c0 08 04 b8 01
5c 01 60 00 01 00 1e 02 c8 81 20 40 08 04 78 01
5c 01 60 00 01 00 1e 03 c8 91 20 80 08 04 98 01
32 00 60 05 c8 0f 00 20 20 00 8d 00 00 94 01 88
5a 00 80 00 bd 77 e0 21 20 01 00 00 40 00 8d 00
5a 00 80 00 bd 77 20 22 30 01 00 00 40 00 8d 00
5a 00 80 00 bd 77 60 21 50 01 00 00 40 00 8d 00
38 00 60 01 bd 73 a0 21 60 01 8d 00 00 00 8d 00
38 10 60 01 bd 73 c0 21 80 01 8d 00 00 00 8d 00
41 00 80 00 be 77 40 20 e0 01 8d 00 a0 01 8d 00
41 00 80 00 be 77 80 20 20 02 8d 00 a0 01 8d 00
31 00 80 02 c9 0f 20 21 40 00 8d 00 01 00 82 08
5c 01 60 00 01 00 1e 01 c8 91 20 00 0c 04 d8 01
5c 11 60 00 01 00 1e 06 c8 e1 20 80 0c 04 18 02
5c 01 60 00 01 00 1e 07 c8 f1 20 c0 0c 04 38 02
5c 11 60 00 01 00 1e 08 c8 01 21 c0 0c 04 38 02
5c 11 60 00 01 00 1e 02 c8 a1 20 00 0c 04 d8 01
5c 01 60 00 01 00 1e 03 c8 b1 20 40 0c 04 f8 01
5c 11 60 00 01 00 1e 04 c8 c1 20 40 0c 04 f8 01
5c 01 60 00 01 00 1e 05 c8 d1 20 80 0c 04 18 02
32 00 80 05 c8 0f 00 20 20 00 8d 00 00 90 01 90
5a 00 60 00 bd 77 00 21 c0 00 00 00 40 00 8d 00
5a 00 60 00 bd 77 20 21 d0 00 00 00 40 00 8d 00
5a 00 60 00 bd 77 c0 20 f0 00 00 00 40 00 8d 00
38 00 60 01 bd 73 e0 20 c0 00 8d 00 00 00 8d 00
5a 00 60 00 bd 77 40 21 80 00 00 00 40 00 8d 00
5a 00 60 00 bd 77 60 21 90 00 00 00 40 00 8d 00
41 00 60 00 be 77 40 20 00 01 8d 00 e0 00 8d 00
41 00 60 00 be 77 60 20 20 01 8d 00 e0 00 8d 00
5a 00 60 00 bd 77 80 21 a0 00 00 00 40 00 8d 00
31 00 60 02 c9 0f c0 20 40 00 8d 00 01 00 41 04
5a 00 60 00 bd 77 80 20 b0 00 00 00 40 00 8d 00
40 00 60 80 be 77 80 20 20 01 8d 00 80 00 8d 00
40 00 60 80 be 77 20 20 c0 00 8d 00 40 01 8d 00
40 00 60 80 be 77 40 20 e0 00 8d 00 60 01 8d 00
40 00 60 80 be 77 60 20 00 01 8d 00 80 01 8d 00
32 00 60 05 c8 0f 00 20 20 00 8d 00 00 94 01 88
5a 00 80 00 bd 77 40 22 00 01 00 00 40 00 8d 00
5a 00 80 00 bd 77 80 22 10 01 00 00 40 00 8d 00
5a 00 80 00 bd 77 40 21 30 01 00 00 40 00 8d 00
38 00 60 01 bd 73 80 21 40 01 8d 00 00 00 8d 00
38 10 60 01 bd 73 a0 21 60 01 8d 00 00 00 8d 00
5a 00 80 00 bd 77 c0 22 c0 00 00 00 40 00 8d 00
41 00 80 00 be 77 40 20 40 02 8d 00 80 01 8d 00
41 00 80 00 be 77 80 20 80 02 8d 00 80 01 8d 00
5a 00 80 00 bd 77 00 23 d0 00 00 00 40 00 8d 00
31 00 80 02 c9 0f 00 21 40 00 8d 00 01 00 82 08
5a 00 80 00 bd 77 40 23 e0 00 00 00 40 00 8d 00
5a 00 80 00 bd 77 00 22 f0 00 00 00 40 00 8d 00
40 00 80 80 be 77 e0 20 c0 01 8d 00 00 02 8d 00
40 00 80 80 be 77 a0 20 80 01 8d 00 40 03 8d 00
40 00 80 80 be 77 20 20 00 01 8d 00 c0 02 8d 00
40 00 80 80 be 77 60 20 40 01 8d 00 00 03 8d 00
32 00 80 05 c8 0f 00 20 20 00 8d 00 00 90 01 90
5a 00 60 00 bd 77 00 21 c0 00 00 00 40 00 8d 00
5a 00 60 00 bd 77 20 21 d0 00 00 00 40 00 8d 00
5a 00 60 00 bd 77 c0 20 f0 00 00 00 40 00 8d 00
38 00 60 01 bd 73 e0 20 c0 00 8d 00 00 00 8d 00
41 00 60 00 be 77 40 20 00 01 8d 00 e0 00 8d 00
41 00 60 00 be 77 60 20 20 01 8d 00 e0 00 8d 00
31 00 60 02 c9 0f c0 20 40 00 8d 00 01 00 41 04
40 00 60 80 be 77 20 20 c0 00 8d 00 8c 00 00 00
40 00 60 80 be 77 80 20 20 01 8d 00 bc 00 00 00
40 00 60 80 be 77 40 20 e0 00 8d 00 9c 00 00 00
40 00 60 80 be 77 60 20 00 01 8d 00 ac 00 00 00
32 00 60 05 c8 0f 00 20 20 00 8d 00 00 94 01 88
5a 00 80 00 bd 77 c0 21 00 01 00 00 40 00 8d 00
5a 00 80 00 bd 77 00 22 10 01 00 00 40 00 8d 00
5a 00 80 00 bd 77 40 21 30 01 00 00 40 00 8d 00
38 00 60 01 bd 73 80 21 40 01 8d 00 00 00 8d 00
38 10 60 01 bd 73 a0 21 60 01 8d 00 00 00 8d 00
41 00 80 00 be 77 40 20 c0 01 8d 00 80 01 8d 00
41 00 80 00 be 77 80 20 00 02 8d 00 80 01 8d 00
31 00 80 02 c9 0f 00 21 40 00 8d 00 01 00 82 08
40 00 80 80 be 77 e0 20 c0 01 8d 00 fc 00 00 00
40 00 80 80 be 77 20 20 00 01 8d 00 cc 00 00 00
40 00 80 80 be 77 60 20 40 01 8d 00 dc 00 00 00
40 00 80 80 be 77 a0 20 80 01 8d 00 ec 00 00 00
32 00 80 05 c8 0f 00 20 20 00 8d 00 00 90 01 90
5a 00 60 00 bd 77 00 21 c0 00 00 00 40 00 8d 00
5a 00 60 00 bd 77 20 21 d0 00 00 00 40 00 8d 00
5a 00 60 00 bd 77 c0 20 f0 00 00 00 40 00 8d 00
38 00 60 01 bd 73 e0 20 c0 00 8d 00 00 00 8d 00
5a 00 60 00 bd 77 60 21 80 00 00 00 40 00 8d 00
5a 00 60 00 bd 77 40 21 90 00 00 00 40 00 8d 00
41 00 60 00 be 77 40 20 00 01 8d 00 e0 00 8d 00
41 00 60 00 be 77 60 20 20 01 8d 00 e0 00 8d 00
5a 00 60 00 bd 77 a0 21 a0 00 00 00 40 00 8d 00
31 00 60 02 c9 0f c0 20 40 00 8d 00 01 00 41 04
5a 00 60 00 be 77 80 20 b0 00 00 00 40 00 8d 00
5c 01 60 00 01 00 1e 01 c8 91 00 39 0c 20 c7 02
5c 01 60 00 01 00 1e 02 c8 91 00 39 0e 20 87 02
5c 01 60 00 01 00 1e 03 c8 91 00 39 10 20 47 03
32 00 60 05 c8 0f 00 20 20 00 8d 00 00 94 01 88
5a 00 80 00 bd 77 c0 21 00 01 00 00 40 00 8d 00
5a 00 80 00 bd 77 00 22 10 01 00 00 40 00 8d 00
5a 00 80 00 bd 77 40 21 30 01 00 00 40 00 8d 00
38 00 60 01 bd 73 80 21 40 01 8d 00 00 00 8d 00
38 10 60 01 bd 73 a0 21 60 01 8d 00 00 00 8d 00
5a 00 80 00 bd 77 40 22 c0 00 00 00 40 00 8d 00
41 00 80 00 be 77 40 20 c0 01 8d 00 80 01 8d 00
41 00 80 00 be 77 80 20 00 02 8d 00 80 01 8d 00
5a 00 80 00 bd 77 80 22 d0 00 00 00 40 00 8d 00
31 00 80 02 c9 0f 00 21 40 00 8d 00 01 00 82 08
5a 00 80 00 bd 77 c0 22 e0 00 00 00 40 00 8d 00
5a 00 80 00 be 77 e0 20 f0 00 00 00 40 00 8d 00
5c 01 60 00 01 00 1e 05 c8 e1 00 39 18 20 87 05
5c 11 60 00 01 00 1e 06 c8 f1 00 39 1a 20 c7 05
5c 01 60 00 01 00 1e 01 c8 e1 00 39 10 20 87 04
5c 11 60 00 01 00 1e 02 c8 f1 00 39 12 20 c7 04
5c 01 60 00 01 00 1e 03 c8 e1 00 39 14 20 07 05
5c 11 60 00 01 00 1e 04 c8 f1 00 39 16 20 47 05
32 00 80 05 c8 0f 00 20 20 00 8d 00 00 90 01 90
5a 00 60 00 bd 77 00 21 c0 00 00 00 40 00 8d 00
01 00 60 00 be 03 80 20 bc 00 00 00 00 00 00 00
5a 00 60 00 bd 77 20 21 d0 00 00 00 40 00 8d 00
5a 00 60 00 bd 77 c0 20 f0 00 00 00 40 00 8d 00
38 00 60 01 bd 73 e0 20 c0 00 8d 00 00 00 8d 00
41 00 60 00 be 77 40 20 00 01 8d 00 e0 00 8d 00
41 00 60 00 be 77 60 20 20 01 8d 00 e0 00 8d 00
31 00 60 02 c9 0f c0 20 40 00 8d 00 01 00 41 04
5c 01 60 00 01 00 1e 01 c8 91 00 39 0c 04 18 01
5c 01 60 00 01 00 1e 02 c8 91 00 39 0e 04 38 01
5c 01 60 00 01 00 1e 03 c8 91 00 39 10 04 58 01
32 00 60 05 c8 0f 00 20 20 00 8d 00 00 94 01 88
5a 00 80 00 bd 77 c0 21 00 01 00 00 40 00 8d 00
01 00 80 00 be 03 e0 20 fc 00 00 00 00 00 00 00
5a 00 80 00 bd 77 00 22 10 01 00 00 40 00 8d 00
5a 00 80 00 bd 77 40 21 30 01 00 00 40 00 8d 00
38 00 60 01 bd 73 80 21 40 01 8d 00 00 00 8d 00
38 10 60 01 bd 73 a0 21 60 01 8d 00 00 00 8d 00
41 00 80 00 be 77 40 20 c0 01 8d 00 80 01 8d 00
41 00 80 00 be 77 80 20 00 02 8d 00 80 01 8d 00
31 00 80 02 c9 0f 00 21 40 00 8d 00 01 00 82 08
5c 01 60 00 01 00 1e 01 c8 e1 00 39 10 04 98 01
5c 11 60 00 01 00 1e 06 c8 f1 00 39 1a 04 d8 01
5c 11 60 00 01 00 1e 02 c8 f1 00 39 12 04 98 01
5c 01 60 00 01 00 1e 03 c8 e1 00 39 14 04 b8 01
5c 11 60 00 01 00 1e 04 c8 f1 00 39 16 04 b8 01
5c 01 60 00 01 00 1e 05 c8 e1 00 39 18 04 d8 01
32 00 80 05 c8 0f 00 20 20 00 8d 00 00 90 01 90
