01 02 40 00 be 03 40 20 4c 00 87 00 00 00 00 00
32 00 80 05 c8 0f 00 20 40 00 8d 00 00 91 01 82
54 05 60 00 be 77 61 20 84 00 6e 00 24 00 0e 00
01 01 60 00 e6 10 4f 20 00 00 00 00 00 00 00 00
01 01 60 80 be 03 8f 20 a4 00 6e 00 00 00 00 00
01 01 60 00 be 03 af 20 64 00 0e 00 00 00 00 00
54 0d 60 00 be 77 62 20 84 00 6e 00 34 00 0e 00
54 0d 60 00 be 77 64 20 84 00 6e 00 44 00 0e 00
54 09 60 00 be 77 68 20 84 00 6e 00 54 00 0e 00
01 03 60 00 22 00 2f 20 04 00 6e 00 00 00 00 00
31 01 60 06 dc 0f 0f 20 24 00 6e 00 00 c4 08 8a
5a 00 60 00 bd 77 20 21 a0 00 00 00 40 00 8d 00
5a 00 60 00 bd 77 a0 21 b0 00 00 00 40 00 8d 00
5a 00 60 00 bd 77 60 21 c0 00 00 00 40 00 8d 00
5a 00 60 00 bd 77 a0 20 d0 00 00 00 40 00 8d 00
5a 00 60 00 bd 77 80 21 e0 00 00 00 40 00 8d 00
5a 00 60 00 bd 77 40 21 f0 00 00 00 40 00 8d 00
5b 01 60 00 01 00 1e 01 c8 c1 20 00 08 20 47 02
5a 00 60 00 bd 77 c0 21 00 01 00 00 40 00 8d 00
5b 01 60 00 01 00 1e 02 c8 a1 20 40 08 20 47 03
5a 00 60 00 bd 77 c0 20 10 01 00 00 40 00 8d 00
5b 01 60 00 01 00 1e 03 c8 e1 20 80 08 20 c7 02
5b 01 60 00 01 00 1e 04 c8 61 20 c0 08 20 47 01
32 00 60 05 c8 0f 00 20 20 00 8d 00 00 94 01 88
5a 00 80 00 bd 77 e0 21 e0 00 00 00 40 00 8d 00
5a 00 80 00 bd 77 20 22 f0 00 00 00 40 00 8d 00
5a 00 80 00 bd 77 60 22 00 01 00 00 40 00 8d 00
5a 00 80 00 bd 77 60 21 10 01 00 00 40 00 8d 00
5a 00 80 00 bd 77 a0 22 20 01 00 00 40 00 8d 00
5a 00 80 00 bd 77 e0 22 30 01 00 00 40 00 8d 00
5b 01 60 00 01 00 1e 01 c8 51 21 00 0c 20 c7 03
5b 11 60 00 01 00 1e 02 c8 61 21 00 0c 20 07 04
5a 00 80 00 bd 77 20 23 40 01 00 00 40 00 8d 00
5b 01 60 00 01 00 1e 03 c8 71 21 40 0c 20 47 04
5b 11 60 00 01 00 1e 04 c8 81 21 40 0c 20 87 04
5a 00 80 00 bd 77 a0 21 50 01 00 00 40 00 8d 00
5b 01 60 00 01 00 1e 05 c8 91 21 80 0c 20 c7 04
5b 11 60 00 01 00 1e 06 c8 a1 21 80 0c 20 07 05
5b 01 60 00 01 00 1e 07 c8 d1 20 c0 0c 20 c7 02
5b 11 60 00 01 00 1e 08 c8 e1 20 c0 0c 20 07 03
32 00 80 05 c8 0f 00 20 20 00 8d 00 00 90 01 90
