01 01 60 00 e6 10 4f 20 00 00 00 00 00 00 00 00
01 01 60 00 be 03 6f 20 24 00 6e 00 00 00 00 00
01 03 60 00 22 00 2f 20 04 00 6e 00 00 00 00 00
31 01 60 06 dc 0f 0f 20 24 00 6e 00 00 c4 08 86
01 00 60 00 fe 73 20 20 00 00 00 00 00 00 00 00
01 00 60 00 fe 73 40 20 00 00 00 00 00 00 00 00
01 00 60 00 fe 73 60 20 00 00 00 00 00 00 00 00
01 00 60 00 fe 73 80 20 00 00 00 00 00 00 00 00
32 00 60 05 c8 0f 00 20 20 00 8d 00 00 94 01 88
01 00 80 00 fe 73 20 20 00 00 00 00 00 00 00 00
01 00 80 00 fe 73 60 20 00 00 00 00 00 00 00 00
01 00 80 00 fe 73 a0 20 00 00 00 00 00 00 00 00
01 00 80 00 fe 73 e0 20 00 00 00 00 00 00 00 00
32 00 80 05 c8 0f 00 20 20 00 8d 00 00 90 01 90
