01 01 60 00 e6 10 4f 20 00 00 00 00 00 00 00 00
01 01 60 00 be 03 6f 20 24 00 6e 00 00 00 00 00
01 03 60 00 22 00 2f 20 04 00 6e 00 00 00 00 00
31 01 60 06 dc 0f 0f 20 24 00 6e 00 00 c4 08 86
01 01 60 00 e6 10 4f 20 00 00 00 00 00 00 00 00
01 01 60 00 be 03 6f 20 24 00 6e 00 00 00 00 00
01 03 60 00 22 00 2f 20 04 00 6e 00 00 00 00 00
31 01 60 06 dc 0f 0f 20 24 00 6e 00 00 c4 08 86
01 01 60 00 e6 10 4f 20 00 00 00 00 00 00 00 00
01 01 60 00 be 03 6f 20 24 00 6e 00 00 00 00 00
01 03 60 00 22 00 2f 20 04 00 6e 00 00 00 00 00
31 01 60 06 dc 0f 0f 20 24 00 6e 00 00 c4 08 86
01 01 60 00 e6 10 4f 20 00 00 00 00 00 00 00 00
01 01 60 00 be 03 6f 20 24 00 6e 00 00 00 00 00
01 03 60 00 22 00 2f 20 04 00 6e 00 00 00 00 00
31 01 60 06 dc 0f 0f 20 24 00 6e 00 00 c4 08 86
