01 02 40 00 be 03 40 20 4c 00 87 00 00 00 00 00
32 00 80 05 c8 0f 00 20 40 00 8d 00 00 91 01 82
01 01 60 00 21 00 07 22 94 00 0a 00 00 00 00 00
41 01 60 00 bd 77 87 22 a4 00 0a 00 e5 00 65 00
01 01 60 00 21 00 e7 22 b4 00 0a 00 00 00 00 00
01 01 60 00 21 00 47 23 c4 00 0a 00 00 00 00 00
54 05 60 00 be 77 61 20 e4 00 6e 00 24 00 0e 00
01 01 60 00 21 00 27 24 64 00 0a 00 00 00 00 00
41 01 60 00 bd 77 87 24 74 00 0a 00 05 01 65 00
01 01 60 00 21 00 c7 24 84 00 0a 00 00 00 00 00
41 01 60 00 bd 77 c7 25 74 00 0a 00 45 01 65 00
01 01 60 00 e6 10 4f 20 00 00 00 00 00 00 00 00
01 01 60 00 be 03 8f 20 24 01 6e 00 00 00 00 00
5b 01 60 00 00 00 0e 15 48 41 01 00 0e 20 05 04
54 0d 60 00 be 77 62 20 e4 00 6e 00 34 00 0e 00
5b 01 60 00 00 00 0e 25 48 41 02 00 10 20 45 08
5b 01 60 00 00 00 0e 2f 48 e1 02 00 14 20 45 08
54 0d 60 00 be 77 64 20 e4 00 6e 00 44 00 0e 00
5b 01 60 00 00 00 0e 18 48 51 81 2a 0e 20 c5 05
5b 01 60 00 00 00 0e 27 48 51 82 2a 10 20 85 09
5b 01 60 00 00 00 0e 30 48 f1 82 2a 14 20 85 09
54 09 60 00 be 77 68 20 e4 00 6e 00 54 00 0e 00
5b 01 60 00 00 00 0e 1b 48 81 c1 3f 0e 20 85 06
56 01 60 00 bd 77 4f 25 e4 04 6a 00 e4 04 6a 00
56 01 60 00 bd 77 6f 26 04 06 6a 00 04 06 6a 00
38 00 60 05 bd 73 60 25 40 05 69 00 00 00 8d 00
38 00 60 05 bd 73 80 26 60 06 69 00 00 00 8d 00
41 01 60 00 bd 77 87 25 e4 04 6a 00 60 05 60 00
41 01 60 00 bd 77 a7 26 04 06 6a 00 80 06 60 00
41 01 60 00 bd 77 c7 26 82 05 65 00 a9 06 60 00
56 05 60 00 bd 77 81 21 d4 00 0a 00 a4 06 6a 00
56 05 60 00 bd 77 a1 21 64 03 6a 00 a4 06 6a 00
5b 01 60 00 20 00 0e 37 48 61 83 14 6a 48 00 0b
56 0d 60 00 bd 77 82 21 d4 00 0a 00 e4 06 6a 00
56 0d 60 00 bd 77 a2 21 64 03 6a 00 e4 06 6a 00
56 09 60 00 bd 77 84 21 d4 00 0a 00 84 05 6a 00
56 09 60 00 bd 77 a4 21 64 03 6a 00 84 05 6a 00
56 01 60 00 bd 77 6f 27 84 01 6a 00 84 01 6a 00
56 01 60 00 bd 77 0f 28 a4 01 6a 00 a4 01 6a 00
38 00 60 05 bd 73 80 27 60 07 69 00 00 00 8d 00
38 00 60 05 bd 73 20 28 00 08 69 00 00 00 8d 00
41 01 60 00 bd 77 a7 27 84 01 6a 00 80 07 60 00
41 05 60 00 be 77 a7 20 a4 01 6a 00 20 08 60 00
01 01 60 00 be 03 c3 20 a9 07 6a 00 00 00 00 00
01 09 60 00 a6 00 a8 20 a0 07 60 00 00 00 00 00
01 03 60 00 22 00 2f 20 04 00 6e 00 00 00 00 00
31 01 60 06 dc 0f 0f 20 24 00 6e 00 00 c4 08 8e
5a 00 60 00 bd 77 00 25 e0 00 00 00 40 00 8d 00
01 00 60 00 fe 73 80 20 00 00 00 00 00 00 80 3f
5a 00 60 00 bd 77 20 25 f0 00 00 00 40 00 8d 00
5a 00 60 00 bd 77 40 25 00 01 00 00 40 00 8d 00
5a 00 60 00 bd 77 c0 20 10 01 00 00 40 00 8d 00
5a 00 60 00 bd 77 60 25 20 01 00 00 40 00 8d 00
5a 00 60 00 bd 77 e0 20 30 01 00 00 40 00 8d 00
5a 00 60 00 bd 77 80 25 a0 00 00 00 40 00 8d 00
5a 00 60 00 bd 77 a0 25 b0 00 00 00 40 00 8d 00
41 00 60 00 bd 77 00 21 8c 00 00 00 80 05 8d 00
41 00 60 00 bd 77 20 21 8c 00 00 00 a0 05 8d 00
43 00 60 00 bd 03 40 21 00 01 8d 00 00 00 00 00
43 00 60 00 bd 03 40 23 20 01 8d 00 00 00 00 00
40 00 60 00 bd 7f 80 21 40 01 8d 00 00 00 00 bf
40 00 60 00 bd 7f 80 23 40 03 8d 00 00 00 00 bf
41 00 60 00 bd 77 c0 21 80 03 8d 00 80 03 8d 00
5b 01 60 00 00 00 1e 1e c8 e1 00 39 18 20 07 03
40 00 60 00 bd 7f 00 22 c0 03 8d 00 00 00 80 3f
10 00 60 04 bc 77 00 20 c0 03 8d 00 90 00 00 00
38 00 60 05 bd 73 20 22 00 02 8d 00 00 00 8d 00
02 00 71 00 21 0c 60 22 80 01 8d 00 00 00 00 00
02 00 71 00 21 0c 80 22 80 03 8d 00 00 00 00 00
02 00 71 00 21 0c 40 22 20 02 8d 00 00 00 80 3f
41 00 60 00 bd 77 00 28 60 02 8d 00 40 02 8d 00
41 00 60 00 bd 77 c0 22 80 02 8d 00 40 02 8d 00
41 00 60 00 bd 77 e0 22 c0 02 8d 00 60 05 8d 00
5b 01 60 00 00 00 1e 18 c8 71 01 39 0c 20 07 10
5b 01 60 00 00 00 1e 19 c8 81 01 39 0e 20 87 04
02 00 60 04 bd 7f 60 21 20 03 8d 00 00 00 00 00
41 00 60 00 bd 7f 60 23 20 03 8d 00 00 00 00 40
5b 01 60 00 00 02 1e 0d c8 61 00 39 80 20 c7 06
5b 01 60 00 00 02 1e 1d c8 b1 02 39 2c 20 c7 06
5b 01 60 00 00 02 1e 0f c8 71 00 39 24 20 c7 06
41 00 60 00 bd 77 e0 23 20 05 8d 00 a0 03 8d 00
5b 01 60 00 00 00 1e 20 c8 f1 01 39 1a 20 07 0a
5b 01 60 00 00 00 1e 21 c8 01 02 39 1e 20 87 0a
02 00 60 04 bd 7f 40 24 20 04 8d 00 00 00 00 00
41 00 60 00 bd 77 60 24 40 04 8d 00 94 00 00 00
5b 01 60 00 00 00 1e 24 c8 31 02 39 16 04 00 01
5b 01 60 00 00 00 1e 25 c8 31 02 39 16 04 08 01
5b 01 60 00 00 00 1e 26 c8 31 02 39 16 04 10 01
02 00 60 05 be 7f 20 20 80 04 8d 00 00 00 80 3f
02 00 60 05 be 7f 40 20 a0 04 8d 00 00 00 80 3f
02 00 60 05 be 7f 60 20 c0 04 8d 00 00 00 80 3f
32 00 60 05 c8 0f 00 20 20 00 8d 00 00 94 01 88
7e 00 00 00 00 00 00 00 00 00 00 00 00 00 00 00
7e 00 00 00 00 00 00 00 00 00 00 00 00 00 00 00
7e 00 00 00 00 00 00 00 00 00 00 00 00 00 00 00
5a 00 80 00 bd 77 c0 25 20 01 00 00 40 00 8d 00
01 00 80 00 fe 73 e0 20 00 00 00 00 00 00 80 3f
5a 00 80 00 bd 77 00 26 30 01 00 00 40 00 8d 00
5a 00 80 00 bd 77 40 26 40 01 00 00 40 00 8d 00
5a 00 80 00 bd 77 00 21 50 01 00 00 40 00 8d 00
5a 00 80 00 bd 77 80 26 60 01 00 00 40 00 8d 00
5a 00 80 00 bd 77 80 21 70 01 00 00 40 00 8d 00
5a 00 80 00 bd 77 c0 26 e0 00 00 00 40 00 8d 00
5a 00 80 00 bd 77 00 27 f0 00 00 00 40 00 8d 00
41 00 80 00 bd 77 c0 21 cc 00 00 00 c0 06 8d 00
41 00 80 00 bd 77 00 22 cc 00 00 00 00 07 8d 00
43 00 80 00 bd 03 40 22 c0 01 8d 00 00 00 00 00
43 00 80 00 bd 03 80 22 00 02 8d 00 00 00 00 00
40 00 80 00 bd 7f c0 22 40 02 8d 00 00 00 00 bf
40 00 80 00 bd 7f 00 23 80 02 8d 00 00 00 00 bf
41 00 80 00 bd 77 40 23 00 03 8d 00 00 03 8d 00
5b 01 60 00 00 00 1e 1c c8 a1 01 39 2c 20 87 05
5b 11 60 00 00 00 1e 1d c8 b1 01 39 2e 20 c7 05
40 00 80 00 bd 7f c0 23 80 03 8d 00 00 00 80 3f
10 00 80 04 bc 77 00 20 80 03 8d 00 d0 00 00 00
38 00 60 05 bd 73 00 24 c0 03 8d 00 00 00 8d 00
38 10 60 05 bd 73 20 24 e0 03 8d 00 00 00 8d 00
02 00 91 00 21 0c 80 24 c0 02 8d 00 00 00 00 00
02 00 91 00 21 0c c0 24 00 03 8d 00 00 00 00 00
02 00 91 00 21 0c 40 24 00 04 8d 00 00 00 80 3f
41 00 80 00 bd 77 00 25 80 04 8d 00 40 04 8d 00
41 00 80 00 bd 77 40 25 c0 04 8d 00 40 04 8d 00
41 00 80 00 bd 77 80 25 40 05 8d 00 80 06 8d 00
5b 01 60 00 00 00 1e 03 c8 c1 02 39 10 20 07 0a
5b 11 60 00 00 00 1e 02 c8 d1 02 39 12 20 47 0a
5b 01 60 00 00 00 1e 03 c8 31 00 39 18 20 87 08
5b 11 60 00 00 00 1e 04 c8 21 00 39 1a 20 c7 08
02 00 80 04 bd 7f 40 21 60 00 8d 00 00 00 00 00
41 00 80 00 bd 7f c0 21 60 00 8d 00 00 00 00 40
5b 01 60 00 00 02 1e 10 c8 81 00 39 50 20 87 03
5b 11 60 00 00 02 1e 02 c8 91 00 39 52 20 c7 03
5b 01 60 00 00 02 1e 03 c8 41 03 39 54 20 87 03
5b 11 60 00 00 02 1e 04 c8 51 03 39 56 20 c7 03
5b 01 60 00 00 02 1e 11 c8 c1 00 39 44 20 87 03
5b 11 60 00 00 02 1e 05 c8 d1 00 39 46 20 c7 03
41 00 80 00 bd 77 e0 20 00 06 8d 00 60 00 8d 00
5b 01 60 00 00 00 1e 12 c8 71 00 39 20 20 87 0b
5b 11 60 00 00 00 1e 02 c8 81 00 39 04 20 c7 0b
5b 01 60 00 00 00 1e 03 c8 21 01 39 22 20 87 0c
5b 11 60 00 00 00 1e 04 c8 21 00 39 0a 20 c7 0c
02 00 80 04 bd 7f e0 20 60 00 8d 00 00 00 00 00
41 00 80 00 bd 77 80 21 e0 00 8d 00 d4 00 00 00
5b 01 60 00 00 00 1e 0e c8 c1 00 39 14 04 80 01
5b 11 60 00 00 00 1e 0f c8 d1 00 39 16 04 80 01
5b 01 60 00 00 00 1e 10 c8 c1 00 39 14 04 88 01
5b 11 60 00 00 00 1e 11 c8 d1 00 39 16 04 88 01
5b 01 60 00 00 00 1e 12 c8 c1 00 39 14 04 90 01
5b 11 60 00 00 00 1e 13 c8 d1 00 39 16 04 90 01
02 00 80 05 be 7f 20 20 c0 01 8d 00 00 00 80 3f
02 00 80 05 be 7f 60 20 00 02 8d 00 00 00 80 3f
02 00 80 05 be 7f a0 20 40 02 8d 00 00 00 80 3f
32 00 80 05 c8 0f 00 20 20 00 8d 00 00 90 01 90
40 02 80 00 29 6d c0 20 28 00 28 00 10 10 00 11
01 00 60 00 a6 00 80 20 ec 00 00 00 00 00 00 00
01 00 60 00 e2 10 a0 20 00 00 00 00 00 00 00 00
01 00 60 00 3d 01 40 20 c0 00 89 00 00 00 00 00
01 00 60 00 3d 01 60 20 c8 00 89 00 00 00 00 00
01 00 60 00 a5 03 e0 20 40 00 8d 00 00 00 00 00
01 00 60 00 a5 03 00 21 60 00 8d 00 00 00 00 00
01 00 60 00 bd 00 20 21 e0 00 8d 00 00 00 00 00
01 00 60 00 bd 00 40 21 00 01 8d 00 00 00 00 00
5b 01 60 00 00 00 1e 0b 01 4e 20 c0 08 20 47 02
5b 01 60 00 00 00 1e 0c 01 5e 20 c0 0a 20 87 02
01 00 60 00 a6 03 40 20 60 01 8d 00 00 00 00 00
01 00 60 00 a6 03 60 20 80 01 8d 00 00 00 00 00
31 00 60 02 c9 0f 40 20 40 00 8d 00 01 70 41 08
01 00 60 00 be 03 20 20 40 00 8d 00 00 00 00 00
01 00 60 00 be 03 40 20 60 00 8d 00 00 00 00 00
01 00 60 00 be 03 60 20 80 00 8d 00 00 00 00 00
01 00 60 00 be 03 80 20 a0 00 8d 00 00 00 00 00
32 00 60 05 c8 0f 00 20 20 00 8d 00 00 94 01 88
40 00 80 00 29 6d 80 20 28 00 48 00 10 10 10 10
40 00 80 00 29 6d 00 21 2a 00 48 00 00 11 00 11
01 00 80 00 a6 00 c0 20 2c 01 00 00 00 00 00 00
01 00 80 00 e2 10 00 21 00 00 00 00 00 00 00 00
01 00 80 00 3d 01 40 20 80 00 8d 00 00 00 00 00
01 00 80 00 3d 01 80 20 00 01 8d 00 00 00 00 00
01 00 80 00 a5 03 00 21 40 00 8d 00 00 00 00 00
01 00 80 00 a5 03 40 21 80 00 8d 00 00 00 00 00
01 00 80 00 bd 00 80 21 00 01 8d 00 00 00 00 00
01 00 80 00 bd 00 c0 21 40 01 8d 00 00 00 00 00
5b 01 60 00 00 00 1e 10 01 6e 20 c0 0c 20 07 03
5b 11 60 00 00 00 1e 11 01 6e 20 c0 0c 20 47 03
5b 01 60 00 00 00 1e 12 01 7e 20 c0 0e 20 87 03
5b 11 60 00 00 00 1e 13 01 7e 20 c0 0e 20 c7 03
01 00 80 00 a6 03 40 20 00 02 8d 00 00 00 00 00
01 00 80 00 a6 03 80 20 40 02 8d 00 00 00 00 00
31 00 80 02 c9 0f 40 20 40 00 8d 00 01 70 82 10
01 00 80 00 be 03 20 20 40 00 8d 00 00 00 00 00
01 00 80 00 be 03 60 20 80 00 8d 00 00 00 00 00
01 00 80 00 be 03 a0 20 c0 00 8d 00 00 00 00 00
01 00 80 00 be 03 e0 20 00 01 8d 00 00 00 00 00
32 00 80 05 c8 0f 00 20 20 00 8d 00 00 90 01 90
