01 02 40 00 be 03 40 20 4c 00 87 00 00 00 00 00
32 00 80 05 c8 0f 00 20 40 00 8d 00 00 91 01 82
40 01 60 00 a6 14 81 20 4a 00 6a 00 40 00 60 00
01 01 60 00 e6 10 4f 20 00 00 00 00 00 00 00 00
01 01 60 00 be 03 6f 20 24 00 6e 00 00 00 00 00
01 03 60 00 22 00 2f 20 04 00 6e 00 00 00 00 00
31 01 60 06 dc 0f 0f 20 24 00 6e 00 00 c4 08 8a
01 02 60 00 21 00 80 20 00 00 8d 00 00 00 00 00
40 02 00 00 21 0c a0 20 20 00 00 00 01 00 00 00
10 02 00 06 3c 04 00 20 a0 00 00 00 30 00 00 00
22 00 01 00 8f 10 0e 00 00 00 00 00 00 00 00 00
01 02 60 00 69 63 c0 20 00 00 00 00 00 01 02 00
40 02 40 00 21 04 c0 20 c0 00 69 00 20 00 00 00
01 02 00 00 21 00 94 20 c0 00 00 00 00 00 00 00
01 03 40 00 21 00 8f 20 64 00 6e 00 00 00 00 00
01 02 60 00 22 00 20 20 80 00 8d 00 00 00 00 00
31 02 60 05 c1 0f a0 20 20 00 8d 00 00 a0 1b 02
25 00 00 00 8f 10 02 00 00 00 8d 00 00 00 8d 00
01 02 60 00 21 00 80 20 00 00 8d 00 00 00 00 00
01 02 60 00 21 00 a0 20 a0 00 8d 00 00 00 00 00
01 02 00 00 61 00 84 20 00 00 00 00 01 00 00 00
01 02 60 00 22 00 00 20 80 00 8d 00 00 00 00 00
31 02 60 06 c1 0f a0 20 00 00 8d 00 01 20 18 02
01 02 00 00 21 00 80 20 a0 00 00 00 00 00 00 00
05 02 00 00 21 0c 88 20 08 00 00 00 1f 00 00 00
09 02 00 00 21 0c 88 20 88 00 00 00 02 00 00 00
40 02 00 00 a5 1c 88 20 88 00 00 00 03 00 00 00
01 02 60 00 be 03 20 20 40 00 8d 00 00 00 00 00
01 02 60 00 be 03 40 20 60 00 8d 00 00 00 00 00
01 02 60 00 22 00 00 20 80 00 8d 00 00 00 00 00
31 02 60 06 c0 0f 00 20 00 00 8d 00 00 c0 08 86
01 00 60 00 fe 73 20 20 00 00 00 00 00 00 80 3f
01 00 60 00 fe 73 40 20 00 00 00 00 00 00 80 3f
01 00 60 00 fe 73 60 20 00 00 00 00 00 00 80 3f
01 00 60 00 fe 73 80 20 00 00 00 00 00 00 80 3f
32 00 60 05 c8 0f 00 20 20 00 8d 00 00 94 01 88
01 00 80 00 fe 73 20 20 00 00 00 00 00 00 80 3f
01 00 80 00 fe 73 60 20 00 00 00 00 00 00 80 3f
01 00 80 00 fe 73 a0 20 00 00 00 00 00 00 80 3f
01 00 80 00 fe 73 e0 20 00 00 00 00 00 00 80 3f
32 00 80 05 c8 0f 00 20 20 00 8d 00 00 90 01 90
