01 02 40 00 be 03 40 20 4c 00 87 00 00 00 00 00
32 00 80 05 c8 0f 00 20 40 00 8d 00 00 91 01 82
01 01 60 00 fe 52 8f 20 00 00 00 00 00 30 40 48
01 01 60 00 fe 52 af 20 00 00 00 00 50 54 58 5c
54 05 60 00 be 77 61 20 64 00 6e 00 24 00 0e 00
01 01 60 00 e6 10 4f 20 00 00 00 00 00 00 00 00
54 0d 60 00 be 77 62 20 64 00 6e 00 34 00 0e 00
54 0d 60 00 be 77 64 20 64 00 6e 00 44 00 0e 00
54 09 60 00 be 77 68 20 64 00 6e 00 54 00 0e 00
01 03 60 00 22 00 2f 20 04 00 6e 00 00 00 00 00
31 01 60 06 dc 0f 0f 20 24 00 6e 00 00 c4 08 8a
5a 00 60 00 bd 77 80 21 80 00 00 00 40 00 8d 00
01 02 00 00 fd 73 a0 24 00 00 00 00 cd cc 4c 3d
01 00 60 00 fe 73 80 20 00 00 00 00 00 00 00 00
5a 00 60 00 bd 77 40 21 90 00 00 00 40 00 8d 00
01 02 00 00 fd 73 a4 24 00 00 00 00 cd cc 8c 3f
5a 00 60 00 bd 77 80 23 c0 00 00 00 40 00 8d 00
5b 01 60 00 21 00 1e 01 01 50 22 40 4a 20 07 03
5b 01 60 00 21 00 1e 02 01 50 22 40 4a 20 87 02
5a 00 60 00 bd 77 a0 23 d0 00 00 00 40 00 8d 00
5a 00 60 00 bd 77 c0 23 e0 00 00 00 40 00 8d 00
10 00 60 02 bd 7f a0 20 a0 03 8d 00 00 00 80 3f
10 00 60 02 bd 7f 60 21 80 03 8d 00 00 00 00 00
10 00 60 02 bd 7f a0 21 c0 03 8d 00 00 00 00 40
5a 00 60 00 bd 77 c0 20 f0 00 00 00 40 00 8d 00
06 00 60 00 21 04 60 23 60 01 8d 00 a0 00 8d 00
5a 00 60 00 bd 77 e0 23 00 01 00 00 40 00 8d 00
10 00 60 02 bd 7f e0 21 c0 00 8d 00 00 00 40 40
06 00 60 00 21 04 c0 21 60 03 8d 00 a0 01 8d 00
5a 00 60 00 bd 77 00 24 10 01 00 00 40 00 8d 00
06 00 60 00 21 04 00 22 c0 01 8d 00 e0 01 8d 00
5a 00 60 00 bd 77 20 24 20 01 00 00 40 00 8d 00
10 00 60 02 bd 7f 40 22 00 04 8d 00 00 00 a0 40
10 00 60 02 bd 7f 60 22 e0 03 8d 00 00 00 80 40
10 00 60 02 bd 7f a0 22 20 04 8d 00 00 00 c0 40
5a 00 60 00 bd 77 20 22 30 01 00 00 40 00 8d 00
06 00 60 00 21 04 80 22 60 02 8d 00 40 02 8d 00
10 00 60 02 bd 7f e0 22 20 02 8d 00 00 00 e0 40
06 00 60 00 21 04 c0 22 80 02 8d 00 a0 02 8d 00
06 00 60 00 21 04 00 23 c0 02 8d 00 e0 02 8d 00
06 00 60 00 21 04 20 23 00 02 8d 00 00 03 8d 00
01 00 60 00 be 00 60 20 20 43 8d 00 00 00 00 00
32 00 60 05 c8 0f 00 20 20 00 8d 00 00 94 01 88
5a 00 80 00 bd 77 c0 21 c0 00 00 00 40 00 8d 00
01 02 00 00 fd 73 00 28 00 00 00 00 cd cc 4c 3d
01 00 80 00 fe 73 e0 20 00 00 00 00 00 00 00 00
5a 00 80 00 bd 77 80 21 d0 00 00 00 40 00 8d 00
01 02 00 00 fd 73 04 28 00 00 00 00 cd cc 8c 3f
5a 00 80 00 bd 77 60 22 00 01 00 00 40 00 8d 00
5b 01 60 00 21 00 1e 01 01 00 24 40 80 20 87 03
5b 11 60 00 21 00 1e 02 01 00 24 40 80 20 c7 03
5b 01 60 00 21 00 1e 03 01 00 24 40 80 20 07 03
5b 11 60 00 21 00 1e 04 01 00 24 40 80 20 47 03
5a 00 80 00 bd 77 a0 22 10 01 00 00 40 00 8d 00
5a 00 80 00 bd 77 e0 22 20 01 00 00 40 00 8d 00
10 00 80 02 bd 7f e0 21 a0 02 8d 00 00 00 80 3f
10 00 80 02 bd 7f 20 22 60 02 8d 00 00 00 00 00
10 00 80 02 bd 7f a0 22 e0 02 8d 00 00 00 00 40
5a 00 80 00 bd 77 a0 21 30 01 00 00 40 00 8d 00
06 00 80 00 21 04 60 22 20 02 8d 00 e0 01 8d 00
5a 00 80 00 bd 77 60 24 40 01 00 00 40 00 8d 00
10 00 80 02 bd 7f 20 23 a0 01 8d 00 00 00 40 40
06 00 80 00 21 04 e0 22 60 02 8d 00 a0 02 8d 00
5a 00 80 00 bd 77 a0 24 50 01 00 00 40 00 8d 00
06 00 80 00 21 04 60 23 e0 02 8d 00 20 03 8d 00
5a 00 80 00 bd 77 e0 24 60 01 00 00 40 00 8d 00
10 00 80 02 bd 7f e0 23 a0 04 8d 00 00 00 a0 40
10 00 80 02 bd 7f 20 24 60 04 8d 00 00 00 80 40
10 00 80 02 bd 7f a0 24 e0 04 8d 00 00 00 c0 40
5a 00 80 00 bd 77 a0 23 70 01 00 00 40 00 8d 00
06 00 80 00 21 04 60 24 20 04 8d 00 e0 03 8d 00
10 00 80 02 bd 7f 20 25 a0 03 8d 00 00 00 e0 40
06 00 80 00 21 04 e0 24 60 04 8d 00 a0 04 8d 00
06 00 80 00 21 04 60 25 e0 04 8d 00 20 05 8d 00
06 00 80 00 21 04 a0 25 60 03 8d 00 60 05 8d 00
01 00 80 00 be 00 a0 20 a0 45 8d 00 00 00 00 00
32 00 80 05 c8 0f 00 20 20 00 8d 00 00 90 01 90
40 02 80 00 29 6d c0 20 28 00 28 00 10 10 00 11
01 00 60 00 a6 00 80 20 ec 00 00 00 00 00 00 00
01 00 60 00 e2 10 a0 20 00 00 00 00 00 00 00 00
01 00 60 00 3d 01 40 20 c0 00 89 00 00 00 00 00
01 00 60 00 3d 01 60 20 c8 00 89 00 00 00 00 00
01 00 60 00 a5 03 e0 20 40 00 8d 00 00 00 00 00
01 00 60 00 a5 03 00 21 60 00 8d 00 00 00 00 00
01 00 60 00 bd 00 20 21 e0 00 8d 00 00 00 00 00
01 00 60 00 bd 00 40 21 00 01 8d 00 00 00 00 00
5b 01 60 00 00 00 1e 0b 01 4e 20 c0 08 20 47 02
5b 01 60 00 00 00 1e 0c 01 5e 20 c0 0a 20 87 02
01 00 60 00 a6 03 40 20 60 01 8d 00 00 00 00 00
01 00 60 00 a6 03 60 20 80 01 8d 00 00 00 00 00
31 00 60 02 c9 0f 40 20 40 00 8d 00 01 70 41 08
01 00 60 00 be 03 20 20 40 00 8d 00 00 00 00 00
01 00 60 00 be 03 40 20 60 00 8d 00 00 00 00 00
01 00 60 00 be 03 60 20 80 00 8d 00 00 00 00 00
01 00 60 00 be 03 80 20 a0 00 8d 00 00 00 00 00
32 00 60 05 c8 0f 00 20 20 00 8d 00 00 94 01 88
40 00 80 00 29 6d 80 20 28 00 48 00 10 10 10 10
40 00 80 00 29 6d 00 21 2a 00 48 00 00 11 00 11
01 00 80 00 a6 00 c0 20 2c 01 00 00 00 00 00 00
01 00 80 00 e2 10 00 21 00 00 00 00 00 00 00 00
01 00 80 00 3d 01 40 20 80 00 8d 00 00 00 00 00
01 00 80 00 3d 01 80 20 00 01 8d 00 00 00 00 00
01 00 80 00 a5 03 00 21 40 00 8d 00 00 00 00 00
01 00 80 00 a5 03 40 21 80 00 8d 00 00 00 00 00
01 00 80 00 bd 00 80 21 00 01 8d 00 00 00 00 00
01 00 80 00 bd 00 c0 21 40 01 8d 00 00 00 00 00
5b 01 60 00 00 00 1e 10 01 6e 20 c0 0c 20 07 03
5b 11 60 00 00 00 1e 11 01 6e 20 c0 0c 20 47 03
5b 01 60 00 00 00 1e 12 01 7e 20 c0 0e 20 87 03
5b 11 60 00 00 00 1e 13 01 7e 20 c0 0e 20 c7 03
01 00 80 00 a6 03 40 20 00 02 8d 00 00 00 00 00
01 00 80 00 a6 03 80 20 40 02 8d 00 00 00 00 00
31 00 80 02 c9 0f 40 20 40 00 8d 00 01 70 82 10
01 00 80 00 be 03 20 20 40 00 8d 00 00 00 00 00
01 00 80 00 be 03 60 20 80 00 8d 00 00 00 00 00
01 00 80 00 be 03 a0 20 c0 00 8d 00 00 00 00 00
01 00 80 00 be 03 e0 20 00 01 8d 00 00 00 00 00
32 00 80 05 c8 0f 00 20 20 00 8d 00 00 90 01 90
