01 00 60 00 fe 73 40 20 00 00 00 00 00 00 00 00
01 00 60 00 fe 73 60 20 00 00 00 00 00 00 00 00
01 00 60 00 fe 73 c0 20 00 00 00 00 00 00 00 00
01 00 60 00 fe 73 e0 20 00 00 00 00 00 00 00 00
01 00 60 00 fe 73 00 21 00 00 00 00 00 00 00 00
01 00 60 00 fe 73 20 21 00 00 00 00 00 00 00 00
31 00 60 02 c9 0f 40 20 40 00 8d 00 01 40 41 10
01 00 60 00 be 03 20 20 40 00 8d 00 00 00 00 00
01 00 60 00 be 03 40 20 60 00 8d 00 00 00 00 00
01 00 60 00 be 03 60 20 80 00 8d 00 00 00 00 00
01 00 60 00 be 03 80 20 a0 00 8d 00 00 00 00 00
32 00 60 05 c8 0f 00 20 20 00 8d 00 00 94 01 88
01 00 60 00 fe 73 40 20 00 00 00 00 00 00 00 00
01 00 60 00 fe 73 60 20 00 00 00 00 00 00 00 00
01 00 60 00 fe 73 c0 20 00 00 00 00 00 00 00 00
01 00 60 00 fe 73 e0 20 00 00 00 00 00 00 00 00
01 00 60 00 fe 73 00 21 00 00 00 00 00 00 00 00
01 00 60 00 fe 73 20 21 00 00 00 00 00 00 00 00
31 00 60 02 c9 0f c0 20 40 00 8d 00 01 40 41 10
01 10 60 00 fe 73 60 20 00 00 00 00 00 00 00 00
01 10 60 00 fe 73 c0 20 00 00 00 00 00 00 00 00
01 10 60 00 fe 73 e0 20 00 00 00 00 00 00 00 00
01 10 60 00 fe 73 00 21 00 00 00 00 00 00 00 00
01 10 60 00 fe 73 20 21 00 00 00 00 00 00 00 00
01 00 60 00 be 03 20 20 c0 00 8d 00 00 00 00 00
01 10 60 00 fe 73 40 20 00 00 00 00 00 00 00 00
31 10 60 02 c9 0f 40 20 40 00 8d 00 01 40 41 10
01 00 60 00 be 03 60 20 e0 00 8d 00 00 00 00 00
01 00 60 00 be 03 a0 20 00 01 8d 00 00 00 00 00
01 00 60 00 be 03 e0 20 20 01 8d 00 00 00 00 00
01 10 60 00 be 03 40 20 40 00 8d 00 00 00 00 00
01 10 60 00 be 03 80 20 60 00 8d 00 00 00 00 00
01 10 60 00 be 03 c0 20 80 00 8d 00 00 00 00 00
01 10 60 00 be 03 00 21 a0 00 8d 00 00 00 00 00
32 00 80 05 c8 0f 00 20 20 00 8d 00 00 90 01 90
