5a 00 60 00 bd 77 e0 20 c0 00 00 00 40 00 8d 00
01 00 60 00 be 03 80 20 8c 00 00 00 00 00 00 00
5b 01 60 80 00 00 1e 08 01 4a 20 00 09 20 c7 01
5c 01 60 00 01 00 1e 01 c8 81 20 00 08 04 40 01
5c 01 60 00 01 00 1e 02 c8 81 20 40 08 04 48 01
5c 01 60 00 01 00 1e 03 c8 81 20 80 08 04 50 01
32 00 60 05 c8 0f 00 20 20 00 8d 00 00 94 01 88
5a 00 80 00 bd 77 20 21 00 01 00 00 40 00 8d 00
01 00 80 00 be 03 e0 20 cc 00 00 00 00 00 00 00
5b 01 60 80 00 00 1e 04 01 6a 20 00 0d 20 47 02
5b 11 60 80 00 00 1e 02 01 6a 20 00 0d 20 87 02
5c 01 60 00 01 00 1e 01 c8 41 20 00 0c 04 c0 01
5c 01 60 00 01 00 1e 03 c8 41 20 40 0c 04 c8 01
5c 01 60 00 01 00 1e 05 c8 41 20 80 0c 04 d0 01
5c 11 60 00 01 00 1e 02 c8 21 20 00 0c 04 c0 01
5c 11 60 00 01 00 1e 04 c8 21 20 40 0c 04 c8 01
5c 11 60 00 01 00 1e 06 c8 21 20 80 0c 04 d0 01
32 00 80 05 c8 0f 00 20 20 00 8d 00 00 90 01 90
54 05 60 00 be 77 61 20 84 00 6e 00 24 00 0e 00
01 05 60 00 be 03 81 20 60 20 00 00 00 00 00 00
01 01 60 00 e6 10 4f 20 00 00 00 00 00 00 00 00
54 0d 60 00 be 77 62 20 84 00 6e 00 34 00 0e 00
01 09 60 00 fe 52 8e 20 00 00 00 00 00 00 00 30
54 0d 60 00 be 77 64 20 84 00 6e 00 44 00 0e 00
54 09 60 00 be 77 68 20 84 00 6e 00 54 00 0e 00
01 03 60 00 22 00 2f 20 04 00 6e 00 00 00 00 00
31 01 60 06 dc 0f 0f 20 24 00 6e 00 00 c4 08 8a
