5a 00 60 00 bd 77 e0 20 c0 00 00 00 40 00 8d 00
01 00 60 00 be 03 80 20 8c 00 00 00 00 00 00 00
5b 01 60 80 00 00 1e 08 01 4a 20 00 09 20 c7 01
5c 01 60 00 01 00 1e 01 c8 81 20 00 08 04 40 01
5c 01 60 00 01 00 1e 02 c8 81 20 40 08 04 48 01
5c 01 60 00 01 00 1e 03 c8 81 20 80 08 04 50 01
32 00 60 05 c8 0f 00 20 20 00 8d 00 00 94 01 88
5a 00 80 00 bd 77 20 21 00 01 00 00 40 00 8d 00
01 00 80 00 be 03 e0 20 cc 00 00 00 00 00 00 00
5b 01 60 80 00 00 1e 04 01 6a 20 00 0d 20 47 02
5b 11 60 80 00 00 1e 02 01 6a 20 00 0d 20 87 02
5c 01 60 00 01 00 1e 01 c8 41 20 00 0c 04 c0 01
5c 01 60 00 01 00 1e 03 c8 41 20 40 0c 04 c8 01
5c 01 60 00 01 00 1e 05 c8 41 20 80 0c 04 d0 01
5c 11 60 00 01 00 1e 02 c8 21 20 00 0c 04 c0 01
5c 11 60 00 01 00 1e 04 c8 21 20 40 0c 04 c8 01
5c 11 60 00 01 00 1e 06 c8 21 20 80 0c 04 d0 01
32 00 80 05 c8 0f 00 20 20 00 8d 00 00 90 01 90
54 05 60 00 be 77 61 20 a4 00 6e 00 24 00 0e 00
54 01 60 00 bd 77 e1 20 a4 00 6e 00 64 00 0e 00
01 01 60 00 e6 10 4f 20 00 00 00 00 00 00 00 00
54 0d 60 00 be 77 62 20 a4 00 6e 00 34 00 0e 00
54 01 60 00 bd 77 e2 20 a4 00 6e 00 74 00 0e 00
54 0d 60 00 be 77 64 20 a4 00 6e 00 44 00 0e 00
54 01 60 00 bd 77 e4 20 a4 00 6e 00 84 00 0e 00
54 09 60 00 be 77 68 20 a4 00 6e 00 54 00 0e 00
56 01 60 00 bd 77 41 23 e4 00 6a 00 e4 00 6a 00
01 01 60 00 bd 03 6f 23 40 23 60 00 00 00 00 00
38 00 60 04 bd 73 80 23 60 03 69 00 00 00 8d 00
01 05 60 00 be 03 81 20 80 03 60 00 00 00 00 00
01 09 60 00 fe 52 8e 20 00 00 00 00 00 00 00 30
01 03 60 00 22 00 2f 20 04 00 6e 00 00 00 00 00
31 01 60 06 dc 0f 0f 20 24 00 6e 00 00 c4 08 8a
40 02 80 00 29 6d c0 20 28 00 28 00 10 10 00 11
01 00 60 00 a6 00 80 20 ec 00 00 00 00 00 00 00
01 00 60 00 e2 10 a0 20 00 00 00 00 00 00 00 00
01 00 60 00 3d 01 40 20 c0 00 89 00 00 00 00 00
01 00 60 00 3d 01 60 20 c8 00 89 00 00 00 00 00
01 00 60 00 a5 03 e0 20 40 00 8d 00 00 00 00 00
01 00 60 00 a5 03 00 21 60 00 8d 00 00 00 00 00
01 00 60 00 bd 00 20 21 e0 00 8d 00 00 00 00 00
01 00 60 00 bd 00 40 21 00 01 8d 00 00 00 00 00
5b 01 60 00 00 00 1e 0b 01 4e 20 c0 08 20 47 02
5b 01 60 00 00 00 1e 0c 01 5e 20 c0 0a 20 87 02
01 00 60 00 a6 03 40 20 60 01 8d 00 00 00 00 00
01 00 60 00 a6 03 60 20 80 01 8d 00 00 00 00 00
31 00 60 02 c9 0f 40 20 40 00 8d 00 01 70 41 08
01 00 60 00 be 03 20 20 40 00 8d 00 00 00 00 00
01 00 60 00 be 03 40 20 60 00 8d 00 00 00 00 00
01 00 60 00 be 03 60 20 80 00 8d 00 00 00 00 00
01 00 60 00 be 03 80 20 a0 00 8d 00 00 00 00 00
32 00 60 05 c8 0f 00 20 20 00 8d 00 00 94 01 88
40 00 80 00 29 6d 80 20 28 00 48 00 10 10 10 10
40 00 80 00 29 6d 00 21 2a 00 48 00 00 11 00 11
01 00 80 00 a6 00 c0 20 2c 01 00 00 00 00 00 00
01 00 80 00 e2 10 00 21 00 00 00 00 00 00 00 00
01 00 80 00 3d 01 40 20 80 00 8d 00 00 00 00 00
01 00 80 00 3d 01 80 20 00 01 8d 00 00 00 00 00
01 00 80 00 a5 03 00 21 40 00 8d 00 00 00 00 00
01 00 80 00 a5 03 40 21 80 00 8d 00 00 00 00 00
01 00 80 00 bd 00 80 21 00 01 8d 00 00 00 00 00
01 00 80 00 bd 00 c0 21 40 01 8d 00 00 00 00 00
5b 01 60 00 00 00 1e 10 01 6e 20 c0 0c 20 07 03
5b 11 60 00 00 00 1e 11 01 6e 20 c0 0c 20 47 03
5b 01 60 00 00 00 1e 12 01 7e 20 c0 0e 20 87 03
5b 11 60 00 00 00 1e 13 01 7e 20 c0 0e 20 c7 03
01 00 80 00 a6 03 40 20 00 02 8d 00 00 00 00 00
01 00 80 00 a6 03 80 20 40 02 8d 00 00 00 00 00
31 00 80 02 c9 0f 40 20 40 00 8d 00 01 70 82 10
01 00 80 00 be 03 20 20 40 00 8d 00 00 00 00 00
01 00 80 00 be 03 60 20 80 00 8d 00 00 00 00 00
01 00 80 00 be 03 a0 20 c0 00 8d 00 00 00 00 00
01 00 80 00 be 03 e0 20 00 01 8d 00 00 00 00 00
32 00 80 05 c8 0f 00 20 20 00 8d 00 00 90 01 90
