5a 00 60 00 be 77 20 20 80 00 00 00 40 00 8d 00
5a 00 60 00 be 77 40 20 90 00 00 00 40 00 8d 00
5a 00 60 00 be 77 60 20 a0 00 00 00 40 00 8d 00
5a 00 60 00 be 77 80 20 b0 00 00 00 40 00 8d 00
32 00 60 05 c8 0f 00 20 20 00 8d 00 00 94 01 88
5a 00 80 00 be 77 20 20 c0 00 00 00 40 00 8d 00
5a 00 80 00 be 77 60 20 d0 00 00 00 40 00 8d 00
5a 00 80 00 be 77 a0 20 e0 00 00 00 40 00 8d 00
5a 00 80 00 be 77 e0 20 f0 00 00 00 40 00 8d 00
32 00 80 05 c8 0f 00 20 20 00 8d 00 00 90 01 90
54 05 60 00 be 77 61 20 64 00 6e 00 24 00 0e 00
01 01 60 00 e6 10 4f 20 00 00 00 00 00 00 00 00
01 01 60 80 be 03 8f 20 84 00 6e 00 00 00 00 00
54 0d 60 00 be 77 62 20 64 00 6e 00 34 00 0e 00
01 01 60 00 be 03 48 20 a0 00 60 00 00 00 00 00
54 0d 60 00 be 77 64 20 64 00 6e 00 44 00 0e 00
54 09 60 00 be 77 68 20 64 00 6e 00 54 00 0e 00
01 03 60 00 22 00 2f 20 04 00 6e 00 00 00 00 00
31 01 60 06 dc 0f 0f 20 24 00 6e 00 00 c4 08 8a
5a 00 60 00 bd 77 00 21 c0 00 00 00 40 00 8d 00
5a 00 60 00 bd 77 20 21 d0 00 00 00 40 00 8d 00
5a 00 60 00 bd 77 c0 20 f0 00 00 00 40 00 8d 00
38 00 60 01 bd 73 e0 20 c0 00 8d 00 00 00 8d 00
5a 00 60 00 bd 77 40 21 80 00 00 00 40 00 8d 00
5a 00 60 00 bd 77 60 21 90 00 00 00 40 00 8d 00
41 00 60 00 be 77 40 20 00 01 8d 00 e0 00 8d 00
41 00 60 00 be 77 60 20 20 01 8d 00 e0 00 8d 00
5a 00 60 00 bd 77 80 21 a0 00 00 00 40 00 8d 00
31 00 60 02 c9 0f c0 20 40 00 8d 00 01 00 41 04
5a 00 60 00 bd 77 80 20 b0 00 00 00 40 00 8d 00
41 00 60 00 be 77 80 20 20 01 8d 00 80 00 8d 00
41 00 60 00 be 77 20 20 c0 00 8d 00 40 01 8d 00
41 00 60 00 be 77 40 20 e0 00 8d 00 60 01 8d 00
41 00 60 00 be 77 60 20 00 01 8d 00 80 01 8d 00
32 00 60 05 c8 0f 00 20 20 00 8d 00 00 94 01 88
5a 00 80 00 bd 77 40 22 00 01 00 00 40 00 8d 00
5a 00 80 00 bd 77 80 22 10 01 00 00 40 00 8d 00
5a 00 80 00 bd 77 40 21 30 01 00 00 40 00 8d 00
38 00 60 01 bd 73 80 21 40 01 8d 00 00 00 8d 00
38 10 60 01 bd 73 a0 21 60 01 8d 00 00 00 8d 00
5a 00 80 00 bd 77 c0 22 c0 00 00 00 40 00 8d 00
41 00 80 00 be 77 40 20 40 02 8d 00 80 01 8d 00
41 00 80 00 be 77 80 20 80 02 8d 00 80 01 8d 00
5a 00 80 00 bd 77 00 23 d0 00 00 00 40 00 8d 00
31 00 80 02 c9 0f 00 21 40 00 8d 00 01 00 82 08
5a 00 80 00 bd 77 40 23 e0 00 00 00 40 00 8d 00
5a 00 80 00 bd 77 00 22 f0 00 00 00 40 00 8d 00
41 00 80 00 be 77 e0 20 c0 01 8d 00 00 02 8d 00
41 00 80 00 be 77 a0 20 80 01 8d 00 40 03 8d 00
41 00 80 00 be 77 20 20 00 01 8d 00 c0 02 8d 00
41 00 80 00 be 77 60 20 40 01 8d 00 00 03 8d 00
32 00 80 05 c8 0f 00 20 20 00 8d 00 00 90 01 90
54 05 60 00 be 77 61 20 64 00 6e 00 24 00 0e 00
01 01 60 00 e6 10 4f 20 00 00 00 00 00 00 00 00
01 01 60 80 be 03 8f 20 84 00 6e 00 00 00 00 00
01 01 60 00 be 03 af 20 a4 00 6e 00 00 00 00 00
54 0d 60 00 be 77 62 20 64 00 6e 00 34 00 0e 00
01 01 60 00 be 03 48 20 c0 00 60 00 00 00 00 00
54 0d 60 00 be 77 64 20 64 00 6e 00 44 00 0e 00
54 09 60 00 be 77 68 20 64 00 6e 00 54 00 0e 00
01 03 60 00 22 00 2f 20 04 00 6e 00 00 00 00 00
31 01 60 06 dc 0f 0f 20 24 00 6e 00 00 c4 08 8a
01 02 40 00 be 03 40 20 4c 00 87 00 00 00 00 00
32 00 80 05 c8 0f 00 20 40 00 8d 00 00 91 01 82
54 05 60 00 be 77 61 20 84 00 6e 00 24 00 0e 00
01 01 60 00 e6 10 4f 20 00 00 00 00 00 00 00 00
01 01 60 80 be 03 8f 20 64 00 0e 00 00 00 00 00
01 01 60 00 be 03 af 20 a4 00 6e 00 00 00 00 00
54 0d 60 00 be 77 62 20 84 00 6e 00 34 00 0e 00
54 0d 60 00 be 77 64 20 84 00 6e 00 44 00 0e 00
54 09 60 00 be 77 68 20 84 00 6e 00 54 00 0e 00
01 03 60 00 22 00 2f 20 04 00 6e 00 00 00 00 00
31 01 60 06 dc 0f 0f 20 24 00 6e 00 00 c4 08 8a
54 05 60 00 be 77 61 20 84 00 6e 00 24 00 0e 00
01 01 60 00 e6 10 4f 20 00 00 00 00 00 00 00 00
01 01 60 00 be 03 8f 20 64 00 0e 00 00 00 00 00
01 01 60 00 be 03 af 20 a4 00 6e 00 00 00 00 00
54 0d 60 00 be 77 62 20 84 00 6e 00 34 00 0e 00
54 0d 60 00 be 77 64 20 84 00 6e 00 44 00 0e 00
54 09 60 00 be 77 68 20 84 00 6e 00 54 00 0e 00
01 03 60 00 22 00 2f 20 04 00 6e 00 00 00 00 00
31 01 60 06 dc 0f 0f 20 24 00 6e 00 00 c4 08 8a
01 00 60 00 bd 03 60 20 5c 00 00 00 00 00 00 00
38 00 60 01 bd 73 80 20 60 00 8d 00 00 00 8d 00
41 00 60 00 be 77 40 20 50 00 00 00 80 00 8d 00
41 00 60 00 be 77 60 20 54 00 00 00 80 00 8d 00
31 00 60 02 c9 0f 60 20 40 00 8d 00 01 00 41 04
41 00 60 00 be 77 20 20 60 00 8d 00 40 00 00 00
41 00 60 00 be 77 80 20 c0 00 8d 00 4c 00 00 00
41 00 60 00 be 77 40 20 80 00 8d 00 44 00 00 00
41 00 60 00 be 77 60 20 a0 00 8d 00 48 00 00 00
32 00 60 05 c8 0f 00 20 20 00 8d 00 00 94 01 88
01 00 80 00 bd 03 60 20 5c 00 00 00 00 00 00 00
38 00 60 01 bd 73 a0 20 60 00 8d 00 00 00 8d 00
38 10 60 01 bd 73 c0 20 80 00 8d 00 00 00 8d 00
41 00 80 00 be 77 40 20 50 00 00 00 a0 00 8d 00
41 00 80 00 be 77 80 20 54 00 00 00 a0 00 8d 00
31 00 80 02 c9 0f 60 20 40 00 8d 00 01 00 82 08
41 00 80 00 be 77 e0 20 20 01 8d 00 4c 00 00 00
41 00 80 00 be 77 20 20 60 00 8d 00 40 00 00 00
41 00 80 00 be 77 60 20 a0 00 8d 00 44 00 00 00
41 00 80 00 be 77 a0 20 e0 00 8d 00 48 00 00 00
32 00 80 05 c8 0f 00 20 20 00 8d 00 00 90 01 90
54 05 60 00 be 77 61 20 24 00 0e 00 34 00 0e 00
01 01 60 00 e6 10 4f 20 00 00 00 00 00 00 00 00
54 0d 60 00 be 77 62 20 24 00 0e 00 44 00 0e 00
54 0d 60 00 be 77 64 20 24 00 0e 00 54 00 0e 00
54 09 60 00 be 77 68 20 24 00 0e 00 64 00 0e 00
01 03 60 00 22 00 2f 20 04 00 6e 00 00 00 00 00
31 01 60 06 dc 0f 0f 20 24 00 6e 00 00 c4 08 86
54 05 60 00 be 77 61 20 24 00 0e 00 34 00 0e 00
01 01 60 00 e6 10 4f 20 00 00 00 00 00 00 00 00
01 01 60 80 be 03 8f 20 74 00 0e 00 00 00 00 00
01 01 60 00 be 03 af 20 84 00 0e 00 00 00 00 00
54 0d 60 00 be 77 62 20 24 00 0e 00 44 00 0e 00
54 0d 60 00 be 77 64 20 24 00 0e 00 54 00 0e 00
54 09 60 00 be 77 68 20 24 00 0e 00 64 00 0e 00
01 03 60 00 22 00 2f 20 04 00 6e 00 00 00 00 00
31 01 60 06 dc 0f 0f 20 24 00 6e 00 00 c4 08 8a
