01 00 60 00 28 0e 40 20 00 00 00 08 00 00 00 00
01 00 00 00 04 02 20 26 3c 00 00 00 00 00 00 00
31 00 61 0c 42 02 00 20 40 00 8d 06 01 95 00 02
32 00 60 05 40 3a 00 20 80 0f 00 06 00 14 03 88
01 00 80 00 28 0e 40 20 00 00 00 08 00 00 00 00
01 00 00 00 04 02 20 26 3c 00 00 00 00 00 00 00
31 00 81 0c 42 02 00 20 40 00 8d 06 01 85 00 04
32 00 80 05 40 3a 00 20 00 0f 00 06 00 10 03 90
01 00 60 00 0c 02 60 2f 20 00 8d 00 00 00 00 00
01 00 60 00 e8 3a 80 2f 40 00 8d 00 00 00 00 00
01 00 60 00 e8 3a a0 2f 60 00 8d 00 00 00 00 00
01 00 60 00 e8 3a c0 2f 80 00 8d 00 00 00 00 00
01 00 60 00 e8 3a e0 2f a0 00 8d 00 00 00 00 00
31 00 60 06 e0 3a 00 20 60 0f 8d 06 17 00 08 8a
01 00 60 00 28 0e 40 20 00 00 00 08 00 00 00 00
01 00 00 00 04 02 20 26 3c 00 00 00 00 00 00 00
31 00 61 0c 42 02 00 20 40 00 8d 06 01 95 00 02
32 00 60 05 40 3a 00 20 80 0f 00 06 00 14 03 88
01 00 80 00 28 0e 40 20 00 00 00 08 00 00 00 00
01 00 00 00 04 02 20 26 3c 00 00 00 00 00 00 00
31 00 81 0c 42 02 00 20 40 00 8d 06 01 85 00 04
32 00 80 05 40 3a 00 20 00 0f 00 06 00 10 03 90
01 00 60 00 28 0e 40 20 00 00 00 08 00 00 00 00
01 00 00 00 04 02 20 26 3c 00 00 00 00 00 00 00
31 00 61 0c 42 02 00 20 40 00 8d 06 01 95 00 02
32 00 60 05 40 3a 00 20 80 0f 00 06 00 14 03 88
01 00 80 00 28 0e 40 20 00 00 00 08 00 00 00 00
01 00 00 00 04 02 20 26 3c 00 00 00 00 00 00 00
31 00 81 0c 42 02 00 20 40 00 8d 06 01 85 00 04
32 00 80 05 40 3a 00 20 00 0f 00 06 00 10 03 90
01 00 80 00 28 0e 40 20 00 00 00 08 00 00 00 00
01 00 00 00 04 02 20 26 3c 00 00 00 00 00 00 00
31 00 81 0c 42 02 00 20 40 00 8d 06 01 85 00 04
32 00 80 05 40 3a 00 20 00 0f 00 06 00 10 03 90
