01 00 40 00 ec 3a 40 2e 4c 00 87 00 00 00 00 00
32 00 80 05 40 3a 00 20 40 0e 00 06 00 11 03 82
38 00 60 01 e8 3a c0 20 40 00 00 38 00 00 8d 00
38 00 60 01 e8 3a a0 20 44 00 00 38 00 00 8d 00
41 00 60 00 e8 3a e0 20 60 00 8d 3e 00 00 00 40
41 00 60 00 e8 3a 00 21 80 00 8d 3e 00 00 00 40
01 00 00 00 ec 3e 80 21 00 00 00 38 00 00 80 3f
01 00 60 00 0c 02 e0 2e 20 00 8d 00 00 00 00 00
01 00 60 00 e8 3e 40 2f 00 00 00 38 00 00 00 00
01 00 60 00 e8 3e 60 2f 00 00 00 38 00 00 80 3f
01 00 60 00 e8 3a 80 2f 60 00 8d 00 00 00 00 00
01 00 60 00 e8 3a a0 2f 80 00 8d 00 00 00 00 00
5b 01 60 00 40 00 1e 78 01 c0 00 39 0c 20 c7 01
5b 01 60 00 40 00 1e 79 01 c0 00 39 0a 20 07 02
31 00 60 06 e0 3a 00 20 e0 0e 8d 06 17 00 08 92
5a 00 60 00 e8 3a a0 20 80 00 00 3a 40 00 8d 00
5a 00 60 00 e8 3a c0 20 90 00 00 3a 40 00 8d 00
01 00 60 00 0c 02 60 2f 00 00 8d 00 00 00 00 00
01 00 60 00 28 3a e0 20 a0 00 8d 00 00 00 00 00
01 00 60 00 28 3a 00 21 c0 00 8d 00 00 00 00 00
38 00 60 0c 28 0a c0 2f e0 00 8d 0e 02 00 00 00
05 00 60 00 08 02 20 21 e0 00 8d 06 01 00 00 00
38 00 60 0c 28 0a e0 2f 00 01 8d 0e 02 00 00 00
05 00 60 00 08 02 60 21 00 01 8d 06 01 00 00 00
09 00 60 00 28 0a 40 21 20 01 8d 06 01 00 00 00
31 00 60 02 48 3a 40 20 c0 0f 00 06 01 d0 43 04
40 00 60 00 28 0a 80 2f 40 01 8d 0a 60 01 8d 00
01 00 60 00 e8 3a a0 2f 40 00 8d 00 00 00 00 00
32 00 60 02 40 3a 00 20 60 0f 00 06 01 e0 0b 8a
7e 00 00 00 00 00 00 00 00 00 00 00 00 00 00 00
7e 00 00 00 00 00 00 00 00 00 00 00 00 00 00 00
5a 00 80 00 e8 3a e0 20 c0 00 00 3a 40 00 8d 00
5a 00 80 00 e8 3a 20 21 d0 00 00 3a 40 00 8d 00
01 00 60 00 0c 02 e0 2e 00 00 8d 00 00 00 00 00
01 00 80 00 28 3a 60 21 e0 00 8d 00 00 00 00 00
01 00 80 00 28 3a a0 21 20 01 8d 00 00 00 00 00
38 00 60 0c 28 0a 80 2f 60 01 8d 0e 02 00 00 00
38 10 60 0c 28 0a a0 2f 80 01 8d 0e 02 00 00 00
05 00 80 00 08 02 e0 21 60 01 8d 06 01 00 00 00
38 00 60 0c 28 0a c0 2f a0 01 8d 0e 02 00 00 00
38 10 60 0c 28 0a e0 2f c0 01 8d 0e 02 00 00 00
05 00 80 00 08 02 60 22 a0 01 8d 06 01 00 00 00
09 00 80 00 28 0a 20 22 e0 01 8d 06 01 00 00 00
31 00 80 02 48 3a 40 20 80 0f 00 06 01 d0 85 08
40 00 80 00 28 0a 00 2f 20 02 8d 0a 60 02 8d 00
01 00 80 00 e8 3a 40 2f 40 00 8d 00 00 00 00 00
32 00 80 02 40 3a 00 20 e0 0e 00 06 01 e0 0d 92
40 00 80 00 4c 12 c0 20 28 00 28 36 10 10 00 11
01 00 60 00 e8 3a e0 21 ec 00 00 00 00 00 00 00
01 00 60 00 e8 12 40 20 c0 00 89 00 00 00 00 00
01 00 60 00 e8 12 60 20 c8 00 89 00 00 00 00 00
01 00 60 00 28 3a e0 20 40 00 8d 00 00 00 00 00
01 00 60 00 28 3a 00 21 60 00 8d 00 00 00 00 00
01 00 60 00 e8 0a 20 21 e0 00 8d 00 00 00 00 00
01 00 60 00 e8 0a 40 21 00 01 8d 00 00 00 00 00
5b 01 60 00 00 00 1e 0b 01 4e 20 c0 08 20 47 02
5b 01 60 00 00 00 1e 0c 01 5e 20 c0 0a 20 87 02
01 00 60 00 28 3a a0 21 60 01 8d 00 00 00 00 00
01 00 60 00 28 3a c0 21 80 01 8d 00 00 00 00 00
31 00 60 02 48 3a 80 2f a0 01 00 06 01 a0 43 06
32 00 60 05 40 3a 00 20 80 0f 00 06 00 14 03 88
40 00 a0 00 4c 12 40 21 28 00 28 36 10 10 00 11
01 00 80 00 e8 3a 60 23 2c 01 00 00 00 00 00 00
01 00 80 00 e8 12 40 20 40 01 89 00 00 00 00 00
01 00 80 00 e8 12 80 20 48 01 89 00 00 00 00 00
01 00 80 00 28 3a 60 21 40 00 8d 00 00 00 00 00
01 00 80 00 28 3a a0 21 80 00 8d 00 00 00 00 00
01 00 80 00 e8 0a e0 21 60 01 8d 00 00 00 00 00
01 00 80 00 e8 0a 20 22 a0 01 8d 00 00 00 00 00
5b 01 80 00 00 00 1e 13 01 6e 20 c0 0c 20 c7 03
5b 01 80 00 00 00 1e 15 01 7e 20 c0 0e 20 47 04
01 00 80 00 28 3a e0 22 60 02 8d 00 00 00 00 00
01 00 80 00 28 3a 20 23 a0 02 8d 00 00 00 00 00
31 00 80 02 48 3a 00 2f e0 02 00 06 01 a0 85 0c
32 00 80 05 40 3a 00 20 00 0f 00 06 00 10 03 90
