40 00 60 00 e8 3a 80 20 60 00 00 3a 70 00 00 00
40 00 60 00 e8 3a a0 20 64 00 00 3a 74 00 00 00
40 00 60 00 e8 3a c0 20 68 00 00 3a 78 00 00 00
40 00 60 00 e8 3a e0 20 6c 00 00 3a 7c 00 00 00
40 00 60 00 e8 3a 80 2f 80 00 8d 3a 40 00 00 00
40 00 60 00 e8 3a a0 2f a0 00 8d 3a 44 00 00 00
40 00 60 00 e8 3a c0 2f c0 00 8d 3a 48 00 00 00
40 00 60 00 e8 3a e0 2f e0 00 8d 3a 4c 00 00 00
32 00 60 05 40 3a 00 20 80 0f 00 06 00 14 03 88
40 00 80 00 e8 3a 80 20 60 00 00 3a 70 00 00 00
40 00 80 00 e8 3a c0 20 64 00 00 3a 74 00 00 00
40 00 80 00 e8 3a 00 21 68 00 00 3a 78 00 00 00
40 00 80 00 e8 3a 40 21 6c 00 00 3a 7c 00 00 00
40 00 80 00 e8 3a 00 2f 80 00 8d 3a 40 00 00 00
40 00 80 00 e8 3a 40 2f c0 00 8d 3a 44 00 00 00
40 00 80 00 e8 3a 80 2f 00 01 8d 3a 48 00 00 00
40 00 80 00 e8 3a c0 2f 40 01 8d 3a 4c 00 00 00
32 00 80 05 40 3a 00 20 00 0f 00 06 00 10 03 90
