01 00 60 00 e8 3a 80 2f 40 00 00 00 00 00 00 00
01 00 60 00 e8 3a a0 2f 44 00 00 00 00 00 00 00
01 00 60 00 e8 3a c0 2f 48 00 00 00 00 00 00 00
01 00 60 00 e8 3a e0 2f 4c 00 00 00 00 00 00 00
32 00 60 05 40 3a 00 20 80 0f 00 06 00 14 03 88
01 00 80 00 e8 3a 00 2f 40 00 00 00 00 00 00 00
01 00 80 00 e8 3a 40 2f 44 00 00 00 00 00 00 00
01 00 80 00 e8 3a 80 2f 48 00 00 00 00 00 00 00
01 00 80 00 e8 3a c0 2f 4c 00 00 00 00 00 00 00
32 00 80 05 40 3a 00 20 00 0f 00 06 00 10 03 90
40 00 60 00 e8 3a 80 2f 40 00 8d 3e 00 00 80 3f
41 00 60 00 e8 3a a0 2f 40 00 8d 3e 00 00 00 40
01 00 60 00 0c 02 60 2f 20 00 8d 00 00 00 00 00
31 00 60 06 e0 3a 00 20 60 0f 8d 06 27 00 08 8a
