01 00 60 00 0c 02 60 2f 20 00 8d 00 00 00 00 00
01 00 60 00 e8 3e 80 2f 00 00 00 38 00 00 00 00
01 00 60 00 e8 3e a0 2f 00 00 00 38 00 00 00 00
01 00 60 00 e8 3e c0 2f 00 00 00 38 00 00 00 00
01 00 60 00 e8 3e e0 2f 00 00 00 38 00 00 00 00
31 00 60 06 e0 3a 00 20 60 0f 8d 06 17 00 08 8a
01 00 60 00 0c 02 60 2f 20 00 8d 00 00 00 00 00
01 00 60 00 e8 3a 80 2f 40 00 8d 00 00 00 00 00
01 00 60 00 e8 3a a0 2f 60 00 8d 00 00 00 00 00
01 00 60 00 e8 3a c0 2f 80 00 8d 00 00 00 00 00
01 00 60 00 e8 3a e0 2f a0 00 8d 00 00 00 00 00
31 00 60 06 e0 3a 00 20 60 0f 8d 06 17 00 08 8a
01 00 60 00 e8 3e 80 2f 00 00 00 38 00 00 80 3f
01 00 60 00 e8 3e a0 2f 00 00 00 38 00 00 00 00
01 00 60 00 e8 3e c0 2f 00 00 00 38 00 00 00 00
01 00 60 00 e8 3e e0 2f 00 00 00 38 00 00 80 3f
32 00 60 05 40 3a 00 20 80 0f 00 06 00 14 03 88
01 00 80 00 e8 3e 00 2f 00 00 00 38 00 00 80 3f
01 00 80 00 e8 3e 40 2f 00 00 00 38 00 00 00 00
01 00 80 00 e8 3e 80 2f 00 00 00 38 00 00 00 00
01 00 80 00 e8 3e c0 2f 00 00 00 38 00 00 80 3f
32 00 80 05 40 3a 00 20 00 0f 00 06 00 10 03 90
01 00 60 00 e8 3e 80 2f 00 00 00 38 00 00 00 00
01 00 60 00 e8 3e a0 2f 00 00 00 38 00 00 80 3f
01 00 60 00 e8 3e c0 2f 00 00 00 38 00 00 00 00
01 00 60 00 e8 3e e0 2f 00 00 00 38 00 00 80 3f
32 00 60 05 40 3a 00 20 80 0f 00 06 00 14 03 88
01 00 80 00 e8 3e 00 2f 00 00 00 38 00 00 00 00
01 00 80 00 e8 3e 40 2f 00 00 00 38 00 00 80 3f
01 00 80 00 e8 3e 80 2f 00 00 00 38 00 00 00 00
01 00 80 00 e8 3e c0 2f 00 00 00 38 00 00 80 3f
32 00 80 05 40 3a 00 20 00 0f 00 06 00 10 03 90
40 00 60 00 e8 3a 80 20 4c 00 00 3a 44 00 00 00
40 00 60 00 e8 3a a0 20 50 00 00 3a 48 00 00 00
40 00 60 00 e8 3a c0 20 54 00 00 3a 44 00 00 00
40 00 60 00 e8 3a e0 20 40 00 00 3a 48 00 00 00
01 00 60 00 0c 02 60 2f 20 00 8d 00 00 00 00 00
40 00 60 00 e8 3a 80 2f 80 00 8d 3a 58 00 00 00
40 00 60 00 e8 3a a0 2f a0 00 8d 3a 5c 00 00 00
40 00 60 00 e8 3a c0 2f c0 00 8d 3a 60 00 00 00
40 00 60 00 e8 3a e0 2f e0 00 8d 3a 64 00 00 00
31 00 60 06 e0 3a 00 20 60 0f 8d 06 17 00 08 8a
01 00 60 00 e8 0a 80 20 4c 00 00 00 00 00 00 00
01 00 60 00 e8 0a a0 20 50 00 00 00 00 00 00 00
01 00 60 00 e8 0a c0 20 54 00 00 00 00 00 00 00
01 00 60 00 e8 0a e0 20 40 00 00 00 00 00 00 00
01 00 60 00 e8 0a 00 21 44 00 00 00 00 00 00 00
01 00 60 00 e8 0a 20 21 48 00 00 00 00 00 00 00
01 00 60 00 e8 0a c0 21 58 00 00 00 00 00 00 00
01 00 60 00 e8 0a e0 21 5c 00 00 00 00 00 00 00
01 00 60 00 e8 0a 00 22 60 00 00 00 00 00 00 00
01 00 60 00 e8 0a 20 22 64 00 00 00 00 00 00 00
01 00 60 00 0c 02 60 2f 20 00 8d 00 00 00 00 00
40 00 60 00 e8 3a 40 21 80 00 8d 3a 00 01 8d 00
40 00 60 00 e8 3a 80 21 c0 00 8d 3a 00 01 8d 00
40 00 60 00 e8 3a 60 21 a0 00 8d 3a 20 01 8d 00
40 00 60 00 e8 3a a0 21 e0 00 8d 3a 20 01 8d 00
40 00 60 00 e8 3a 80 2f 40 01 8d 3a c0 01 8d 00
40 00 60 00 e8 3a c0 2f 80 01 8d 3a 00 02 8d 00
40 00 60 00 e8 3a a0 2f 60 01 8d 3a e0 01 8d 00
40 00 60 00 e8 3a e0 2f a0 01 8d 3a 20 02 8d 00
31 00 60 06 e0 3a 00 20 60 0f 8d 06 17 00 08 8a
01 00 60 00 e8 02 80 20 4c 00 00 00 00 00 00 00
01 00 60 00 e8 02 a0 20 50 00 00 00 00 00 00 00
01 00 60 00 e8 02 c0 20 54 00 00 00 00 00 00 00
01 00 60 00 e8 02 e0 20 40 00 00 00 00 00 00 00
01 00 60 00 e8 02 00 21 44 00 00 00 00 00 00 00
01 00 60 00 e8 02 20 21 48 00 00 00 00 00 00 00
01 00 60 00 e8 02 c0 21 58 00 00 00 00 00 00 00
01 00 60 00 e8 02 e0 21 5c 00 00 00 00 00 00 00
01 00 60 00 e8 02 00 22 60 00 00 00 00 00 00 00
01 00 60 00 e8 02 20 22 64 00 00 00 00 00 00 00
01 00 60 00 0c 02 60 2f 20 00 8d 00 00 00 00 00
40 00 60 00 e8 3a 40 21 80 00 8d 3a 00 01 8d 00
40 00 60 00 e8 3a 80 21 c0 00 8d 3a 00 01 8d 00
40 00 60 00 e8 3a 60 21 a0 00 8d 3a 20 01 8d 00
40 00 60 00 e8 3a a0 21 e0 00 8d 3a 20 01 8d 00
40 00 60 00 e8 3a 80 2f 40 01 8d 3a c0 01 8d 00
40 00 60 00 e8 3a c0 2f 80 01 8d 3a 00 02 8d 00
40 00 60 00 e8 3a a0 2f 60 01 8d 3a e0 01 8d 00
40 00 60 00 e8 3a e0 2f a0 01 8d 3a 20 02 8d 00
31 00 60 06 e0 3a 00 20 60 0f 8d 06 17 00 08 8a
40 00 60 00 e8 3a c0 20 40 00 00 3a 64 00 00 00
40 00 60 00 e8 3a e0 20 44 00 00 3a 68 00 00 00
40 00 60 00 e8 3a 00 21 88 00 00 3a 48 00 00 00
40 00 60 00 e8 3a 20 21 8c 00 00 3a 4c 00 00 00
40 00 60 00 e8 3a 80 21 6c 00 00 3a 90 00 00 00
40 00 60 00 e8 3a a0 21 70 00 00 3a 94 00 00 00
40 00 60 00 e8 3a c0 21 74 00 00 3a 98 00 00 00
40 00 60 00 e8 3a 00 23 60 00 00 3a 84 00 00 00
01 00 60 00 0c 02 60 2f 20 00 8d 00 00 00 00 00
40 00 60 00 e8 3a 40 21 c0 00 8d 3a 00 01 8d 00
40 00 60 00 e8 3a 60 21 e0 00 8d 3a 20 01 8d 00
40 00 60 00 e8 3a 20 22 50 00 00 3a c0 01 8d 00
40 00 60 00 e8 3a e0 2f 00 03 8d 3a a8 00 00 00
40 00 60 00 e8 3a e0 21 40 01 8d 3a 80 01 8d 00
40 00 60 00 e8 3a 00 22 60 01 8d 3a a0 01 8d 00
40 00 60 00 e8 3a 80 22 20 02 8d 3a 5c 00 00 00
40 00 60 00 e8 3a 40 22 e0 01 8d 3a 54 00 00 00
40 00 60 00 e8 3a 60 22 00 02 8d 3a 58 00 00 00
40 00 60 00 e8 3a e0 22 80 02 8d 3a 80 00 00 00
40 00 60 00 e8 3a a0 22 40 02 8d 3a 78 00 00 00
40 00 60 00 e8 3a c0 22 60 02 8d 3a 7c 00 00 00
40 00 60 00 e8 3a c0 2f e0 02 8d 3a a4 00 00 00
40 00 60 00 e8 3a 80 2f a0 02 8d 3a 9c 00 00 00
40 00 60 00 e8 3a a0 2f c0 02 8d 3a a0 00 00 00
31 00 60 06 e0 3a 00 20 60 0f 8d 06 17 00 08 8a
