01 00 80 00 0c 02 c0 2e 00 00 8d 00 00 00 00 00
01 00 60 00 e8 3e 00 2f 00 00 00 38 00 00 00 00
01 00 60 00 e8 3e 20 2f 00 00 00 38 00 00 00 00
01 00 60 00 e8 3e 40 2f 00 00 00 38 00 00 00 00
01 00 60 00 e8 3e 60 2f 00 00 00 38 00 00 00 00
01 00 60 00 e8 3e 80 2f 00 00 00 38 00 00 00 00
01 00 60 00 e8 3e a0 2f 00 00 00 38 00 00 00 00
01 00 60 00 e8 3e c0 2f 00 00 00 38 00 00 00 00
01 00 60 00 e8 3e e0 2f 00 00 00 38 00 00 00 00
32 00 60 05 40 3a 00 20 c0 0e 00 06 00 12 0b 94
01 00 80 00 0c 02 40 20 00 00 8d 00 00 00 00 00
01 00 60 00 e8 3e 80 20 00 00 00 38 00 00 00 00
01 00 60 00 e8 3e a0 20 00 00 00 38 00 00 00 00
01 00 60 00 e8 3e c0 20 00 00 00 38 00 00 00 00
01 00 60 00 e8 3e e0 20 00 00 00 38 00 00 00 00
01 00 60 00 e8 3e 00 21 00 00 00 38 00 00 00 00
01 00 60 00 e8 3e 20 21 00 00 00 38 00 00 00 00
01 00 60 00 e8 3e 40 21 00 00 00 38 00 00 00 00
01 00 60 00 e8 3e 60 21 00 00 00 38 00 00 00 00
32 00 60 05 40 3a 00 20 40 00 00 06 00 12 0b 14
01 00 80 00 0c 02 c0 2e 00 00 8d 00 00 00 00 00
01 10 60 00 e8 3e 00 2f 00 00 00 38 00 00 00 00
01 10 60 00 e8 3e 20 2f 00 00 00 38 00 00 00 00
01 10 60 00 e8 3e 40 2f 00 00 00 38 00 00 00 00
01 10 60 00 e8 3e 60 2f 00 00 00 38 00 00 00 00
01 10 60 00 e8 3e 80 2f 00 00 00 38 00 00 00 00
01 10 60 00 e8 3e a0 2f 00 00 00 38 00 00 00 00
01 10 60 00 e8 3e c0 2f 00 00 00 38 00 00 00 00
01 10 60 00 e8 3e e0 2f 00 00 00 38 00 00 00 00
32 10 60 05 40 3a 00 20 c0 0e 00 06 00 13 0b 94
01 00 60 00 0c 02 60 2f 20 00 8d 00 00 00 00 00
01 00 60 00 e8 3e 80 2f 00 00 00 38 00 00 00 00
01 00 60 00 e8 3e a0 2f 00 00 00 38 00 00 00 00
01 00 60 00 e8 3e c0 2f 00 00 00 38 00 00 00 00
01 00 60 00 e8 3e e0 2f 00 00 00 38 00 00 00 00
31 00 60 06 e0 3a 00 20 60 0f 8d 06 17 00 08 8a
01 00 80 00 0c 02 c0 2e 00 00 8d 00 00 00 00 00
01 00 60 00 e8 3e 00 2f 00 00 00 38 00 00 00 00
01 00 60 00 e8 3e 20 2f 00 00 00 38 00 00 00 00
01 00 60 00 e8 3e 40 2f 00 00 00 38 00 00 00 00
01 00 60 00 e8 3e 60 2f 00 00 00 38 00 00 00 00
01 00 60 00 e8 3e 80 2f 00 00 00 38 00 00 00 00
01 00 60 00 e8 3e a0 2f 00 00 00 38 00 00 00 00
01 00 60 00 e8 3e c0 2f 00 00 00 38 00 00 00 00
01 00 60 00 e8 3e e0 2f 00 00 00 38 00 00 00 00
32 00 60 05 40 3a 00 20 c0 0e 00 06 00 12 0b 94
01 00 80 00 0c 02 40 20 00 00 8d 00 00 00 00 00
01 00 60 00 e8 3e 80 20 00 00 00 38 00 00 00 00
01 00 60 00 e8 3e a0 20 00 00 00 38 00 00 00 00
01 00 60 00 e8 3e c0 20 00 00 00 38 00 00 00 00
01 00 60 00 e8 3e e0 20 00 00 00 38 00 00 00 00
01 00 60 00 e8 3e 00 21 00 00 00 38 00 00 00 00
01 00 60 00 e8 3e 20 21 00 00 00 38 00 00 00 00
01 00 60 00 e8 3e 40 21 00 00 00 38 00 00 00 00
01 00 60 00 e8 3e 60 21 00 00 00 38 00 00 00 00
32 00 60 05 40 3a 00 20 40 00 00 06 00 12 0b 14
01 00 80 00 0c 02 c0 2e 00 00 8d 00 00 00 00 00
01 10 60 00 e8 3e 00 2f 00 00 00 38 00 00 00 00
01 10 60 00 e8 3e 20 2f 00 00 00 38 00 00 00 00
01 10 60 00 e8 3e 40 2f 00 00 00 38 00 00 00 00
01 10 60 00 e8 3e 60 2f 00 00 00 38 00 00 00 00
01 10 60 00 e8 3e 80 2f 00 00 00 38 00 00 00 00
01 10 60 00 e8 3e a0 2f 00 00 00 38 00 00 00 00
01 10 60 00 e8 3e c0 2f 00 00 00 38 00 00 00 00
01 10 60 00 e8 3e e0 2f 00 00 00 38 00 00 00 00
32 10 60 05 40 3a 00 20 c0 0e 00 06 00 13 0b 94
01 00 60 00 0c 02 60 2f 20 00 8d 00 00 00 00 00
01 00 60 00 e8 3e 80 2f 00 00 00 38 00 00 00 00
01 00 60 00 e8 3e a0 2f 00 00 00 38 00 00 00 00
01 00 60 00 e8 3e c0 2f 00 00 00 38 00 00 00 00
01 00 60 00 e8 3e e0 2f 00 00 00 38 00 00 00 00
31 00 60 06 e0 3a 00 20 60 0f 8d 06 17 00 08 8a
