5a 00 60 00 e8 3a a0 20 c0 00 00 3a 40 00 8d 00
5a 00 60 00 e8 3a e0 20 d0 00 00 3a 40 00 8d 00
5a 00 60 00 e8 3a 00 21 80 00 00 3a 40 00 8d 00
5a 00 60 00 e8 3a 20 21 90 00 00 3a 40 00 8d 00
01 00 60 00 e8 3e c0 2f 00 00 00 38 00 00 00 00
01 00 60 00 e8 3e e0 2f 00 00 00 38 00 00 80 3f
40 00 60 00 e8 3a 40 21 a0 00 8d 3a 00 41 8d 00
40 00 60 00 e8 3a 60 21 e0 00 8d 3a 20 41 8d 00
41 00 60 00 e8 3a 80 2f 40 21 8d 3e 00 00 a0 40
41 00 60 00 e8 3a a0 2f 60 21 8d 3e 00 00 a0 40
32 00 60 05 40 3a 00 20 80 0f 00 06 00 14 03 88
5a 00 80 00 e8 3a 20 21 00 01 00 3a 40 00 8d 00
5a 00 80 00 e8 3a 60 21 10 01 00 3a 40 00 8d 00
5a 00 80 00 e8 3a a0 21 c0 00 00 3a 40 00 8d 00
5a 00 80 00 e8 3a e0 21 d0 00 00 3a 40 00 8d 00
01 00 80 00 e8 3e 80 2f 00 00 00 38 00 00 00 00
01 00 80 00 e8 3e c0 2f 00 00 00 38 00 00 80 3f
40 00 80 00 e8 3a 20 22 20 01 8d 3a a0 41 8d 00
40 00 80 00 e8 3a 60 22 60 01 8d 3a e0 41 8d 00
41 00 80 00 e8 3a 00 2f 20 22 8d 3e 00 00 a0 40
41 00 80 00 e8 3a 40 2f 60 22 8d 3e 00 00 a0 40
32 00 80 05 40 3a 00 20 00 0f 00 06 00 10 03 90
01 00 60 00 0c 02 c0 20 20 00 8d 00 00 00 00 00
01 00 60 00 e8 3a e0 20 40 00 8d 00 00 00 00 00
01 00 60 00 e8 3a 00 21 60 00 8d 00 00 00 00 00
01 00 60 00 e8 3a 20 21 80 00 8d 00 00 00 00 00
01 00 60 00 e8 3a 40 21 a0 00 8d 00 00 00 00 00
01 00 60 00 e8 3a 60 21 40 00 8d 00 00 00 00 00
01 00 60 00 e8 3a 80 21 60 00 8d 00 00 00 00 00
31 00 60 06 e0 3a 00 20 c0 00 8d 06 17 00 08 12
01 00 60 00 0c 02 60 2f 20 00 8d 00 00 00 00 00
01 00 60 00 e8 3a 80 2f 40 00 8d 00 00 00 00 00
01 00 60 00 e8 3a a0 2f 60 00 8d 00 00 00 00 00
31 00 60 06 e0 3a 00 20 60 0f 8d 06 37 00 08 8a
40 00 80 00 4c 12 a0 20 28 00 28 36 10 10 00 11
01 00 60 00 e8 3e 20 21 00 00 00 38 00 00 00 00
01 00 60 00 e8 3e 40 21 00 00 00 38 00 00 00 00
01 00 60 00 e8 3e a0 21 00 00 00 38 01 00 00 00
01 00 60 00 e8 3e c0 21 00 00 00 38 00 00 00 00
01 00 60 00 e8 3e 20 22 00 00 00 38 02 00 00 00
01 00 60 00 e8 3e 40 22 00 00 00 38 00 00 00 00
01 00 60 00 e8 3e a0 22 00 00 00 38 03 00 00 00
01 00 60 00 e8 3e c0 22 00 00 00 38 00 00 00 00
01 00 60 00 e8 12 40 20 a0 00 89 00 00 00 00 00
01 00 60 00 e8 12 60 20 a8 00 89 00 00 00 00 00
40 00 60 00 e8 3a c0 20 40 00 8d 3e 00 00 00 3f
40 00 60 00 e8 3a e0 20 60 00 8d 3e 00 00 00 3f
01 00 60 00 28 3a 60 21 c0 00 8d 00 00 00 00 00
5b 01 60 00 00 00 1e 08 01 42 20 00 08 20 c7 01
01 00 60 00 e8 3a e0 21 60 01 8d 00 00 00 00 00
01 00 60 00 e8 3a 60 22 60 01 8d 00 00 00 00 00
01 00 60 00 e8 3a e0 22 60 01 8d 00 00 00 00 00
01 00 60 00 28 3a 80 21 00 01 8d 00 00 00 00 00
31 00 60 02 48 3a 40 20 20 01 00 06 01 e0 43 08
01 00 60 00 e8 3a 00 22 80 01 8d 00 00 00 00 00
01 00 60 00 e8 3a 80 22 80 01 8d 00 00 00 00 00
01 00 60 00 e8 3a 00 23 80 01 8d 00 00 00 00 00
31 00 60 02 48 3a c0 20 a0 01 00 06 01 e0 43 08
31 00 60 02 48 3a c0 21 20 02 00 06 01 e0 43 08
31 00 60 02 48 3a 40 22 a0 02 00 06 01 e0 43 08
40 00 60 00 e8 3a 40 21 40 00 8d 3a c0 00 8d 00
40 00 60 00 e8 3a 60 21 60 00 8d 3a e0 00 8d 00
40 00 60 00 e8 3a 80 21 80 00 8d 3a 00 01 8d 00
40 00 60 00 e8 3a a0 21 a0 00 8d 3a 20 01 8d 00
40 00 60 00 e8 3a 40 20 40 01 8d 3a c0 01 8d 00
40 00 60 00 e8 3a 60 20 60 01 8d 3a e0 01 8d 00
40 00 60 00 e8 3a 80 20 80 01 8d 3a 00 02 8d 00
40 00 60 00 e8 3a a0 20 a0 01 8d 3a 20 02 8d 00
40 00 60 00 e8 3a 80 2f 40 00 8d 3a 40 02 8d 00
40 00 60 00 e8 3a 40 20 60 00 8d 3a 60 02 8d 00
40 00 60 00 e8 3a c0 2f 80 00 8d 3a 80 02 8d 00
40 00 60 00 e8 3a e0 2f a0 00 8d 3a a0 02 8d 00
40 00 60 00 e8 3a a0 2f 40 40 8d 3e 00 00 80 3f
32 00 60 05 40 3a 00 20 80 0f 00 06 00 14 03 88
40 00 a0 00 4c 12 e0 20 28 00 28 36 10 10 00 11
01 00 80 00 e8 3e 60 21 00 00 00 38 00 00 00 00
01 00 80 00 e8 3e a0 21 00 00 00 38 00 00 00 00
01 00 80 00 e8 3e 60 22 00 00 00 38 01 00 00 00
01 00 80 00 e8 3e a0 22 00 00 00 38 00 00 00 00
01 00 80 00 e8 3e 60 23 00 00 00 38 02 00 00 00
01 00 80 00 e8 3e a0 23 00 00 00 38 00 00 00 00
01 00 80 00 e8 3e 60 24 00 00 00 38 03 00 00 00
01 00 80 00 e8 3e a0 24 00 00 00 38 00 00 00 00
01 00 80 00 e8 12 40 20 e0 00 89 00 00 00 00 00
01 00 80 00 e8 12 80 20 e8 00 89 00 00 00 00 00
40 00 80 00 e8 3a 00 21 40 00 8d 3e 00 00 00 3f
40 00 80 00 e8 3a 60 25 80 00 8d 3e 00 00 00 3f
01 00 80 00 28 3a e0 21 00 01 8d 00 00 00 00 00
5b 01 80 00 00 00 1e 2d 01 62 20 00 0c 20 c7 0a
01 00 80 00 e8 3a e0 22 e0 01 8d 00 00 00 00 00
01 00 80 00 e8 3a e0 23 e0 01 8d 00 00 00 00 00
01 00 80 00 e8 3a e0 24 e0 01 8d 00 00 00 00 00
01 00 80 00 28 3a 20 22 a0 05 8d 00 00 00 00 00
31 00 80 02 48 3a 60 25 60 01 00 06 01 e0 85 10
01 00 80 00 e8 3a 20 23 20 02 8d 00 00 00 00 00
01 00 80 00 e8 3a 20 24 20 02 8d 00 00 00 00 00
01 00 80 00 e8 3a 20 25 20 02 8d 00 00 00 00 00
31 00 80 02 48 3a 60 26 60 02 00 06 01 e0 85 10
31 00 80 02 48 3a 40 20 60 03 00 06 01 e0 85 10
31 00 80 02 48 3a 40 21 60 04 00 06 01 e0 85 10
40 00 80 00 e8 3a 40 22 60 05 8d 3a 60 06 8d 00
40 00 80 00 e8 3a 80 22 a0 05 8d 3a a0 06 8d 00
40 00 80 00 e8 3a c0 22 e0 05 8d 3a e0 06 8d 00
40 00 80 00 e8 3a 00 23 20 06 8d 3a 20 07 8d 00
40 00 80 00 e8 3a 40 23 40 02 8d 3a 40 00 8d 00
40 00 80 00 e8 3a 80 23 80 02 8d 3a 80 00 8d 00
40 00 80 00 e8 3a c0 23 c0 02 8d 3a c0 00 8d 00
40 00 80 00 e8 3a 00 24 00 03 8d 3a 00 01 8d 00
40 00 80 00 e8 3a 00 2f 40 03 8d 3a 40 01 8d 00
40 00 80 00 e8 3a 40 24 80 03 8d 3a 80 01 8d 00
40 00 80 00 e8 3a 80 2f c0 03 8d 3a c0 01 8d 00
40 00 80 00 e8 3a c0 2f 00 04 8d 3a 00 02 8d 00
40 00 80 00 e8 3a 40 2f 40 44 8d 3e 00 00 80 3f
32 00 80 05 40 3a 00 20 00 0f 00 06 00 10 03 90
01 00 60 00 0c 02 60 2f 20 00 8d 00 00 00 00 00
01 00 60 00 e8 3a 80 2f 40 00 8d 00 00 00 00 00
01 00 60 00 e8 3a a0 2f 60 00 8d 00 00 00 00 00
01 00 60 00 e8 3a c0 2f 80 00 8d 00 00 00 00 00
01 00 60 00 e8 3a e0 2f a0 00 8d 00 00 00 00 00
31 00 60 06 e0 3a 00 20 60 0f 8d 06 17 00 08 8a
5a 00 60 00 e8 3a a0 20 c0 00 00 3a 40 00 8d 00
5a 00 60 00 e8 3a e0 20 d0 00 00 3a 40 00 8d 00
5a 00 60 00 e8 3a 00 21 80 00 00 3a 40 00 8d 00
5a 00 60 00 e8 3a 20 21 90 00 00 3a 40 00 8d 00
01 00 60 00 e8 3e c0 2f 00 00 00 38 00 00 00 00
01 00 60 00 e8 3e e0 2f 00 00 00 38 00 00 80 3f
40 00 60 00 e8 3a 40 21 a0 00 8d 3a 00 41 8d 00
40 00 60 00 e8 3a 60 21 e0 00 8d 3a 20 41 8d 00
41 00 60 00 e8 3a 80 2f 40 21 8d 3e 00 00 a0 40
41 00 60 00 e8 3a a0 2f 60 21 8d 3e 00 00 a0 40
32 00 60 05 40 3a 00 20 80 0f 00 06 00 14 03 88
5a 00 80 00 e8 3a 20 21 00 01 00 3a 40 00 8d 00
5a 00 80 00 e8 3a 60 21 10 01 00 3a 40 00 8d 00
5a 00 80 00 e8 3a a0 21 c0 00 00 3a 40 00 8d 00
5a 00 80 00 e8 3a e0 21 d0 00 00 3a 40 00 8d 00
01 00 80 00 e8 3e 80 2f 00 00 00 38 00 00 00 00
01 00 80 00 e8 3e c0 2f 00 00 00 38 00 00 80 3f
40 00 80 00 e8 3a 20 22 20 01 8d 3a a0 41 8d 00
40 00 80 00 e8 3a 60 22 60 01 8d 3a e0 41 8d 00
41 00 80 00 e8 3a 00 2f 20 22 8d 3e 00 00 a0 40
41 00 80 00 e8 3a 40 2f 60 22 8d 3e 00 00 a0 40
32 00 80 05 40 3a 00 20 00 0f 00 06 00 10 03 90
40 00 80 00 4c 12 a0 20 28 00 28 36 10 10 00 11
01 00 60 00 e8 3e 20 21 00 00 00 38 00 00 00 00
01 00 60 00 e8 3e a0 21 00 00 00 38 01 00 00 00
01 00 60 00 e8 3e 20 22 00 00 00 38 02 00 00 00
01 00 60 00 e8 3e a0 22 00 00 00 38 03 00 00 00
01 00 60 00 e8 12 40 20 a0 00 89 00 00 00 00 00
01 00 60 00 e8 12 60 20 a8 00 89 00 00 00 00 00
40 00 60 00 e8 3a c0 20 40 00 8d 3e 00 00 00 3f
40 00 60 00 e8 3a e0 20 60 00 8d 3e 00 00 00 3f
01 00 60 00 28 3a 60 21 c0 00 8d 00 00 00 00 00
5b 01 60 00 00 00 1e 08 01 42 20 00 08 20 c7 01
01 00 60 00 e8 3a e0 21 60 01 8d 00 00 00 00 00
01 00 60 00 e8 3a 60 22 60 01 8d 00 00 00 00 00
01 00 60 00 e8 3a e0 22 60 01 8d 00 00 00 00 00
01 00 60 00 28 3a 80 21 00 01 8d 00 00 00 00 00
31 00 60 02 48 3a 40 20 60 01 00 06 01 d0 43 04
01 00 60 00 e8 3a 00 22 80 01 8d 00 00 00 00 00
01 00 60 00 e8 3a 80 22 80 01 8d 00 00 00 00 00
01 00 60 00 e8 3a 00 23 80 01 8d 00 00 00 00 00
01 00 60 00 e8 3a 40 21 40 00 8d 00 00 00 00 00
01 00 60 00 e8 3a c0 21 40 00 8d 00 00 00 00 00
01 00 60 00 e8 3a 40 22 40 00 8d 00 00 00 00 00
01 00 60 00 e8 3a c0 22 40 00 8d 00 00 00 00 00
31 00 60 02 48 3a 40 20 20 01 00 06 01 e0 43 08
31 00 60 02 48 3a c0 20 a0 01 00 06 01 e0 43 08
31 00 60 02 48 3a c0 21 20 02 00 06 01 e0 43 08
31 00 60 02 48 3a 40 22 a0 02 00 06 01 e0 43 08
40 00 60 00 e8 3a 40 21 40 00 8d 3a c0 00 8d 00
40 00 60 00 e8 3a 60 21 60 00 8d 3a e0 00 8d 00
40 00 60 00 e8 3a 80 21 80 00 8d 3a 00 01 8d 00
40 00 60 00 e8 3a a0 21 a0 00 8d 3a 20 01 8d 00
40 00 60 00 e8 3a 40 20 40 01 8d 3a c0 01 8d 00
40 00 60 00 e8 3a 60 20 60 01 8d 3a e0 01 8d 00
40 00 60 00 e8 3a 80 20 80 01 8d 3a 00 02 8d 00
40 00 60 00 e8 3a a0 20 a0 01 8d 3a 20 02 8d 00
40 00 60 00 e8 3a 80 2f 40 00 8d 3a 40 02 8d 00
40 00 60 00 e8 3a 40 20 60 00 8d 3a 60 02 8d 00
40 00 60 00 e8 3a c0 2f 80 00 8d 3a 80 02 8d 00
40 00 60 00 e8 3a e0 2f a0 00 8d 3a a0 02 8d 00
40 00 60 00 e8 3a a0 2f 40 40 8d 3e 00 00 80 3f
32 00 60 05 40 3a 00 20 80 0f 00 06 00 14 03 88
40 00 a0 00 4c 12 e0 20 28 00 28 36 10 10 00 11
01 00 80 00 e8 3e 60 21 00 00 00 38 00 00 00 00
01 00 80 00 e8 3e 60 22 00 00 00 38 01 00 00 00
01 00 80 00 e8 3e 60 23 00 00 00 38 02 00 00 00
01 00 80 00 e8 3e 60 24 00 00 00 38 03 00 00 00
01 00 80 00 e8 12 40 20 e0 00 89 00 00 00 00 00
01 00 80 00 e8 12 80 20 e8 00 89 00 00 00 00 00
40 00 80 00 e8 3a 00 21 40 00 8d 3e 00 00 00 3f
40 00 80 00 e8 3a 60 25 80 00 8d 3e 00 00 00 3f
01 00 80 00 28 3a e0 21 00 01 8d 00 00 00 00 00
5b 01 80 00 00 00 1e 2d 01 62 20 00 0c 20 c7 0a
01 00 80 00 e8 3a e0 22 e0 01 8d 00 00 00 00 00
01 00 80 00 e8 3a e0 23 e0 01 8d 00 00 00 00 00
01 00 80 00 e8 3a e0 24 e0 01 8d 00 00 00 00 00
01 00 80 00 28 3a 20 22 a0 05 8d 00 00 00 00 00
31 00 80 02 48 3a 40 20 e0 01 00 06 01 d0 85 08
01 00 80 00 e8 3a 20 23 20 02 8d 00 00 00 00 00
01 00 80 00 e8 3a 20 24 20 02 8d 00 00 00 00 00
01 00 80 00 e8 3a 20 25 20 02 8d 00 00 00 00 00
01 00 80 00 e8 3a a0 21 40 00 8d 00 00 00 00 00
01 00 80 00 e8 3a a0 22 40 00 8d 00 00 00 00 00
01 00 80 00 e8 3a a0 23 40 00 8d 00 00 00 00 00
01 00 80 00 e8 3a a0 24 40 00 8d 00 00 00 00 00
31 00 80 02 48 3a 60 25 60 01 00 06 01 e0 85 10
31 00 80 02 48 3a 60 26 60 02 00 06 01 e0 85 10
31 00 80 02 48 3a 40 20 60 03 00 06 01 e0 85 10
31 00 80 02 48 3a 40 21 60 04 00 06 01 e0 85 10
40 00 80 00 e8 3a 40 22 60 05 8d 3a 60 06 8d 00
40 00 80 00 e8 3a 80 22 a0 05 8d 3a a0 06 8d 00
40 00 80 00 e8 3a c0 22 e0 05 8d 3a e0 06 8d 00
40 00 80 00 e8 3a 00 23 20 06 8d 3a 20 07 8d 00
40 00 80 00 e8 3a 40 23 40 02 8d 3a 40 00 8d 00
40 00 80 00 e8 3a 80 23 80 02 8d 3a 80 00 8d 00
40 00 80 00 e8 3a c0 23 c0 02 8d 3a c0 00 8d 00
40 00 80 00 e8 3a 00 24 00 03 8d 3a 00 01 8d 00
40 00 80 00 e8 3a 00 2f 40 03 8d 3a 40 01 8d 00
40 00 80 00 e8 3a 40 24 80 03 8d 3a 80 01 8d 00
40 00 80 00 e8 3a 80 2f c0 03 8d 3a c0 01 8d 00
40 00 80 00 e8 3a c0 2f 00 04 8d 3a 00 02 8d 00
40 00 80 00 e8 3a 40 2f 40 44 8d 3e 00 00 80 3f
32 00 80 05 40 3a 00 20 00 0f 00 06 00 10 03 90
40 00 80 00 4c 12 c0 20 28 00 28 36 10 10 00 11
01 00 60 00 e8 3a e0 21 ec 00 00 00 00 00 00 00
01 00 60 00 e8 12 40 20 c0 00 89 00 00 00 00 00
01 00 60 00 e8 12 60 20 c8 00 89 00 00 00 00 00
01 00 60 00 28 3a e0 20 40 00 8d 00 00 00 00 00
01 00 60 00 28 3a 00 21 60 00 8d 00 00 00 00 00
01 00 60 00 e8 0a 20 21 e0 00 8d 00 00 00 00 00
01 00 60 00 e8 0a 40 21 00 01 8d 00 00 00 00 00
5b 01 60 00 00 00 1e 0b 01 4e 20 c0 08 20 47 02
5b 01 60 00 00 00 1e 0c 01 5e 20 c0 0a 20 87 02
01 00 60 00 28 3a a0 21 60 01 8d 00 00 00 00 00
01 00 60 00 28 3a c0 21 80 01 8d 00 00 00 00 00
31 00 60 02 48 3a 80 2f a0 01 00 06 01 a0 43 06
32 00 60 05 40 3a 00 20 80 0f 00 06 00 14 03 88
40 00 a0 00 4c 12 40 21 28 00 28 36 10 10 00 11
01 00 80 00 e8 3a 60 23 2c 01 00 00 00 00 00 00
01 00 80 00 e8 12 40 20 40 01 89 00 00 00 00 00
01 00 80 00 e8 12 80 20 48 01 89 00 00 00 00 00
01 00 80 00 28 3a 60 21 40 00 8d 00 00 00 00 00
01 00 80 00 28 3a a0 21 80 00 8d 00 00 00 00 00
01 00 80 00 e8 0a e0 21 60 01 8d 00 00 00 00 00
01 00 80 00 e8 0a 20 22 a0 01 8d 00 00 00 00 00
5b 01 80 00 00 00 1e 13 01 6e 20 c0 0c 20 c7 03
5b 01 80 00 00 00 1e 15 01 7e 20 c0 0e 20 47 04
01 00 80 00 28 3a e0 22 60 02 8d 00 00 00 00 00
01 00 80 00 28 3a 20 23 a0 02 8d 00 00 00 00 00
31 00 80 02 48 3a 00 2f e0 02 00 06 01 a0 85 0c
32 00 80 05 40 3a 00 20 00 0f 00 06 00 10 03 90
