40 00 80 00 4c 12 a0 20 28 00 28 36 10 10 00 11
01 00 60 00 e8 12 40 20 a0 00 89 00 00 00 00 00
01 00 60 00 e8 12 60 20 a8 00 89 00 00 00 00 00
40 00 60 00 e8 3a c0 20 40 00 8d 3e 00 00 00 3f
40 00 60 00 e8 3a e0 20 60 00 8d 3e 00 00 00 3f
01 00 60 00 08 3a 20 21 c0 00 8d 00 00 00 00 00
5b 01 60 00 00 00 1e 08 01 46 20 80 08 20 c7 01
01 00 60 00 08 3a 40 21 00 01 8d 00 00 00 00 00
09 00 60 00 28 0a 60 21 40 01 8d 06 05 00 00 00
40 00 60 00 28 0a 40 22 20 01 8d 0a 60 01 8d 00
40 00 60 00 28 0a 80 21 40 02 8d 0a 80 00 00 00
10 00 60 05 00 02 00 20 40 02 8d 02 84 00 00 00
06 00 60 00 08 02 a0 21 80 01 8d 06 01 00 00 00
01 00 60 00 08 22 c0 21 a0 01 cf 00 00 00 00 00
22 00 61 00 20 0e 00 20 60 00 00 00 50 00 00 00
31 00 60 02 48 3a 20 22 40 02 00 06 01 a0 13 02
10 00 60 01 28 0a e0 21 20 02 8d 0a c0 01 8d 00
01 00 60 00 e8 0a a0 2f e0 41 8d 00 00 00 00 00
24 00 60 00 20 0e 00 20 20 00 00 00 20 00 00 00
01 00 60 00 28 0e a0 2f 00 00 00 08 00 00 80 3f
25 00 60 00 00 0e 00 00 00 00 00 08 10 00 00 00
40 00 60 00 e8 3a 80 2f a0 4f 8d 3e 00 00 80 3f
01 00 60 00 e8 3e c0 2f 00 00 00 38 00 00 00 00
01 00 60 00 e8 3e e0 2f 00 00 00 38 00 00 00 00
32 00 60 05 40 3a 00 20 80 0f 00 06 00 14 03 88
40 00 a0 00 4c 12 e0 20 28 00 28 36 10 10 00 11
01 00 80 00 e8 12 40 20 e0 00 89 00 00 00 00 00
01 00 80 00 e8 12 80 20 e8 00 89 00 00 00 00 00
40 00 80 00 e8 3a 00 21 40 00 8d 3e 00 00 00 3f
40 00 80 00 e8 3a 40 21 80 00 8d 3e 00 00 00 3f
01 00 80 00 08 3a c0 21 00 01 8d 00 00 00 00 00
5b 01 80 00 00 00 1e 0c 01 66 20 80 0c 20 87 02
01 00 80 00 08 3a 00 22 80 01 8d 00 00 00 00 00
09 00 80 00 28 0a 40 22 00 02 8d 06 05 00 00 00
40 00 80 00 28 0a 80 20 c0 01 8d 0a 40 02 8d 00
40 00 80 00 28 0a 60 22 80 00 8d 0a c0 00 00 00
10 00 80 05 00 02 00 20 80 00 8d 02 c4 00 00 00
06 00 80 00 08 02 a0 22 60 02 8d 06 01 00 00 00
01 00 80 00 08 22 e0 22 a0 02 cf 00 00 00 00 00
22 00 81 00 20 0e 00 20 60 00 00 00 50 00 00 00
31 00 80 02 48 3a 40 20 80 00 00 06 01 a0 25 04
10 00 80 01 28 0a 20 23 40 00 8d 0a e0 02 8d 00
01 00 80 00 e8 0a 40 2f 20 43 8d 00 00 00 00 00
24 00 80 00 20 0e 00 20 20 00 00 00 20 00 00 00
01 00 80 00 28 0e 40 2f 00 00 00 08 00 00 80 3f
25 00 80 00 00 0e 00 00 00 00 00 08 10 00 00 00
40 00 80 00 e8 3a 00 2f 40 4f 8d 3e 00 00 80 3f
01 00 80 00 e8 3e 80 2f 00 00 00 38 00 00 00 00
01 00 80 00 e8 3e c0 2f 00 00 00 38 00 00 00 00
32 00 80 05 40 3a 00 20 00 0f 00 06 00 10 03 90
01 00 60 00 0c 02 60 2f 20 00 8d 00 00 00 00 00
01 00 60 00 e8 3a 80 2f 40 00 8d 00 00 00 00 00
01 00 60 00 e8 3a a0 2f 60 00 8d 00 00 00 00 00
01 00 60 00 e8 3a c0 2f 80 00 8d 00 00 00 00 00
01 00 60 00 e8 3a e0 2f a0 00 8d 00 00 00 00 00
31 00 60 06 e0 3a 00 20 60 0f 8d 06 17 00 08 8a
5a 00 60 00 e8 3a 80 2f 80 00 00 3a 40 00 8d 00
5a 00 60 00 e8 3a a0 2f 90 00 00 3a 40 00 8d 00
5a 00 60 00 e8 3a c0 2f a0 00 00 3a 40 00 8d 00
5a 00 60 00 e8 3a e0 2f b0 00 00 3a 40 00 8d 00
32 00 60 05 40 3a 00 20 80 0f 00 06 00 14 03 88
5a 00 80 00 e8 3a 00 2f c0 00 00 3a 40 00 8d 00
5a 00 80 00 e8 3a 40 2f d0 00 00 3a 40 00 8d 00
5a 00 80 00 e8 3a 80 2f e0 00 00 3a 40 00 8d 00
5a 00 80 00 e8 3a c0 2f f0 00 00 3a 40 00 8d 00
32 00 80 05 40 3a 00 20 00 0f 00 06 00 10 03 90
41 00 60 00 e8 3a c0 22 80 00 8d 3a 40 00 00 00
41 00 60 00 e8 3a e0 22 80 00 8d 3a 44 00 00 00
41 00 60 00 e8 3a 00 23 80 00 8d 3a 48 00 00 00
41 00 60 00 e8 3a 20 23 80 00 8d 3a 4c 00 00 00
01 00 60 00 0c 02 a0 21 20 00 8d 00 00 00 00 00
01 00 60 00 08 06 c0 21 00 00 00 00 00 00 00 00
01 00 60 00 08 06 e0 21 00 00 00 00 00 00 00 00
01 00 60 00 08 06 00 22 00 00 00 00 00 00 00 00
01 00 60 00 e8 3a 20 22 80 01 8d 00 00 00 00 00
5b 01 60 00 00 00 1e 1a c8 61 21 00 05 20 47 01
5b 01 60 00 00 00 1e 1b c8 71 21 40 05 20 47 01
5b 01 60 00 00 00 1e 1c c8 81 21 80 05 20 47 01
5b 01 60 00 00 00 1e 1d c8 91 21 c0 05 20 47 01
5b 01 60 00 00 00 1e 1e c8 a1 21 00 06 20 87 01
5b 01 60 00 00 00 1e 1f c8 b1 21 40 06 20 87 01
5b 01 60 00 00 00 1e 20 c8 c1 21 80 06 20 87 01
5b 01 60 00 00 00 1e 21 c8 d1 21 c0 06 20 87 01
5b 01 60 00 00 00 1e 12 c8 e1 21 00 07 20 c7 01
5b 01 60 00 00 00 1e 13 c8 f1 21 40 07 20 c7 01
5b 01 60 00 00 00 1e 14 c8 01 22 80 07 20 c7 01
5b 01 60 00 00 00 1e 15 c8 11 22 c0 07 20 c7 01
31 00 60 06 e0 3a 00 20 a0 01 8d 06 07 00 08 12
01 00 60 80 e8 3a 80 2f 00 01 8d 00 00 00 00 00
01 00 60 80 e8 3a a0 2f 20 01 8d 00 00 00 00 00
01 00 60 80 e8 3a c0 2f 40 01 8d 00 00 00 00 00
01 00 60 80 e8 3a e0 2f 60 01 8d 00 00 00 00 00
01 00 60 00 0c 02 60 2f 20 00 8d 00 00 00 00 00
31 00 60 06 e0 3a 00 20 60 0f 8d 06 27 00 08 8a
01 00 40 00 ec 3a 40 2e 4c 00 87 00 00 00 00 00
32 00 80 05 40 3a 00 20 40 0e 00 06 00 11 03 82
