01 00 80 00 0c 02 c0 2e 00 00 8d 00 00 00 00 00
01 00 60 00 e8 3a 00 2f 40 00 00 00 00 00 00 00
01 00 60 00 e8 3a 20 2f 44 00 00 00 00 00 00 00
01 00 60 00 e8 3a 40 2f 48 00 00 00 00 00 00 00
01 00 60 00 e8 3a 60 2f 4c 00 00 00 00 00 00 00
01 00 60 00 e8 3a 80 2f 50 00 00 00 00 00 00 00
01 00 60 00 e8 3a a0 2f 54 00 00 00 00 00 00 00
01 00 60 00 e8 3a c0 2f 58 00 00 00 00 00 00 00
01 00 60 00 e8 3a e0 2f 5c 00 00 00 00 00 00 00
32 00 60 05 40 3a 00 20 c0 0e 00 06 00 12 0b 94
01 00 80 00 0c 02 60 20 00 00 8d 00 00 00 00 00
01 00 60 00 e8 3a a0 20 40 00 00 00 00 00 00 00
01 00 60 00 e8 3a c0 20 44 00 00 00 00 00 00 00
01 00 60 00 e8 3a e0 20 48 00 00 00 00 00 00 00
01 00 60 00 e8 3a 00 21 4c 00 00 00 00 00 00 00
01 00 60 00 e8 3a 20 21 50 00 00 00 00 00 00 00
01 00 60 00 e8 3a 40 21 54 00 00 00 00 00 00 00
01 00 60 00 e8 3a 60 21 58 00 00 00 00 00 00 00
01 00 60 00 e8 3a 80 21 5c 00 00 00 00 00 00 00
32 00 60 05 40 3a 00 20 60 00 00 06 00 12 0b 14
01 00 80 00 0c 02 c0 2e 00 00 8d 00 00 00 00 00
01 10 60 00 e8 3a 00 2f 40 00 00 00 00 00 00 00
01 10 60 00 e8 3a 20 2f 44 00 00 00 00 00 00 00
01 10 60 00 e8 3a 40 2f 48 00 00 00 00 00 00 00
01 10 60 00 e8 3a 60 2f 4c 00 00 00 00 00 00 00
01 10 60 00 e8 3a 80 2f 50 00 00 00 00 00 00 00
01 10 60 00 e8 3a a0 2f 54 00 00 00 00 00 00 00
01 10 60 00 e8 3a c0 2f 58 00 00 00 00 00 00 00
01 10 60 00 e8 3a e0 2f 5c 00 00 00 00 00 00 00
32 10 60 05 40 3a 00 20 c0 0e 00 06 00 13 0b 94
01 00 60 00 0c 02 60 2f 20 00 8d 00 00 00 00 00
01 00 60 00 e8 3a 80 2f 40 00 8d 00 00 00 00 00
01 00 60 00 e8 3a a0 2f 60 00 8d 00 00 00 00 00
01 00 60 00 e8 3a c0 2f 80 00 8d 00 00 00 00 00
01 00 60 00 e8 3a e0 2f a0 00 8d 00 00 00 00 00
31 00 60 06 e0 3a 00 20 60 0f 8d 06 17 00 08 8a
01 00 40 00 ec 3a 40 2e 4c 00 87 00 00 00 00 00
32 00 80 05 40 3a 00 20 40 0e 00 06 00 11 03 82
