01 00 60 00 e8 3e 80 2f 00 00 00 38 00 00 00 00
01 00 60 00 e8 3e a0 2f 00 00 00 38 00 00 00 00
01 00 60 00 e8 3e c0 2f 00 00 00 38 00 00 00 00
01 00 60 00 e8 3e e0 2f 00 00 00 38 00 00 00 00
32 00 60 05 40 3a 00 20 80 0f 00 06 00 14 03 88
01 00 80 00 e8 3e 00 2f 00 00 00 38 00 00 00 00
01 00 80 00 e8 3e 40 2f 00 00 00 38 00 00 00 00
01 00 80 00 e8 3e 80 2f 00 00 00 38 00 00 00 00
01 00 80 00 e8 3e c0 2f 00 00 00 38 00 00 00 00
32 00 80 05 40 3a 00 20 00 0f 00 06 00 10 03 90
01 00 60 00 0c 02 e0 2e 20 00 8d 00 00 00 00 00
01 00 60 00 e8 3a 00 2f 40 00 8d 00 00 00 00 00
01 00 60 00 e8 3a 20 2f 60 00 8d 00 00 00 00 00
01 00 60 00 e8 3a 40 2f 80 00 8d 00 00 00 00 00
01 00 60 00 e8 3a 60 2f a0 00 8d 00 00 00 00 00
01 00 60 00 e8 3a 80 2f 40 00 8d 00 00 00 00 00
31 00 60 06 e0 3a 00 20 e0 0e 8d 06 17 00 08 92
