40 00 80 00 4c 12 60 20 28 00 28 36 10 10 00 11
01 00 60 00 e8 12 40 20 60 00 89 00 00 00 00 00
01 00 00 00 44 12 02 26 3c 00 00 00 00 00 00 00
40 00 60 00 e8 3a a0 20 40 00 8d 3e 00 00 00 3f
01 00 60 00 28 3a c0 20 a0 00 8d 00 00 00 00 00
05 00 60 00 08 02 e0 20 c0 00 8d 06 01 00 00 00
10 00 60 01 28 0a 00 21 e0 00 8d 0e 00 00 00 00
10 00 60 02 28 0a 20 21 80 00 00 0e 00 00 00 00
05 00 60 00 08 02 40 21 20 01 8d 02 00 01 8d 00
10 00 61 01 21 0a 00 20 40 01 8d 0e 00 00 00 00
01 00 60 00 e8 3e 80 2f 00 00 00 38 00 00 80 3f
01 00 60 00 e8 3e a0 2f 00 00 00 38 00 00 80 3f
01 00 60 00 e8 3e c0 2f 00 00 00 38 00 00 80 3f
01 00 60 00 e8 3e e0 2f 00 00 00 38 00 00 80 3f
32 00 61 05 41 3a 00 20 80 0f 00 06 00 14 03 88
40 00 a0 00 4c 12 80 20 28 00 28 36 10 10 00 11
01 00 80 00 e8 12 40 20 80 00 89 00 00 00 00 00
01 00 00 00 44 12 02 26 3c 00 00 00 00 00 00 00
40 00 80 00 e8 3a e0 20 40 00 8d 3e 00 00 00 3f
01 00 80 00 28 3a 20 21 e0 00 8d 00 00 00 00 00
05 00 80 00 08 02 60 21 20 01 8d 06 01 00 00 00
10 00 80 01 28 0a a0 21 60 01 8d 0e 00 00 00 00
10 00 80 02 28 0a e0 21 c0 00 00 0e 00 00 00 00
05 00 80 00 08 02 20 22 e0 01 8d 02 a0 01 8d 00
10 00 81 01 21 0a 00 20 20 02 8d 0e 00 00 00 00
01 00 80 00 e8 3e 00 2f 00 00 00 38 00 00 80 3f
01 00 80 00 e8 3e 40 2f 00 00 00 38 00 00 80 3f
01 00 80 00 e8 3e 80 2f 00 00 00 38 00 00 80 3f
01 00 80 00 e8 3e c0 2f 00 00 00 38 00 00 80 3f
32 00 81 05 41 3a 00 20 00 0f 00 06 00 10 03 90
01 00 60 00 0c 02 60 2f 20 00 8d 00 00 00 00 00
01 00 60 00 e8 3a 80 2f 40 00 8d 00 00 00 00 00
01 00 60 00 e8 3a a0 2f 60 00 8d 00 00 00 00 00
01 00 60 00 e8 3a c0 2f 80 00 8d 00 00 00 00 00
01 00 60 00 e8 3a e0 2f a0 00 8d 00 00 00 00 00
31 00 60 06 e0 3a 00 20 60 0f 8d 06 17 00 08 8a
40 00 80 00 4c 12 60 20 28 00 28 36 10 10 00 11
01 00 60 00 e8 12 40 20 60 00 89 00 00 00 00 00
01 00 00 00 44 12 02 26 3c 00 00 00 00 00 00 00
40 00 60 00 e8 3a a0 20 40 00 8d 3e 00 00 00 3f
01 00 60 00 28 3a c0 20 a0 00 8d 00 00 00 00 00
05 00 60 00 08 02 e0 20 c0 00 8d 06 01 00 00 00
10 00 60 01 28 0a 00 21 e0 00 8d 0e 00 00 00 00
10 00 60 02 28 0a 20 21 80 00 00 0e 00 00 00 00
05 00 60 00 08 02 40 21 20 01 8d 02 00 01 8d 00
10 00 61 01 21 0a 00 20 40 01 8d 0e 00 00 00 00
01 00 60 00 e8 3e 80 2f 00 00 00 38 00 00 80 3f
01 00 60 00 e8 3e a0 2f 00 00 00 38 00 00 80 3f
01 00 60 00 e8 3e c0 2f 00 00 00 38 00 00 80 3f
01 00 60 00 e8 3e e0 2f 00 00 00 38 00 00 80 3f
32 00 61 05 41 3a 00 20 80 0f 00 06 00 14 03 88
40 00 a0 00 4c 12 80 20 28 00 28 36 10 10 00 11
01 00 80 00 e8 12 40 20 80 00 89 00 00 00 00 00
01 00 00 00 44 12 02 26 3c 00 00 00 00 00 00 00
40 00 80 00 e8 3a e0 20 40 00 8d 3e 00 00 00 3f
01 00 80 00 28 3a 20 21 e0 00 8d 00 00 00 00 00
05 00 80 00 08 02 60 21 20 01 8d 06 01 00 00 00
10 00 80 01 28 0a a0 21 60 01 8d 0e 00 00 00 00
10 00 80 02 28 0a e0 21 c0 00 00 0e 00 00 00 00
05 00 80 00 08 02 20 22 e0 01 8d 02 a0 01 8d 00
10 00 81 01 21 0a 00 20 20 02 8d 0e 00 00 00 00
01 00 80 00 e8 3e 00 2f 00 00 00 38 00 00 80 3f
01 00 80 00 e8 3e 40 2f 00 00 00 38 00 00 80 3f
01 00 80 00 e8 3e 80 2f 00 00 00 38 00 00 80 3f
01 00 80 00 e8 3e c0 2f 00 00 00 38 00 00 80 3f
32 00 81 05 41 3a 00 20 00 0f 00 06 00 10 03 90
