01 00 60 00 e8 3e 80 2f 00 00 00 38 00 00 00 00
01 00 60 00 e8 3e a0 2f 00 00 00 38 00 00 80 3f
01 00 60 00 e8 3e c0 2f 00 00 00 38 00 00 00 00
01 00 60 00 e8 3e e0 2f 00 00 00 38 00 00 00 00
32 00 60 05 40 3a 00 20 80 0f 00 06 00 14 03 88
01 00 80 00 e8 3e 00 2f 00 00 00 38 00 00 00 00
01 00 80 00 e8 3e 40 2f 00 00 00 38 00 00 80 3f
01 00 80 00 e8 3e 80 2f 00 00 00 38 00 00 00 00
01 00 80 00 e8 3e c0 2f 00 00 00 38 00 00 00 00
32 00 80 05 40 3a 00 20 00 0f 00 06 00 10 03 90
5a 00 60 00 e8 3a 80 2f 80 00 00 3a 40 00 8d 00
5a 00 60 00 e8 3a a0 2f 90 00 00 3a 40 00 8d 00
5a 00 60 00 e8 3a c0 2f a0 00 00 3a 40 00 8d 00
5a 00 60 00 e8 3a e0 2f b0 00 00 3a 40 00 8d 00
32 00 60 05 40 3a 00 20 80 0f 00 06 00 14 03 88
5a 00 80 00 e8 3a 00 2f c0 00 00 3a 40 00 8d 00
5a 00 80 00 e8 3a 40 2f d0 00 00 3a 40 00 8d 00
5a 00 80 00 e8 3a 80 2f e0 00 00 3a 40 00 8d 00
5a 00 80 00 e8 3a c0 2f f0 00 00 3a 40 00 8d 00
32 00 80 05 40 3a 00 20 00 0f 00 06 00 10 03 90
41 00 60 00 e8 3a c0 22 80 00 8d 3a 40 00 00 00
41 00 60 00 e8 3a e0 22 80 00 8d 3a 44 00 00 00
41 00 60 00 e8 3a 00 23 80 00 8d 3a 48 00 00 00
41 00 60 00 e8 3a 20 23 80 00 8d 3a 4c 00 00 00
01 00 60 00 0c 02 a0 21 20 00 8d 00 00 00 00 00
01 00 60 00 08 06 c0 21 00 00 00 00 00 00 00 00
01 00 60 00 08 06 e0 21 00 00 00 00 00 00 00 00
01 00 60 00 08 06 00 22 00 00 00 00 00 00 00 00
01 00 60 00 e8 3a 20 22 80 01 8d 00 00 00 00 00
5b 01 60 00 00 00 1e 1a c8 61 21 00 05 20 47 01
5b 01 60 00 00 00 1e 1b c8 71 21 40 05 20 47 01
5b 01 60 00 00 00 1e 1c c8 81 21 80 05 20 47 01
5b 01 60 00 00 00 1e 1d c8 91 21 c0 05 20 47 01
5b 01 60 00 00 00 1e 1e c8 a1 21 00 06 20 87 01
5b 01 60 00 00 00 1e 1f c8 b1 21 40 06 20 87 01
5b 01 60 00 00 00 1e 20 c8 c1 21 80 06 20 87 01
5b 01 60 00 00 00 1e 21 c8 d1 21 c0 06 20 87 01
5b 01 60 00 00 00 1e 12 c8 e1 21 00 07 20 c7 01
5b 01 60 00 00 00 1e 13 c8 f1 21 40 07 20 c7 01
5b 01 60 00 00 00 1e 14 c8 01 22 80 07 20 c7 01
5b 01 60 00 00 00 1e 15 c8 11 22 c0 07 20 c7 01
31 00 60 06 e0 3a 00 20 a0 01 8d 06 07 00 08 12
01 00 60 80 e8 3a 80 2f 00 01 8d 00 00 00 00 00
01 00 60 80 e8 3a a0 2f 20 01 8d 00 00 00 00 00
01 00 60 80 e8 3a c0 2f 40 01 8d 00 00 00 00 00
01 00 60 80 e8 3a e0 2f 60 01 8d 00 00 00 00 00
01 00 60 00 0c 02 60 2f 20 00 8d 00 00 00 00 00
31 00 60 06 e0 3a 00 20 60 0f 8d 06 27 00 08 8a
5a 00 60 00 e8 3a 80 2f 80 00 00 3a 40 00 8d 00
5a 00 60 00 e8 3a a0 2f 90 00 00 3a 40 00 8d 00
5a 00 60 00 e8 3a c0 2f a0 00 00 3a 40 00 8d 00
5a 00 60 00 e8 3a e0 2f b0 00 00 3a 40 00 8d 00
32 00 60 05 40 3a 00 20 80 0f 00 06 00 14 03 88
5a 00 80 00 e8 3a 00 2f c0 00 00 3a 40 00 8d 00
5a 00 80 00 e8 3a 40 2f d0 00 00 3a 40 00 8d 00
5a 00 80 00 e8 3a 80 2f e0 00 00 3a 40 00 8d 00
5a 00 80 00 e8 3a c0 2f f0 00 00 3a 40 00 8d 00
32 00 80 05 40 3a 00 20 00 0f 00 06 00 10 03 90
01 00 40 00 ec 3a 40 2e 4c 00 87 00 00 00 00 00
32 00 80 05 40 3a 00 20 40 0e 00 06 00 11 03 82
41 00 60 00 e8 3a 00 21 80 00 8d 3a 40 00 00 00
41 00 60 00 e8 3a 20 21 80 00 8d 3a 44 00 00 00
41 00 60 00 e8 3a 40 21 80 00 8d 3a 48 00 00 00
41 00 60 00 e8 3a 60 21 80 00 8d 3a 4c 00 00 00
01 00 60 00 0c 02 60 2f 20 00 8d 00 00 00 00 00
5b 01 60 00 00 00 1e 0c c8 81 20 00 05 20 47 01
5b 01 60 00 00 00 1e 0d c8 91 20 40 05 20 47 01
5b 01 60 00 00 00 1e 0e c8 a1 20 80 05 20 47 01
5b 01 60 00 00 00 1e 0f c8 b1 20 c0 05 20 47 01
5b 01 60 00 00 00 1e 10 c8 c1 20 00 06 20 87 01
5b 01 60 00 00 00 1e 11 c8 d1 20 40 06 20 87 01
5b 01 60 00 00 00 1e 12 c8 e1 20 80 06 20 87 01
5b 01 60 00 00 00 1e 13 c8 f1 20 c0 06 20 87 01
5b 01 60 00 00 00 1e 7c c8 01 21 00 07 20 c7 01
5b 01 60 00 00 00 1e 7d c8 11 21 40 07 20 c7 01
5b 01 60 00 00 00 1e 7e c8 21 21 80 07 20 c7 01
5b 01 60 00 00 00 1e 7f c8 31 21 c0 07 20 c7 01
31 00 60 06 e0 3a 00 20 60 0f 8d 06 17 00 08 8a
01 00 80 00 0c 02 40 20 00 00 8d 00 00 00 00 00
01 00 60 00 e8 3e 80 20 00 00 00 38 00 00 00 00
01 00 60 00 e8 3e a0 20 00 00 00 38 00 00 80 3f
01 00 60 00 e8 3e c0 20 00 00 00 38 00 00 00 00
01 00 60 00 e8 3e e0 20 00 00 00 38 00 00 00 00
32 00 60 05 40 3a 00 20 40 00 00 06 00 04 0b 0c
01 00 80 00 0c 02 40 2f 00 00 8d 00 00 00 00 00
01 00 60 00 e8 3e 80 2f 00 00 00 38 00 00 00 00
01 00 60 00 e8 3e a0 2f 00 00 00 38 00 00 80 3f
01 00 60 00 e8 3e c0 2f 00 00 00 38 00 00 00 00
01 00 60 00 e8 3e e0 2f 00 00 00 38 00 00 00 00
01 00 00 00 0c 06 48 2f 00 00 00 00 01 00 00 00
32 00 60 05 40 3a 00 20 40 0f 00 06 01 14 0b 8c
01 00 80 00 0c 02 40 20 00 00 8d 00 00 00 00 00
01 00 80 00 e8 3e 80 20 00 00 00 38 00 00 00 00
01 00 80 00 e8 3e c0 20 00 00 00 38 00 00 80 3f
01 00 80 00 e8 3e 00 21 00 00 00 38 00 00 00 00
01 00 80 00 e8 3e 40 21 00 00 00 38 00 00 00 00
32 00 80 05 40 3a 00 20 40 00 00 06 00 00 0b 14
01 00 80 00 0c 02 c0 2e 00 00 8d 00 00 00 00 00
01 00 80 00 e8 3e 00 2f 00 00 00 38 00 00 00 00
01 00 80 00 e8 3e 40 2f 00 00 00 38 00 00 80 3f
01 00 80 00 e8 3e 80 2f 00 00 00 38 00 00 00 00
01 00 80 00 e8 3e c0 2f 00 00 00 38 00 00 00 00
01 00 00 00 0c 06 c8 2e 00 00 00 00 01 00 00 00
32 00 80 05 40 3a 00 20 c0 0e 00 06 01 10 0b 94
5a 00 60 00 e8 3a e0 20 80 00 00 3a 40 00 8d 00
5a 00 60 00 e8 3a 00 21 90 00 00 3a 40 00 8d 00
01 00 60 00 0c 02 a0 2f 00 00 8d 00 00 00 00 00
5a 00 60 00 e8 3a 80 20 b0 00 00 3a 40 00 8d 00
38 00 60 01 e8 3a a0 20 80 00 8d 38 00 00 8d 00
41 00 60 00 e8 3a c0 2f e0 00 8d 3a a0 00 8d 00
41 00 60 00 e8 3a e0 2f 00 01 8d 3a a0 00 8d 00
32 00 60 02 40 3a 00 20 a0 0f 00 06 01 00 0a 86
5a 00 80 00 e8 3a 80 21 c0 00 00 3a 40 00 8d 00
5a 00 80 00 e8 3a c0 21 d0 00 00 3a 40 00 8d 00
5a 00 80 00 e8 3a 00 21 f0 00 00 3a 40 00 8d 00
01 00 60 00 0c 02 60 2f 00 00 8d 00 00 00 00 00
38 00 80 01 e8 3a 40 21 00 01 8d 38 00 00 8d 00
41 00 80 00 e8 3a 80 2f 80 01 8d 3a 40 01 8d 00
41 00 80 00 e8 3a c0 2f c0 01 8d 3a 40 01 8d 00
32 00 80 02 40 3a 00 20 60 0f 00 06 01 00 0c 8a
41 00 60 00 e8 3a 80 21 80 00 8d 3a 40 00 00 00
41 00 60 00 e8 3a a0 21 80 00 8d 3a 44 00 00 00
41 00 60 00 e8 3a c0 21 80 00 8d 3a 48 00 00 00
41 00 60 00 e8 3a e0 21 80 00 8d 3a 4c 00 00 00
01 00 60 00 0c 02 e0 2e 20 00 8d 00 00 00 00 00
01 00 60 00 e8 3a 80 2f 00 01 8d 00 00 00 00 00
01 00 60 00 e8 3a a0 2f 20 01 8d 00 00 00 00 00
01 00 60 00 e8 3a c0 2f 40 01 8d 00 00 00 00 00
01 00 60 00 e8 3a e0 2f 60 01 8d 00 00 00 00 00
5b 01 60 00 00 00 1e 10 c8 c1 20 00 05 20 47 01
5b 01 60 00 00 00 1e 11 c8 d1 20 40 05 20 47 01
5b 01 60 00 00 00 1e 12 c8 e1 20 80 05 20 47 01
5b 01 60 00 00 00 1e 13 c8 f1 20 c0 05 20 47 01
5b 01 60 00 00 00 1e 14 c8 01 21 00 06 20 87 01
5b 01 60 00 00 00 1e 15 c8 11 21 40 06 20 87 01
5b 01 60 00 00 00 1e 16 c8 21 21 80 06 20 87 01
5b 01 60 00 00 00 1e 17 c8 31 21 c0 06 20 87 01
5b 01 60 00 00 00 1e 78 c8 41 21 00 07 20 c7 01
5b 01 60 00 00 00 1e 79 c8 51 21 40 07 20 c7 01
5b 01 60 00 00 00 1e 7a c8 61 21 80 07 20 c7 01
5b 01 60 00 00 00 1e 7b c8 71 21 c0 07 20 c7 01
31 00 60 06 e0 3a 00 20 e0 0e 8d 06 17 00 08 92
01 00 60 00 e8 3a 80 2f 40 00 00 00 00 00 00 00
01 00 60 00 e8 3a a0 2f 44 00 00 00 00 00 00 00
01 00 60 00 e8 3a c0 2f 48 00 00 00 00 00 00 00
01 00 60 00 e8 3a e0 2f 4c 00 00 00 00 00 00 00
32 00 60 05 40 3a 00 20 80 0f 00 06 00 14 03 88
01 00 80 00 e8 3a 00 2f 40 00 00 00 00 00 00 00
01 00 80 00 e8 3a 40 2f 44 00 00 00 00 00 00 00
01 00 80 00 e8 3a 80 2f 48 00 00 00 00 00 00 00
01 00 80 00 e8 3a c0 2f 4c 00 00 00 00 00 00 00
32 00 80 05 40 3a 00 20 00 0f 00 06 00 10 03 90
41 00 60 00 e8 3a 00 21 80 00 8d 3a 40 00 00 00
41 00 60 00 e8 3a 20 21 80 00 8d 3a 44 00 00 00
41 00 60 00 e8 3a 40 21 80 00 8d 3a 48 00 00 00
41 00 60 00 e8 3a 60 21 80 00 8d 3a 4c 00 00 00
01 00 60 00 0c 02 60 2f 20 00 8d 00 00 00 00 00
5b 01 60 00 00 00 1e 0c c8 81 20 00 05 20 47 01
5b 01 60 00 00 00 1e 0d c8 91 20 40 05 20 47 01
5b 01 60 00 00 00 1e 0e c8 a1 20 80 05 20 47 01
5b 01 60 00 00 00 1e 0f c8 b1 20 c0 05 20 47 01
5b 01 60 00 00 00 1e 10 c8 c1 20 00 06 20 87 01
5b 01 60 00 00 00 1e 11 c8 d1 20 40 06 20 87 01
5b 01 60 00 00 00 1e 12 c8 e1 20 80 06 20 87 01
5b 01 60 00 00 00 1e 13 c8 f1 20 c0 06 20 87 01
5b 01 60 00 00 00 1e 7c c8 01 21 00 07 20 c7 01
5b 01 60 00 00 00 1e 7d c8 11 21 40 07 20 c7 01
5b 01 60 00 00 00 1e 7e c8 21 21 80 07 20 c7 01
5b 01 60 00 00 00 1e 7f c8 31 21 c0 07 20 c7 01
31 00 60 06 e0 3a 00 20 60 0f 8d 06 17 00 08 8a
