5a 00 60 00 e8 3a 80 2f 80 00 00 3a 40 00 8d 00
5a 00 60 00 e8 3a a0 2f 90 00 00 3a 40 00 8d 00
5a 00 60 00 e8 3a c0 2f a0 00 00 3a 40 00 8d 00
5a 00 60 00 e8 3a e0 2f b0 00 00 3a 40 00 8d 00
32 00 60 05 40 3a 00 20 80 0f 00 06 00 14 03 88
5a 00 80 00 e8 3a 00 2f c0 00 00 3a 40 00 8d 00
5a 00 80 00 e8 3a 40 2f d0 00 00 3a 40 00 8d 00
5a 00 80 00 e8 3a 80 2f e0 00 00 3a 40 00 8d 00
5a 00 80 00 e8 3a c0 2f f0 00 00 3a 40 00 8d 00
32 00 80 05 40 3a 00 20 00 0f 00 06 00 10 03 90
41 00 60 00 e8 3a 00 28 00 01 8d 3a 40 00 00 00
41 00 60 00 e8 3a e0 23 00 01 8d 3a 44 00 00 00
41 00 60 00 e8 3a 20 24 00 01 8d 3a 48 00 00 00
41 00 60 00 e8 3a e0 25 00 01 8d 3a 4c 00 00 00
41 00 60 00 e8 3a 40 24 80 01 8d 3a 80 00 00 00
41 00 60 00 e8 3a 00 26 a0 01 8d 3a 84 00 00 00
41 00 60 00 e8 3a 80 24 c0 01 8d 3a 88 00 00 00
5b 01 60 00 00 00 1e 32 c8 c1 01 39 20 04 20 01
5b 01 60 00 00 00 1e 33 c8 d1 01 39 22 04 28 01
5b 01 60 00 00 00 1e 34 c8 e1 01 39 24 04 30 01
41 00 60 00 e8 3a 60 27 d0 00 00 3a 00 02 8d 00
41 00 60 00 e8 3a 80 27 d4 00 00 3a 20 02 8d 00
41 00 60 00 e8 3a a0 27 d8 00 00 3a 40 02 8d 00
41 00 60 00 e8 3a c0 27 e0 00 00 3a 00 03 8d 00
41 00 60 00 e8 3a e0 27 e4 00 00 3a 20 03 8d 00
41 00 60 00 e8 3a e0 21 e8 00 00 3a 40 03 8d 00
02 00 60 05 e8 3a 40 28 00 04 8d 3e 00 00 00 43
01 00 60 00 0c 02 a0 22 20 00 8d 00 00 00 00 00
01 00 60 00 08 06 c0 22 00 00 00 00 00 00 00 00
01 00 60 00 08 06 e0 22 00 00 00 00 00 00 00 00
5b 01 60 00 00 00 1e 23 c8 01 24 00 05 20 47 02
5b 01 60 00 00 00 1e 31 c8 f1 21 40 05 20 47 02
5b 01 60 00 00 00 1e 25 c8 11 22 80 05 20 47 02
5b 01 60 00 00 00 1e 26 c8 f1 22 c0 05 20 47 02
41 00 60 00 e8 3a a0 26 00 06 8d 3a a4 00 00 00
41 00 60 00 e8 3a 00 27 00 06 8d 3a b4 00 00 00
01 00 60 00 08 06 00 23 00 00 00 00 00 00 00 00
01 00 60 00 e8 3a 20 23 80 02 8d 00 00 00 00 00
5b 01 60 00 00 00 1e 47 c8 21 03 39 20 04 80 01
5b 01 60 00 00 00 1e 48 c8 31 03 39 22 04 88 01
5b 01 60 00 00 00 1e 49 c8 41 03 39 24 04 90 01
02 00 60 04 e8 3a 60 28 40 08 8d 3e 00 00 00 c3
5b 01 60 00 00 00 1e 27 c8 31 22 00 06 20 87 02
5b 01 60 00 00 00 1e 28 c8 11 23 40 06 20 87 02
5b 01 60 00 00 00 1e 36 c8 51 23 00 0a 20 87 08
5b 01 60 00 00 00 1e 29 c8 51 22 80 06 20 87 02
5b 01 60 00 00 00 1e 39 c8 81 23 00 0b 20 87 08
5b 01 60 00 00 00 1e 2a c8 61 22 c0 06 20 87 02
5b 01 60 00 00 00 1e 1a c8 71 22 00 07 20 c7 02
5b 01 60 00 00 00 1e 1b c8 81 22 40 07 20 c7 02
5b 01 60 06 00 00 1e 37 c8 61 23 80 0a 20 07 09
5b 01 60 00 00 00 1e 1c c8 91 22 80 07 20 c7 02
5b 01 60 00 00 00 1e 3a c8 91 23 80 0b 20 07 09
5b 01 60 00 00 00 1e 1d c8 a1 22 c0 07 20 c7 02
02 00 60 04 e8 3a 20 28 e0 06 8d 3e 00 00 00 00
02 00 60 04 e8 3a 80 28 40 07 8d 3e 00 00 00 00
5b 01 60 00 00 00 1e 4a c8 71 04 39 76 20 47 10
5b 01 60 00 00 00 1e 4b c8 81 04 39 78 20 47 10
5b 01 60 00 00 00 1e 4c c8 91 04 39 7a 20 47 10
38 00 60 0a e8 3a a0 28 80 08 8d 3a 60 08 8d 00
02 00 71 00 08 02 c0 28 a0 08 8d 06 00 00 00 00
5b 01 60 80 00 00 1e 7c c8 a1 04 39 7c 20 87 11
5b 01 60 80 00 00 1e 7d c8 b1 04 39 7e 20 87 11
5b 01 60 80 00 00 1e 7e c8 c1 04 39 1e 20 87 11
31 00 60 06 e0 3a 00 20 a0 02 8d 06 07 00 08 12
01 00 60 80 e8 3a e0 2f 60 02 8d 00 00 00 00 00
01 00 60 00 0c 02 60 2f 20 00 8d 00 00 00 00 00
31 00 60 06 e0 3a 00 20 60 0f 8d 06 27 00 08 8a
01 00 40 00 ec 3a 40 2e 4c 00 87 00 00 00 00 00
32 00 80 05 40 3a 00 20 40 0e 00 06 00 11 03 82
41 00 60 00 e8 3a c0 21 e0 00 8d 3a 40 00 00 00
41 00 60 00 e8 3a 80 24 e0 00 8d 3a 44 00 00 00
41 00 60 00 e8 3a 00 22 e0 00 8d 3a 48 00 00 00
41 00 60 00 e8 3a c0 24 e0 00 8d 3a 4c 00 00 00
41 00 60 00 e8 3a c0 23 60 01 8d 3a 80 00 00 00
41 00 60 00 e8 3a e0 23 80 01 8d 3a 84 00 00 00
41 00 60 00 e8 3a 00 24 a0 01 8d 3a 88 00 00 00
40 00 60 00 e8 3a e0 24 b0 00 00 3a 90 00 00 00
40 00 60 00 e8 3a 00 25 b4 00 00 3a 94 00 00 00
40 00 60 00 e8 3a 20 25 b8 00 00 3a 98 00 00 00
01 00 60 80 e8 3a e0 2f 9c 00 00 00 00 00 00 00
01 00 60 00 0c 02 e0 2e 20 00 8d 00 00 00 00 00
5b 01 60 00 00 00 1e 12 c8 e1 20 00 05 20 07 02
5b 01 60 00 00 00 1e 13 c8 41 22 40 05 20 07 02
5b 01 60 00 00 00 1e 14 c8 01 21 80 05 20 07 02
5b 01 60 00 00 00 1e 15 c8 61 22 c0 05 20 07 02
41 00 60 00 e8 3a 20 24 e0 03 8d 3a a4 00 00 00
5b 01 60 00 00 00 1e 16 c8 21 21 00 06 20 47 02
5b 01 60 00 00 00 1e 17 c8 31 21 40 06 20 47 02
5b 01 60 00 00 00 1e 18 c8 41 21 80 06 20 47 02
5b 01 60 00 00 00 1e 22 c8 11 22 00 0a 20 87 07
5b 01 60 00 00 00 1e 19 c8 51 21 c0 06 20 47 02
5b 01 60 00 00 00 1e 78 c8 61 21 00 07 20 87 02
5b 01 60 00 00 00 1e 79 c8 71 21 40 07 20 87 02
5b 01 60 00 00 00 1e 7a c8 81 21 80 07 20 87 02
5b 01 60 00 00 00 1e 23 c8 21 22 80 0a 20 07 08
5b 01 60 00 00 00 1e 7b c8 91 21 c0 07 20 87 02
02 00 60 04 e8 3a e0 21 60 04 8d 3e 00 00 00 00
10 00 60 03 e8 3a a0 24 60 04 8d 3e 00 00 00 00
5b 01 60 00 00 00 1e 2a c8 71 22 00 0c 20 c7 03
5b 01 60 00 00 00 1e 2b c8 81 22 40 0c 20 c7 03
5b 01 60 00 00 00 1e 2c c8 91 22 80 0c 20 c7 03
01 00 60 00 e8 0a 20 22 a0 44 8d 00 00 00 00 00
5b 01 60 80 00 00 1e 7c c8 a1 22 00 0d 20 47 04
5b 01 60 80 00 00 1e 7d c8 b1 22 40 0d 20 47 04
5b 01 60 80 00 00 1e 7e c8 c1 22 80 0d 20 47 04
31 00 60 06 e0 3a 00 20 e0 0e 8d 06 17 00 08 92
01 00 60 00 e8 3a 80 2f 40 00 00 00 00 00 00 00
01 00 60 00 e8 3a a0 2f 44 00 00 00 00 00 00 00
01 00 60 00 e8 3a c0 2f 48 00 00 00 00 00 00 00
01 00 60 00 e8 3a e0 2f 4c 00 00 00 00 00 00 00
32 00 60 05 40 3a 00 20 80 0f 00 06 00 14 03 88
01 00 80 00 e8 3a 00 2f 40 00 00 00 00 00 00 00
01 00 80 00 e8 3a 40 2f 44 00 00 00 00 00 00 00
01 00 80 00 e8 3a 80 2f 48 00 00 00 00 00 00 00
01 00 80 00 e8 3a c0 2f 4c 00 00 00 00 00 00 00
32 00 80 05 40 3a 00 20 00 0f 00 06 00 10 03 90
41 00 60 00 e8 3a 00 21 80 00 8d 3a 40 00 00 00
41 00 60 00 e8 3a 20 21 80 00 8d 3a 44 00 00 00
41 00 60 00 e8 3a 40 21 80 00 8d 3a 48 00 00 00
41 00 60 00 e8 3a 60 21 80 00 8d 3a 4c 00 00 00
01 00 60 00 0c 02 60 2f 20 00 8d 00 00 00 00 00
5b 01 60 00 00 00 1e 0c c8 81 20 00 05 20 47 01
5b 01 60 00 00 00 1e 0d c8 91 20 40 05 20 47 01
5b 01 60 00 00 00 1e 0e c8 a1 20 80 05 20 47 01
5b 01 60 00 00 00 1e 0f c8 b1 20 c0 05 20 47 01
5b 01 60 00 00 00 1e 10 c8 c1 20 00 06 20 87 01
5b 01 60 00 00 00 1e 11 c8 d1 20 40 06 20 87 01
5b 01 60 00 00 00 1e 12 c8 e1 20 80 06 20 87 01
5b 01 60 00 00 00 1e 13 c8 f1 20 c0 06 20 87 01
5b 01 60 00 00 00 1e 7c c8 01 21 00 07 20 c7 01
5b 01 60 00 00 00 1e 7d c8 11 21 40 07 20 c7 01
5b 01 60 00 00 00 1e 7e c8 21 21 80 07 20 c7 01
5b 01 60 00 00 00 1e 7f c8 31 21 c0 07 20 c7 01
31 00 60 06 e0 3a 00 20 60 0f 8d 06 17 00 08 8a
40 00 80 00 4c 12 c0 20 28 00 28 36 10 10 00 11
01 00 60 00 e8 3a e0 21 ec 00 00 00 00 00 00 00
01 00 60 00 e8 12 40 20 c0 00 89 00 00 00 00 00
01 00 60 00 e8 12 60 20 c8 00 89 00 00 00 00 00
01 00 60 00 28 3a e0 20 40 00 8d 00 00 00 00 00
01 00 60 00 28 3a 00 21 60 00 8d 00 00 00 00 00
01 00 60 00 e8 0a 20 21 e0 00 8d 00 00 00 00 00
01 00 60 00 e8 0a 40 21 00 01 8d 00 00 00 00 00
5b 01 60 00 00 00 1e 0b 01 4e 20 c0 08 20 47 02
5b 01 60 00 00 00 1e 0c 01 5e 20 c0 0a 20 87 02
01 00 60 00 28 3a a0 21 60 01 8d 00 00 00 00 00
01 00 60 00 28 3a c0 21 80 01 8d 00 00 00 00 00
31 00 60 02 48 3a 80 2f a0 01 00 06 01 a0 43 06
32 00 60 05 40 3a 00 20 80 0f 00 06 00 14 03 88
40 00 a0 00 4c 12 40 21 28 00 28 36 10 10 00 11
01 00 80 00 e8 3a 60 23 2c 01 00 00 00 00 00 00
01 00 80 00 e8 12 40 20 40 01 89 00 00 00 00 00
01 00 80 00 e8 12 80 20 48 01 89 00 00 00 00 00
01 00 80 00 28 3a 60 21 40 00 8d 00 00 00 00 00
01 00 80 00 28 3a a0 21 80 00 8d 00 00 00 00 00
01 00 80 00 e8 0a e0 21 60 01 8d 00 00 00 00 00
01 00 80 00 e8 0a 20 22 a0 01 8d 00 00 00 00 00
5b 01 80 00 00 00 1e 13 01 6e 20 c0 0c 20 c7 03
5b 01 80 00 00 00 1e 15 01 7e 20 c0 0e 20 47 04
01 00 80 00 28 3a e0 22 60 02 8d 00 00 00 00 00
01 00 80 00 28 3a 20 23 a0 02 8d 00 00 00 00 00
31 00 80 02 48 3a 00 2f e0 02 00 06 01 a0 85 0c
32 00 80 05 40 3a 00 20 00 0f 00 06 00 10 03 90
