40 00 80 00 4c 12 c0 20 28 00 28 36 10 10 00 11
01 00 60 00 0c 02 80 2f 00 00 8d 00 00 00 00 00
01 00 60 00 e8 3a e0 2f ec 00 00 00 00 00 00 00
01 00 60 00 e8 12 40 20 c0 00 89 00 00 00 00 00
01 00 60 00 e8 12 60 20 c8 00 89 00 00 00 00 00
01 00 60 00 28 3a e0 20 40 00 8d 00 00 00 00 00
01 00 60 00 28 3a 00 21 60 00 8d 00 00 00 00 00
01 00 60 00 e8 0a 20 21 e0 00 8d 00 00 00 00 00
01 00 60 00 e8 0a 40 21 00 01 8d 00 00 00 00 00
5b 01 60 00 00 00 1e 0b 01 4e 20 c0 08 20 47 02
5b 01 60 00 00 00 1e 0c 01 5e 20 c0 0a 20 87 02
01 00 60 00 28 3a a0 2f 60 01 8d 00 00 00 00 00
01 00 60 00 28 3a c0 2f 80 01 8d 00 00 00 00 00
32 00 60 02 40 3a 00 20 80 0f 00 06 01 a0 0b 88
40 00 a0 00 4c 12 40 21 28 00 28 36 10 10 00 11
01 00 60 00 0c 02 20 2f 00 00 8d 00 00 00 00 00
01 00 80 00 e8 3a c0 2f 2c 01 00 00 00 00 00 00
01 00 80 00 e8 12 40 20 40 01 89 00 00 00 00 00
01 00 80 00 e8 12 80 20 48 01 89 00 00 00 00 00
01 00 80 00 28 3a 60 21 40 00 8d 00 00 00 00 00
01 00 80 00 28 3a a0 21 80 00 8d 00 00 00 00 00
01 00 80 00 e8 0a e0 21 60 01 8d 00 00 00 00 00
01 00 80 00 e8 0a 20 22 a0 01 8d 00 00 00 00 00
5b 01 80 00 00 00 1e 13 01 6e 20 c0 0c 20 c7 03
5b 01 80 00 00 00 1e 15 01 7e 20 c0 0e 20 47 04
01 00 80 00 28 3a 40 2f 60 02 8d 00 00 00 00 00
01 00 80 00 28 3a 80 2f a0 02 8d 00 00 00 00 00
32 00 80 02 40 3a 00 20 20 0f 00 06 01 a0 0d 8e
