5a 00 60 00 e8 3a 20 21 c0 00 00 3a 40 00 8d 00
5a 00 60 00 e8 3a 00 21 d0 00 00 3a 40 00 8d 00
5a 00 60 00 e8 3a 40 21 e0 00 00 3a 40 00 8d 00
41 00 60 00 e8 3a 60 21 90 00 00 3a 00 01 8d 00
41 00 60 00 e8 3a 80 21 94 00 00 3a 00 01 8d 00
41 00 60 00 e8 3a a0 21 98 00 00 3a 00 01 8d 00
41 00 60 00 e8 3a c0 21 9c 00 00 3a 00 01 8d 00
5b 01 60 00 00 00 1e 0f c8 b1 00 39 12 04 00 01
5b 01 60 00 00 00 1e 10 c8 c1 00 39 12 04 08 01
5b 01 60 00 00 00 1e 11 c8 d1 00 39 12 04 10 01
5b 01 60 00 00 00 1e 12 c8 e1 00 39 12 04 18 01
5b 01 60 00 00 00 1e 7c c8 f1 00 39 14 04 40 01
5b 01 60 00 00 00 1e 7d c8 01 01 39 14 04 48 01
5b 01 60 00 00 00 1e 7e c8 11 01 39 14 04 50 01
5b 01 60 00 00 00 1e 7f c8 21 01 39 14 04 58 01
32 00 60 05 40 3a 00 20 80 0f 00 06 00 14 03 88
5a 00 80 00 e8 3a 40 21 00 01 00 3a 40 00 8d 00
5a 00 80 00 e8 3a 80 21 10 01 00 3a 40 00 8d 00
5a 00 80 00 e8 3a c0 21 20 01 00 3a 40 00 8d 00
41 00 80 00 e8 3a 00 22 d0 00 00 3a 80 01 8d 00
41 00 80 00 e8 3a 40 22 d4 00 00 3a 80 01 8d 00
41 00 80 00 e8 3a 80 22 d8 00 00 3a 80 01 8d 00
41 00 80 00 e8 3a c0 22 dc 00 00 3a 80 01 8d 00
5b 01 80 00 00 00 1e 18 c8 01 01 39 14 04 80 01
5b 01 80 00 00 00 1e 1a c8 21 01 39 14 04 88 01
5b 01 80 00 00 00 1e 1c c8 41 01 39 14 04 90 01
5b 01 80 00 00 00 1e 1e c8 61 01 39 14 04 98 01
5b 01 80 00 00 00 1e 78 c8 81 01 39 1c 04 c0 01
5b 01 80 00 00 00 1e 7a c8 a1 01 39 1c 04 c8 01
5b 01 80 00 00 00 1e 7c c8 c1 01 39 1c 04 d0 01
5b 01 80 00 00 00 1e 7e c8 e1 01 39 1c 04 d8 01
32 00 80 05 40 3a 00 20 00 0f 00 06 00 10 03 90
38 00 60 07 e8 3a 80 21 40 00 00 38 00 00 8d 00
38 00 60 06 e8 3a 00 21 40 00 00 38 00 00 8d 00
01 00 60 00 0c 02 e0 2e 20 00 8d 00 00 00 00 00
01 00 60 00 e8 3a 80 2f 20 01 8d 00 00 00 00 00
01 00 60 00 e8 3a a0 2f 40 01 8d 00 00 00 00 00
01 00 60 00 e8 3a c0 2f 60 01 8d 00 00 00 00 00
41 00 60 00 e8 3a 40 21 80 01 8d 3a c0 00 8d 00
41 00 60 00 e8 3a 20 21 00 01 8d 3a c0 00 8d 00
5b 01 60 00 00 00 1e 07 c8 a1 00 39 0a 20 07 02
5b 01 60 00 40 00 1e 0b c8 91 00 39 0a 20 07 03
41 00 60 00 e8 3a a0 21 58 00 00 3a e0 00 8d 00
41 00 60 00 e8 3a c0 21 5c 00 00 3a e0 00 8d 00
41 00 60 00 e8 3a e0 21 60 00 00 3a e0 00 8d 00
41 00 60 00 e8 3a 00 22 64 00 00 3a e0 00 8d 00
5b 01 60 00 00 00 1e 11 c8 d1 00 39 16 04 90 00
5b 01 60 00 00 00 1e 12 c8 e1 00 39 16 04 98 00
5b 01 60 00 00 00 1e 13 c8 f1 00 39 16 04 a0 00
5b 01 60 00 00 00 1e 14 c8 01 01 39 16 04 a8 00
5b 01 60 00 00 00 1e 15 c8 11 21 40 04 04 d0 00
5b 01 60 00 00 00 1e 16 c8 21 21 40 04 04 d8 00
5b 01 60 00 00 00 1e 17 c8 31 21 40 04 04 e0 00
5b 01 60 00 00 00 1e 18 c8 41 21 40 04 04 e8 00
40 00 60 00 e8 3a 00 2f a0 02 8d 3a 78 00 00 00
40 00 60 00 e8 3a 20 2f c0 02 8d 3a 7c 00 00 00
40 00 60 00 e8 3a 40 2f e0 02 8d 3a 80 00 00 00
40 00 60 00 e8 3a 60 2f 00 03 8d 3a 84 00 00 00
31 00 60 06 e0 3a 00 20 e0 0e 8d 06 17 00 08 92
5a 00 60 00 e8 3a 20 21 c0 00 00 3a 40 00 8d 00
5a 00 60 00 e8 3a 00 21 d0 00 00 3a 40 00 8d 00
5a 00 60 00 e8 3a 40 21 e0 00 00 3a 40 00 8d 00
41 00 60 00 e8 3a 60 21 90 00 00 3a 00 01 8d 00
41 00 60 00 e8 3a 80 21 94 00 00 3a 00 01 8d 00
41 00 60 00 e8 3a a0 21 98 00 00 3a 00 01 8d 00
41 00 60 00 e8 3a c0 21 9c 00 00 3a 00 01 8d 00
5b 01 60 00 00 00 1e 0f c8 b1 00 39 12 04 00 01
5b 01 60 00 00 00 1e 10 c8 c1 00 39 12 04 08 01
5b 01 60 00 00 00 1e 11 c8 d1 00 39 12 04 10 01
5b 01 60 00 00 00 1e 12 c8 e1 00 39 12 04 18 01
5b 01 60 00 00 00 1e 7c c8 f1 00 39 14 04 40 01
5b 01 60 00 00 00 1e 7d c8 01 01 39 14 04 48 01
5b 01 60 00 00 00 1e 7e c8 11 01 39 14 04 50 01
5b 01 60 00 00 00 1e 7f c8 21 01 39 14 04 58 01
32 00 60 05 40 3a 00 20 80 0f 00 06 00 14 03 88
5a 00 80 00 e8 3a 40 21 00 01 00 3a 40 00 8d 00
5a 00 80 00 e8 3a 80 21 10 01 00 3a 40 00 8d 00
5a 00 80 00 e8 3a c0 21 20 01 00 3a 40 00 8d 00
41 00 80 00 e8 3a 00 22 d0 00 00 3a 80 01 8d 00
41 00 80 00 e8 3a 40 22 d4 00 00 3a 80 01 8d 00
41 00 80 00 e8 3a 80 22 d8 00 00 3a 80 01 8d 00
41 00 80 00 e8 3a c0 22 dc 00 00 3a 80 01 8d 00
5b 01 80 00 00 00 1e 18 c8 01 01 39 14 04 80 01
5b 01 80 00 00 00 1e 1a c8 21 01 39 14 04 88 01
5b 01 80 00 00 00 1e 1c c8 41 01 39 14 04 90 01
5b 01 80 00 00 00 1e 1e c8 61 01 39 14 04 98 01
5b 01 80 00 00 00 1e 78 c8 81 01 39 1c 04 c0 01
5b 01 80 00 00 00 1e 7a c8 a1 01 39 1c 04 c8 01
5b 01 80 00 00 00 1e 7c c8 c1 01 39 1c 04 d0 01
5b 01 80 00 00 00 1e 7e c8 e1 01 39 1c 04 d8 01
32 00 80 05 40 3a 00 20 00 0f 00 06 00 10 03 90
40 00 80 00 4c 12 c0 20 28 00 28 36 10 10 00 11
01 00 60 00 e8 3a 00 22 ec 00 00 00 00 00 00 00
01 00 60 00 e8 3e 20 22 00 00 00 38 00 00 00 00
01 00 60 00 e8 3a a0 22 ec 00 00 00 00 00 00 00
01 00 60 00 e8 12 40 20 c0 00 89 00 00 00 00 00
01 00 60 00 e8 12 60 20 c8 00 89 00 00 00 00 00
01 00 60 00 28 3a 00 21 40 00 8d 00 00 00 00 00
01 00 60 00 28 3a 20 21 60 00 8d 00 00 00 00 00
01 00 60 00 e8 0a 40 21 00 01 8d 00 00 00 00 00
01 00 60 00 e8 0a 60 21 20 01 8d 00 00 00 00 00
5b 01 60 00 00 00 1e 0c 01 4e 20 c0 08 20 87 02
5b 01 60 00 00 00 1e 0d 01 5e 20 c0 0a 20 c7 02
01 00 60 00 28 3a c0 21 80 01 8d 00 00 00 00 00
01 00 60 00 28 3a e0 21 a0 01 8d 00 00 00 00 00
01 00 60 00 e8 3a 60 22 c0 01 8d 00 00 00 00 00
31 00 60 02 48 3a 40 20 c0 01 00 06 01 d0 43 06
01 00 60 00 e8 3a 80 22 e0 01 8d 00 00 00 00 00
01 00 60 00 08 0a 40 22 40 00 8d 00 00 00 00 00
05 00 60 00 08 02 c0 20 40 00 8d 06 03 00 00 00
31 00 60 02 48 3a 00 21 20 02 00 06 01 e0 43 0a
10 00 60 01 28 0a 80 21 c0 00 8d 0e 03 00 00 00
10 00 60 01 28 0a a0 21 40 00 8d 0e 00 00 00 00
01 00 60 00 e8 3a 80 2f 00 01 8d 00 00 00 00 00
01 00 60 00 e8 3a a0 2f 20 01 8d 00 00 00 00 00
01 00 60 00 e8 3a c0 2f 40 01 8d 00 00 00 00 00
01 00 60 00 e8 3a e0 2f 60 01 8d 00 00 00 00 00
06 00 60 02 00 02 00 20 a0 01 8d 02 80 01 8d 00
22 00 71 00 20 0e 00 20 30 01 00 00 30 01 00 00
01 00 60 00 08 0a 60 20 40 00 8d 00 00 00 00 00
01 00 60 00 e8 3a 80 20 c0 01 8d 00 00 00 00 00
01 00 60 00 e8 3a a0 20 e0 01 8d 00 00 00 00 00
01 00 60 00 e8 3a c0 20 ec 00 00 00 00 00 00 00
01 00 60 00 e8 3e 40 20 00 00 00 38 01 00 00 00
31 00 60 02 48 3a 40 20 40 00 00 06 01 e0 43 0a
40 00 60 00 e8 3a c0 20 00 01 8d 3a 40 00 8d 00
40 00 60 00 e8 3a e0 20 20 01 8d 3a 60 00 8d 00
40 00 60 00 e8 3a 80 21 40 01 8d 3a 80 00 8d 00
40 00 60 00 e8 3a a0 21 60 01 8d 3a a0 00 8d 00
41 00 60 00 e8 3a c0 21 c0 00 8d 3e 00 00 00 3f
41 00 60 00 e8 3a e0 21 e0 00 8d 3e 00 00 00 3f
41 00 60 00 e8 3a 00 22 80 01 8d 3e 00 00 00 3f
41 00 60 00 e8 3a 20 22 a0 01 8d 3e 00 00 00 3f
01 00 60 00 08 02 80 2f c0 01 8d 00 00 00 00 00
01 00 60 00 08 02 a0 2f e0 01 8d 00 00 00 00 00
01 00 60 00 08 02 c0 2f 00 02 8d 00 00 00 00 00
01 00 60 00 08 02 e0 2f 20 02 8d 00 00 00 00 00
25 00 60 00 00 0e 00 00 00 00 00 08 10 00 00 00
32 00 60 05 40 3a 00 20 80 0f 00 06 00 14 03 88
40 00 a0 00 4c 12 40 23 28 00 28 36 10 10 00 11
01 00 80 00 e8 3a c0 21 2c 01 00 00 00 00 00 00
01 00 80 00 e8 3e 00 22 00 00 00 38 00 00 00 00
01 00 80 00 e8 3a 00 23 2c 01 00 00 00 00 00 00
01 00 80 00 e8 12 40 20 40 03 89 00 00 00 00 00
01 00 80 00 e8 12 80 20 48 03 89 00 00 00 00 00
01 00 80 00 28 3a 60 23 40 00 8d 00 00 00 00 00
01 00 80 00 28 3a a0 23 80 00 8d 00 00 00 00 00
01 00 80 00 e8 0a e0 23 60 03 8d 00 00 00 00 00
01 00 80 00 e8 0a 20 24 a0 03 8d 00 00 00 00 00
5b 01 80 00 00 00 1e 23 01 6e 20 c0 0c 20 c7 07
5b 01 80 00 00 00 1e 25 01 7e 20 c0 0e 20 47 08
01 00 80 00 28 3a 40 21 60 04 8d 00 00 00 00 00
01 00 80 00 28 3a 80 21 a0 04 8d 00 00 00 00 00
01 00 80 00 e8 3a 80 22 40 01 8d 00 00 00 00 00
31 00 80 02 48 3a 40 23 40 01 00 06 01 d0 85 0c
01 00 80 00 e8 3a c0 22 80 01 8d 00 00 00 00 00
01 00 80 00 08 0a 40 22 40 03 8d 00 00 00 00 00
05 00 80 00 08 02 40 20 40 03 8d 06 03 00 00 00
31 00 80 02 48 3a 40 24 00 02 00 06 01 e0 85 14
10 00 80 01 28 0a 80 20 40 00 8d 0e 03 00 00 00
10 00 80 01 28 0a c0 20 40 03 8d 0e 00 00 00 00
01 00 80 00 e8 3a 00 2f 40 04 8d 00 00 00 00 00
01 00 80 00 e8 3a 40 2f 80 04 8d 00 00 00 00 00
01 00 80 00 e8 3a 80 2f c0 04 8d 00 00 00 00 00
01 00 80 00 e8 3a c0 2f 00 05 8d 00 00 00 00 00
06 00 80 02 00 02 00 20 c0 00 8d 02 80 00 8d 00
22 00 91 00 20 0e 00 20 30 01 00 00 30 01 00 00
01 00 80 00 08 0a 40 22 40 03 8d 00 00 00 00 00
01 00 80 00 e8 3e 00 22 00 00 00 38 01 00 00 00
01 00 80 00 e8 3a 80 22 40 01 8d 00 00 00 00 00
01 00 80 00 e8 3a c0 22 80 01 8d 00 00 00 00 00
01 00 80 00 e8 3a 00 23 2c 01 00 00 00 00 00 00
31 00 80 02 48 3a 40 20 00 02 00 06 01 e0 85 14
40 00 80 00 e8 3a 40 21 40 04 8d 3a 40 00 8d 00
40 00 80 00 e8 3a 80 21 80 04 8d 3a 80 00 8d 00
40 00 80 00 e8 3a c0 21 c0 04 8d 3a c0 00 8d 00
40 00 80 00 e8 3a 00 22 00 05 8d 3a 00 01 8d 00
41 00 80 00 e8 3a 40 22 40 01 8d 3e 00 00 00 3f
41 00 80 00 e8 3a 80 22 80 01 8d 3e 00 00 00 3f
41 00 80 00 e8 3a c0 22 c0 01 8d 3e 00 00 00 3f
41 00 80 00 e8 3a 00 23 00 02 8d 3e 00 00 00 3f
01 00 80 00 08 02 00 2f 40 02 8d 00 00 00 00 00
01 00 80 00 08 02 40 2f 80 02 8d 00 00 00 00 00
01 00 80 00 08 02 80 2f c0 02 8d 00 00 00 00 00
01 00 80 00 08 02 c0 2f 00 03 8d 00 00 00 00 00
25 00 80 00 00 0e 00 00 00 00 00 08 10 00 00 00
32 00 80 05 40 3a 00 20 00 0f 00 06 00 10 03 90
40 00 80 00 4c 12 c0 20 28 00 28 36 10 10 00 11
01 00 60 00 e8 3a e0 21 ec 00 00 00 00 00 00 00
01 00 60 00 e8 12 40 20 c0 00 89 00 00 00 00 00
01 00 60 00 e8 12 60 20 c8 00 89 00 00 00 00 00
01 00 60 00 28 3a e0 20 40 00 8d 00 00 00 00 00
01 00 60 00 28 3a 00 21 60 00 8d 00 00 00 00 00
01 00 60 00 e8 0a 20 21 e0 00 8d 00 00 00 00 00
01 00 60 00 e8 0a 40 21 00 01 8d 00 00 00 00 00
5b 01 60 00 00 00 1e 0b 01 4e 20 c0 08 20 47 02
5b 01 60 00 00 00 1e 0c 01 5e 20 c0 0a 20 87 02
01 00 60 00 28 3a a0 21 60 01 8d 00 00 00 00 00
01 00 60 00 28 3a c0 21 80 01 8d 00 00 00 00 00
31 00 60 02 48 3a 80 2f a0 01 00 06 01 a0 43 06
32 00 60 05 40 3a 00 20 80 0f 00 06 00 14 03 88
40 00 a0 00 4c 12 40 21 28 00 28 36 10 10 00 11
01 00 80 00 e8 3a 60 23 2c 01 00 00 00 00 00 00
01 00 80 00 e8 12 40 20 40 01 89 00 00 00 00 00
01 00 80 00 e8 12 80 20 48 01 89 00 00 00 00 00
01 00 80 00 28 3a 60 21 40 00 8d 00 00 00 00 00
01 00 80 00 28 3a a0 21 80 00 8d 00 00 00 00 00
01 00 80 00 e8 0a e0 21 60 01 8d 00 00 00 00 00
01 00 80 00 e8 0a 20 22 a0 01 8d 00 00 00 00 00
5b 01 80 00 00 00 1e 13 01 6e 20 c0 0c 20 c7 03
5b 01 80 00 00 00 1e 15 01 7e 20 c0 0e 20 47 04
01 00 80 00 28 3a e0 22 60 02 8d 00 00 00 00 00
01 00 80 00 28 3a 20 23 a0 02 8d 00 00 00 00 00
31 00 80 02 48 3a 00 2f e0 02 00 06 01 a0 85 0c
32 00 80 05 40 3a 00 20 00 0f 00 06 00 10 03 90
40 00 a0 00 4c 12 00 22 28 00 28 36 10 10 00 11
08 00 80 00 48 22 00 21 20 00 2c 36 00 00 44 44
01 00 80 00 e8 3a c0 21 2c 01 00 00 00 00 00 00
01 00 60 00 0c 02 a0 2e 00 00 8d 00 00 00 00 00
01 00 80 00 e8 3a c0 2f 2c 01 00 00 00 00 00 00
01 00 80 00 e8 12 40 20 00 02 89 00 00 00 00 00
01 00 80 00 e8 12 80 20 08 02 89 00 00 00 00 00
05 00 80 00 08 12 c0 2e 00 01 8d 1e 0f 00 0f 00
01 00 80 00 28 3a 00 21 40 00 8d 00 00 00 00 00
01 00 80 00 28 3a 00 22 80 00 8d 00 00 00 00 00
01 00 80 00 e8 0a 40 22 00 01 8d 00 00 00 00 00
01 00 80 00 e8 0a 80 22 00 02 8d 00 00 00 00 00
5b 01 80 00 00 00 1e 16 01 6e 20 c0 0c 20 87 04
5b 01 80 00 00 00 1e 18 01 7e 20 c0 0e 20 07 05
01 00 80 00 28 3a 40 21 c0 02 8d 00 00 00 00 00
01 00 80 00 28 3a 80 21 00 03 8d 00 00 00 00 00
01 00 80 00 e8 3a 40 2f 40 01 8d 00 00 00 00 00
31 00 80 02 48 3a 40 20 40 01 00 06 01 d0 85 0c
01 00 80 00 e8 3a 80 2f 80 01 8d 00 00 00 00 00
01 00 80 00 08 0a 00 2f 40 00 8d 00 00 00 00 00
32 00 80 02 40 3a 00 20 a0 0e 00 06 01 e0 0d 96
01 00 40 00 ec 3a 40 2e 4c 00 87 00 00 00 00 00
32 00 80 05 40 3a 00 20 40 0e 00 06 00 11 03 82
40 00 80 00 4c 12 c0 20 28 00 28 36 10 10 00 11
01 00 60 00 0c 02 80 2f 00 00 8d 00 00 00 00 00
01 00 60 00 e8 3a e0 2f ec 00 00 00 00 00 00 00
01 00 60 00 e8 12 40 20 c0 00 89 00 00 00 00 00
01 00 60 00 e8 12 60 20 c8 00 89 00 00 00 00 00
01 00 60 00 28 3a e0 20 40 00 8d 00 00 00 00 00
01 00 60 00 28 3a 00 21 60 00 8d 00 00 00 00 00
01 00 60 00 e8 0a 20 21 e0 00 8d 00 00 00 00 00
01 00 60 00 e8 0a 40 21 00 01 8d 00 00 00 00 00
5b 01 60 00 00 00 1e 0b 01 4e 20 c0 08 20 47 02
5b 01 60 00 00 00 1e 0c 01 5e 20 c0 0a 20 87 02
01 00 60 00 28 3a a0 2f 60 01 8d 00 00 00 00 00
01 00 60 00 28 3a c0 2f 80 01 8d 00 00 00 00 00
32 00 60 02 40 3a 00 20 80 0f 00 06 01 a0 0b 88
40 00 a0 00 4c 12 40 21 28 00 28 36 10 10 00 11
01 00 60 00 0c 02 20 2f 00 00 8d 00 00 00 00 00
01 00 80 00 e8 3a c0 2f 2c 01 00 00 00 00 00 00
01 00 80 00 e8 12 40 20 40 01 89 00 00 00 00 00
01 00 80 00 e8 12 80 20 48 01 89 00 00 00 00 00
01 00 80 00 28 3a 60 21 40 00 8d 00 00 00 00 00
01 00 80 00 28 3a a0 21 80 00 8d 00 00 00 00 00
01 00 80 00 e8 0a e0 21 60 01 8d 00 00 00 00 00
01 00 80 00 e8 0a 20 22 a0 01 8d 00 00 00 00 00
5b 01 80 00 00 00 1e 13 01 6e 20 c0 0c 20 c7 03
5b 01 80 00 00 00 1e 15 01 7e 20 c0 0e 20 47 04
01 00 80 00 28 3a 40 2f 60 02 8d 00 00 00 00 00
01 00 80 00 28 3a 80 2f a0 02 8d 00 00 00 00 00
32 00 80 02 40 3a 00 20 20 0f 00 06 01 a0 0d 8e
